Q9JKY7	451.66
Q9JKY5	7.36
E9Q838	24.95
Q8K2R5	25.74
Q6NSR8	31.44
P58710	139.38
P51410	803.86
Q3U155	16.3
A2ATU0	17.11
O70252	24.61
O35841	46.46
Q68FG2	84.4
P84078	42.49
E9PYK3	4.07
E9Q7F2	23.21
Q8CCJ3	68.77
Q99LE6	49.01
Q60759	524.72
Q80WQ2	9.99
Q8BZ09	26.47
P52479	70.74
Q9DB77	36.47
Q8BG51	12.17
Q8BLF1	57.68
Q80UE6	13.28
P56716	15.01
Q8BU33	90.33
Q8BU30	140.21
Q52KG3	14.73
Q3UU41	51.31
E9PVP1	4.76
E9Q6R7	2.24
D3YXK2	8.37
Q8VC30	4095.96
A3KMP2	168.4
Q91VA7	20.84
Q91VA0	1154.34
P32261	287.5
P52019	13.79
O08756	545.28
Q8VCA8	301.96
Q9EP71	24.24
P56399	1202.2
O08759	34.77
Q9EP75	58.83
Q61247	32.0
Q9R0Q6	42.26
Q925I1	65.89
Q6PDN3	33.04
Q8K4L3	3.62
Q62448	17.23
Q8BX24	155.98
P30999	284.98
Q8BGD9	51.1
P35486	183.09
Q8JZM7	14.52
Q9QYZ8	30.93
O08914	69.56
Q9Z172	424.52
Q80WC7	17.96
Q8CDN6	27.28
P41216	3057.51
Q9DBS5	12.82
Q8CIB5	45.22
Q8K010	440.98
Q571F8	848.11
Q8K019	879.45
Q91VS7	8467.99
Q63880	4180.8
Q9WVM8	184.77
O88986	97.87
Q64442	2759.19
Q4LDG0	253.9
Q9DBM2	1516.31
Q922B6	13.23
Q9QZE5	342.72
Q922B2	630.97
P04627	26.03
Q78PG9	71.85
Q9WTI7	21.64
P26645	59.3
Q91WU5	42.09
Q9CY58	236.02
Q91WU0	2526.55
Q6ZWV7	362.59
Q8K4Z5	129.12
P20852	294.49
Q3UQ44	920.74
Q8C7R4	7.46
P97449	16.04
Q91ZA3	1111.41
E9QAF4	12.08
Q3UMY5	7.99
Q6ZQL4	23.33
J3S6Y1	11.71
Q9D668	99.35
Q3UKU1	12.19
Q9D662	50.87
P21981	661.93
Q8JZQ2	39.3
Q8JZQ9	346.51
Q3UEP4	417.83
P50396	17.41
Q06806	7.06
P16332	583.88
P16331	1711.49
Q9R112	104.94
Q8VHE0	10.01
Q9QXG4	512.99
O35490	9982.19
Q2TPA8	243.36
Q9JKX4	88.71
O35945	467.22
P10649	55030.26
Q3TJZ6	111.82
Q9D6M3	152.2
Q8CB77	80.72
Q64151	9.5
Q9R062	23.51
Q64152	79.84
Q14CH1	101.82
P05064	44.69
E9Q7G0	347.11
P24472	1788.94
Q91X83	2203.27
A2AGT5	15.59
Q8BS28	63.76
O35658	56.72
Q80X19	9.11
P70175	9.41
Q99LD4	65.83
O88685	958.47
P62960	566.13
P18242	19.56
Q04998	55.67
Q8VE47	19.64
Q9Z2X1	134.62
P70168	307.68
P31001	65.76
Q6NZC7	7.94
Q61419	78.83
Q9CXF4	160.89
Q8CEE6	5.81
Q8BW86	27.84
Q80YR5	149.41
P43029	18.36
P32921	48.54
P53026	105.89
O88533	16.32
O88532	97.84
Q99MR8	820.23
P62814	31.1
Q9CZD3	96.67
Q99MR6	70.04
Q61081	19.72
Q9EP69	13.14
Q811D0	35.14
Q8BJY1	94.28
Q8VCF0	16.47
Q9D9U9	26.72
Q8VDN2	85.63
P29699	94.25
Q8C1R9	100.25
Q8VCT4	4569.0
Q9CQF9	15.57
Q8VCT3	303.62
Q9QYH6	10.27
E9Q557	103.03
P35492	754.62
Q6P1B1	176.93
Q91ZX7	73.18
P62702	59.43
Q91XT4	38.07
P16858	2603.28
Q91W18	32.08
Q31125	104.17
Q3UNX5	107.21
Q7TQG1	20.08
Q9WU19	64.35
P58871	14.51
Q91ZJ5	1080.45
B2RT54	210.72
P10107	22.71
Q61879	15.36
Q9WU00	16.42
Q91VR5	266.51
Q91VR2	374.4
Q64434	1032.24
Q64435	14.55
Q9DBN5	251.21
Q6RT24	6.14
Q9Z1M8	147.44
Q8VGB8	25.42
Q9CZW5	13.01
Q9QZD9	24.12
Q9QZD8	249.57
Q3UDE2	23.76
P97855	305.44
P97321	10.0
Q63836	7438.95
P33435	16.23
Q3UMF0	102.43
Q91V64	27.46
P40936	149.26
Q9Z277	25.77
Q0VEE6	11.76
O35226	561.77
Q8VI47	91.15
Q923Q2	21.1
O88844	2166.92
Q3URN1	51.69
Q6PEV3	19.0
Q9WVL2	33.37
Q9WVL0	1920.16
Q6DFZ1	38.28
Q7TMY8	180.4
P11725	1260.65
Q8BTI8	417.6
Q9Z2E2	75.36
Q9CWF6	11.0
Q8CHR6	695.65
Q6NVF9	29.74
Q6ZQ38	283.84
Q8BVE8	51.99
G3X9Y5	56.53
P06909	31.6
Q8BVE3	15.75
Q9D1H9	30.39
Q9CWJ9	287.6
O70475	930.28
Q9QXF8	1345.78
Q920E5	801.84
Q8BMJ2	183.51
O35488	574.46
Q8BH04	12.47
Q8C0Q2	8.43
Q8BH00	1753.56
Q9CXW4	130.28
O35551	17.67
Q99L04	258.63
Q14C51	237.4
Q9WUZ9	261.4
Q91WN4	193.53
Q9JJI8	321.6
E9Q8D0	42.74
Q60932	815.56
Q60931	85.79
Q60930	55.43
Q60936	171.62
Q9ER72	74.17
Q6BCL1	11.65
A2AIX1	75.44
P56480	8622.85
Q8BTG7	22.84
Q9Z2K1	68.17
Q91X77	473.13
Q9D8N0	1458.14
P12367	232.51
P47791	16.39
Q60649	46.29
Q14DH7	35.41
Q9JHI5	170.86
Q71RI9	223.63
Q99LI5	18.19
Q99LI7	21.22
Q91XE0	51.58
Q9D5T0	43.17
Q80UK0	11.08
Q61466	30.2
Q61464	8.06
P11983	771.09
Q8CGP2	4714.13
Q8VC19	24.77
O54828	11.42
Q8VC12	1780.4
Q00519	822.09
Q3TEA8	86.69
P23116	238.96
Q91VC3	56.33
Q3U0V1	320.74
O88543	18.39
G3X972	178.0
Q569Z5	67.39
Q8CGF7	7.1
Q569Z6	658.52
Q8BGT5	121.42
P51855	16.83
P18581	12.24
Q9QYJ0	173.03
Q8BZ20	55.02
Q8VDM4	544.17
Q8BYH7	84.49
Q8BGZ7	29.44
Q8VCU1	874.57
Q8BHJ9	12.92
P46664	52.75
Q9D0E1	226.52
P46662	12.6
Q05816	116.2
P62737	376.83
Q62264	257.26
Q62261	115.46
P46460	127.75
P17717	563.61
Q9EQ20	1807.04
P26039	306.39
P27046	13.36
Q8R1M2	4508.49
P46061	166.12
P68372	1835.5
P68373	211.46
Q3TXS7	565.63
P00186	997.61
Q8CI94	36.37
Q91VU6	28.37
P29391	380.5
Q91WS4	22.06
P63017	10113.68
A2ASS6	0.23
P97868	4.41
P40142	1885.6
Q91V92	1087.14
Q9Z248	16.61
Q8QZY2	238.58
Q8QZY1	316.86
Q8VI56	4.15
Q8VCW8	1333.1
O88833	15.08
Q8QZY9	59.48
Q8VEK3	1060.35
Q9WVK4	58.05
Q8CIN4	30.36
P11714	864.8
Q99JI6	168.93
Q6ZQ08	6.59
Q9CPY1	58.23
Q6DFW4	189.47
Q9CPY7	986.92
E9PXN7	131.27
Q6ZQ06	5.47
Q9CWK8	285.78
Q9Z1Z0	304.16
Q8R0W0	93.45
Q8BL97	57.07
Q9QXE0	815.09
P50247	9737.44
Q8R2Q4	40.85
Q8BFY9	42.96
P29788	272.58
P22892	48.14
Q9R1Z8	21.36
Q9QXS1	134.99
Q64176	185.66
Q91YJ2	50.96
Q9D5Y1	31.96
Q8CIP4	10.64
Q64374	605.49
Q3UQ84	32.29
Q64378	17.26
Q3TCH7	50.11
P23780	24.06
O70133	282.42
Q3TDN2	83.81
Q91YT0	259.51
Q8BRF7	194.56
Q99KB8	361.24
P59108	57.64
Q9D903	25.34
P70333	356.93
Q91XD4	1581.7
Q8C196	17229.5
Q61074	44.93
Q9DAD3	41.64
O55125	738.1
Q2EMV9	64.73
Q3UJB0	125.38
Q9ERU9	12.89
Q8CHQ9	33.28
Q91Y97	5431.7
P62830	709.96
P39054	62.73
Q3ULL6	77.06
P20152	835.44
Q8CHG7	5.28
Q9ERG0	136.01
P35700	317.27
Q9JKF1	9.32
P01027	249.95
O08709	106.08
E9Q5C9	35.8
Q922E4	563.82
P01029	109.41
Q99NH0	3.21
Q6X7S9	173.78
Q9DB20	37.64
Q8K3G9	11.91
Q9JHJ8	24.46
Q9DCH4	115.77
Q8BWR8	11.43
Q61102	10.65
Q6XVG2	220.43
Q80XL6	362.39
Q8BX70	71.18
P46471	361.56
Q501J6	315.84
P09055	19.94
Q8R5C5	20.8
Q7TQW8	24.88
Q9EQ32	9.67
Q8JZN5	166.37
P24788	48.05
Q5SWU9	275.19
P68369	2333.04
P68368	792.73
Q6GQT9	13.18
P14115	158.89
E9Q4K7	150.47
Q922S4	8.52
P61979	1397.46
P10126	11933.56
Q9Z1K6	30.49
Q9Z1K5	82.43
P26231	289.92
Q9D051	67.76
D3YX67	18.65
Q9JLV5	197.75
Q9JLV1	213.26
P97872	879.45
Q5SSW2	8.33
Q7TNG8	559.76
F6ZDS4	77.04
P62911	499.07
Q8CFC7	103.03
P16054	10.52
Q80XN0	413.34
P49429	4040.7
Q6QI06	4.59
Q9CPN9	233.0
Q9WVJ3	101.84
O09106	47.91
Q7TQK0	252.05
Q3UPH1	56.99
P61622	13.22
P14733	329.21
P61620	151.44
Q812F8	13.89
Q8JZR0	357.76
Q8BKZ9	81.43
Q9CWL8	13.53
Q9QXD6	238.26
Q9QXD1	606.43
Q91YJ5	119.01
P58064	61.46
P62192	840.4
P62196	269.86
Q8R2P1	13.36
Q8BH65	12.75
Q91YK2	10.91
P23953	201.66
P62267	1390.86
P62264	108.09
Q9Z0X1	777.18
Q91WL5	211.01
P80316	472.01
P80317	727.79
P80314	963.98
P80315	727.01
P80313	574.99
Q8CCF0	63.47
E9PYG6	15.24
Q99KC8	191.75
Q9ET54	11.56
Q07417	39.18
Q9Z2I9	368.54
Q9Z2I8	976.35
Q99N87	109.46
Q08943	87.01
Q9Z2I0	360.31
Q91W90	56.84
Q99M15	270.97
Q60710	60.53
Q5RJG1	21.97
P13707	280.88
Q9DAG9	49.71
Q61598	1392.2
Q921M3	45.42
Q921M4	7.76
P51125	31.07
Q61595	11.53
O55131	17.4
O54734	2349.89
Q9CZS1	580.68
O35607	7.65
P39447	76.77
Q9R1S7	5.33
P62843	154.84
Q3UMU9	23.68
Q569X9	328.95
P62849	513.21
A2ADY9	2445.65
Q9ERF3	78.12
Q9DCW4	191.03
Q8BJZ4	24.45
Q80W21	2223.47
Q80W22	227.22
Q99KQ4	206.2
Q9JHK4	54.13
Q60668	275.16
P22315	18.66
Q505F5	359.59
Q8BJL9	14.55
Q5SWD9	38.19
Q3TJ22	18.75
A2AJL3	276.95
P42567	294.73
Q9QZ85	92.44
Q9JHU4	84.3
Q8BHC4	33.22
Q9JHU2	28.05
P39061	9.66
P27661	116.16
O88569	70.54
Q8R1Q8	46.6
Q8K182	133.09
Q810U5	1045.77
P52760	185.09
P04768	69.42
O08663	83.09
Q9WU79	620.47
Q61823	85.05
Q8R016	50.24
Q3THK7	183.41
Q8VHS6	40.27
Q99MI1	34.27
Q922F4	70.23
Q76LS9	120.18
Q9D0I9	255.68
Q9D0I8	95.78
Q91WQ3	312.47
P63037	294.02
Q6B966	7.76
P97807	1941.54
P40124	460.5
Q9CYR6	192.3
P19096	2269.47
Q8BMF4	530.72
Q3UH06	19.1
Q8CFD4	16.89
Q9D423	60.38
P12970	58.68
Q9WU78	375.51
Q8CIH9	30.64
Q5SYL3	3.46
Q8JZU2	25.92
Q8VEM8	288.48
Q91X43	745.86
P61164	61.91
B9EJ54	3.87
P61161	19.65
B1ASB5	47.65
Q6PGC1	11.42
O35344	167.45
Q91Z38	26.44
Q8C9B9	7.12
Q5DTK1	8.79
Q8BJ71	9.43
B2RY56	53.01
Q6P4T2	43.16
Q9Z1X4	36.64
A2AKK5	57.27
P50516	115.84
A2AT37	5.96
P22437	12.74
Q3TCJ1	18.73
P16460	8136.93
P01872	35.2
Q91YD9	16.2
Q99K28	512.78
Q8CH09	7.45
Q80XC3	9.4
Q80XC6	6.59
Q9D554	134.52
Q9JJL3	57.31
Q9DCX2	281.44
Q8R164	1124.4
Q8CAQ8	408.81
Q91X44	244.75
Q9ESM3	23.19
Q9Z0N1	275.56
Q68FL6	216.77
Q80X50	7.53
O35129	316.96
P52825	677.6
Q99M28	359.93
Q9CPU0	42.26
Q01853	3278.73
B2RVZ0	32.21
Q8BH59	82.56
D3YUU6	15.15
Q69ZA1	10.69
Q61586	103.24
O55102	61.58
Q99KP6	334.34
Q9D8C3	6.84
P70195	147.11
Q8CHW4	65.89
Q9JKV1	480.93
Q9DD20	156.77
Q8R2E9	147.9
Q9CR68	928.34
Q91VD9	1620.54
P62852	64.0
P62855	473.01
Q8CGK3	423.77
P05202	204.05
P05201	19.02
E9Q649	16.65
Q9WU42	3.26
P70441	68.35
O88487	90.01
Q8BYK6	55.0
Q9R0N5	20.39
P24270	7721.73
Q03963	30.18
O88379	4.93
E9Q035	734.28
Q7TNP2	13.34
Q99KV1	108.43
O55128	149.95
Q8VE88	65.09
Q9QYE6	21.35
Q6IFZ6	71.67
Q8C0D5	6.99
Q8BGY7	111.33
P24456	153.66
Q8R311	40.1
Q8R317	12388.28
Q9DCD0	379.89
Q8CBY8	16.58
Q8R3L2	11.47
P00405	67.71
P62984	127250.6
P27659	1239.76
Q9EPU0	290.87
Q80WJ7	68.87
A2A4U6	1550.85
P42225	121.03
P42227	89.89
P14131	481.31
Q61838	196.2
P20357	4.42
Q9EPK7	14.21
P35505	1371.31
Q922Q1	276.32
Q9JLF6	29.37
Q9JLF7	9.01
Q9ERK4	103.51
Q9QUM7	9.5
B1ART1	1.8
Q571I9	93.39
Q8VGN9	100.29
Q8R0F9	229.16
P19157	89068.09
Q8BUV3	147.84
Q8CFA2	199.84
Q62167	517.33
Q9D0N7	13.93
Q8C5W0	52.52
P97494	508.99
Q80XP9	4.53
Q3V1V3	17.94
Q80TP3	2.85
Q8CFE4	17.02
Q9JMH6	301.53
Q8QZT1	902.7
P49442	20.29
Q9JMH9	34.01
G3X9K3	4.22
E9PVX6	7.52
Q9DBJ1	30.5
Q9JK53	101.57
P37040	262.55
Q9JII6	120.19
Q8BKX1	103.93
Q99J08	1044.72
O35350	53.56
Q64213	37.48
Q920A5	17.26
Q8BJ64	278.08
Q9CSN1	57.22
P05784	5217.09
Q8BL66	65.59
Q9CXS4	95.8
P47911	734.86
Q9JM13	618.59
Q920S3	61.64
Q91YE7	19.05
Q91YE6	15.16
Q3TMH2	18.45
Q7M6Y3	835.91
P62082	3537.43
Q99K30	224.6
Q99L45	1246.75
Q5SXY1	7.45
F7C7Y4	24.48
P62245	1126.0
Q61768	144.5
O35286	260.92
O55022	40.54
O55029	403.47
Q07076	140.93
Q8BRK8	70.9
Q8N7N5	53.28
Q06890	68.1
Q9D5F6	58.58
Q91X34	151.36
Q8BIV3	7.06
Q9DAW6	15.07
Q3UIR3	465.98
Q14B02	40.81
P48678	1978.38
D3Z6T9	103.13
Q8BFZ3	41.88
Q6ZPF3	13.7
Q99LM2	77.16
P06151	963.83
P55264	613.34
Q60865	202.52
P26262	24.64
Q99PL5	798.69
P47738	6113.25
P59325	718.4
Q5XJY5	583.97
Q8CHT0	1351.04
Q8CHT1	32.1
E9Q0S6	13.1
Q91YW3	153.05
Q3UQN2	19.82
Q9JHJ0	111.32
P70297	161.85
O35623	66.25
O88746	242.84
Q61334	31.45
Q8BUK6	10.57
P62862	132.29
P35979	98.79
Q3UV71	8.31
P70279	21.33
O88342	79.46
Q60991	105.29
Q9D7D2	56.26
Q8VE97	15.71
Q99020	513.46
P46425	2092.46
Q6A4J8	130.06
Q8BLN5	63.47
Q8BLN6	21.77
E9Q4Z2	102.06
Q61103	19.88
P27641	42.35
J3QQ16	9.14
Q8VCZ9	52.02
Q0QWG9	6.66
O88587	238.61
Q9QY30	83.9
Q3U2P1	192.51
Q8BSY0	31.77
Q9WTU6	18.25
P46735	54.73
Q8CI51	166.73
Q9QZQ8	221.33
P62880	23.56
Q91VY9	82.27
Q9QZQ1	68.14
P62889	1100.71
Q8BHN3	345.5
Q8BWQ1	460.46
Q3UX10	52.78
Q922D4	27.87
Q99JB8	144.81
Q9QZC2	4.98
Q99JB2	22.91
P04104	884.75
Q922D8	1008.09
P06801	2145.25
Q8BGL3	898.09
Q3THW5	130.2
Q5SSH7	2.68
Q8VIJ6	186.52
P97393	5.11
P97390	13.52
Q63886	688.38
P97823	35.62
Q80TA6	10.28
O54774	6.51
Q8VIG1	7.47
Q80TS7	11.51
Q64514	207.48
Q64516	43.09
Q91W89	22.81
Q9DBK0	185.12
Q7TQH0	71.53
Q9CZ44	259.24
Q99J39	80.34
Q9WVE8	189.02
Q99J36	22.62
Q9CR62	463.49
P12710	617.34
A0JNU3	290.28
Q9Z1F9	49.85
P54071	310.97
P63276	283.26
O70318	24.0
Q5PR68	15.61
O70310	154.6
Q9CXR1	92.17
Q8R0Y6	5238.91
Q8R0Y8	74.87
Q9Z1T1	21.5
Q64339	294.83
Q64331	30.03
Q99K01	40.28
Q64337	438.25
Q8HWE6	23.42
P47856	22.4
Q9WUM3	32.63
Q9ET22	62.54
Q9WUM4	49.67
Q8K0C4	139.41
Q8CAS9	27.3
Q91X20	25.77
Q8BIW1	17.51
Q640M1	151.17
Q8C6B0	93.91
P99024	212.47
O54988	12.43
Q9R190	58.61
Q6PB66	555.93
Q9D1Q6	187.71
Q8CC86	181.13
Q03160	73.34
O35926	22.59
Q8CC88	103.02
Q8BMG8	50.19
O54749	1141.49
P84228	57.15
P60122	70.06
Q9CZP5	111.31
Q8VBT2	127.12
Q9JIK5	300.83
Q8VBT9	29.42
Q60864	281.06
Q8BP56	23.0
P17751	136.6
Q91YP2	43.74
Q91YP0	69.11
Q6PDQ2	20.19
G3X922	13.83
Q9DC71	29.85
Q8CGI1	6.43
Q9CZN7	1056.77
D3YY61	37.66
Q9EP89	217.31
P62874	94.12
P70266	144.31
Q6PDG5	33.16
Q8VCH0	439.78
P57780	1156.13
Q11011	136.19
Q8VCH6	29.26
Q9QYG0	1466.18
Q9R0H0	2851.09
Q9DCT2	466.73
Q8CFX3	15.65
P51174	18.36
Q61033	46.8
Q61035	168.45
B1AY10	7.1
B1AY13	5.98
P32507	15.34
Q61147	7.26
P60335	257.99
Q8R1B4	433.35
Q921X9	593.56
P54823	64.91
Q80UP5	170.19
B8JJ66	65.9
Q8BY40	26.58
P52792	202.61
P00688	245.5
P62892	686.33
P35564	274.52
O08529	231.23
Q8K4G5	109.02
Q9EQF5	775.2
P42669	75.63
Q6A0A9	209.66
Q6A0A2	75.42
Q9D0L8	66.01
P97386	7.78
Q04750	96.78
Q9JLZ3	26.34
Q9JLZ6	65.86
Q8K157	116.33
Q8K154	317.83
Q8C1D8	82.53
Q8K370	44.35
P16015	1167.99
Q9D0R2	1055.07
Q64521	184.68
Q8QZR3	1249.49
Q8QZR1	52.18
Q8CDG3	13.08
Q8QZR5	526.31
Q9QUR6	544.55
A2ALK6	8.81
Q9DBT5	9.56
Q8CIE6	241.42
Q8CIE4	118.76
Q9DBT9	1211.75
Q3TLH4	25.46
Q9CWP6	29.39
Q6ZQ58	50.81
Q80YR4	62.06
Q9CZ30	255.6
Q9CXF0	487.43
P11588	1362.99
Q9D1F9	57.28
P61358	167.01
Q9DBF1	1284.96
Q9Z183	11.82
Q9WVD5	107.18
Q9Z185	11.91
Q9CR57	37.32
Q8BL48	9.99
P63260	5471.29
P11103	38.88
Q6AW69	5.93
Q99L47	295.58
Q9D4H8	40.49
Q76KF0	7.34
Q99JY9	241.42
Q99JY0	1352.08
Q8R4H7	15.3
Q9D565	14.2
P36993	82.2
P62242	181.67
P26369	673.77
Q99KG5	39.91
Q6P5E4	338.96
Q99L88	105.99
Q8C945	124.75
A2CEK6	42.62
P84099	1911.4
Q69ZR2	60.63
Q8BIX2	129.53
P61222	209.04
P34914	3643.64
E9PY61	3.54
Q8BKT7	22.35
Q07456	22.53
O70305	70.88
Q9Z160	8.06
P50544	1451.82
Q6PGL7	30.26
F6WAH6	54.27
P70670	7.98
Q80UM3	26.13
Q99LC5	577.79
Q80UM7	28.73
Q99LC3	86.64
Q8BIJ6	85.76
Q8BIJ7	10.94
O88291	161.8
Q8C0I1	12.27
O55176	110.1
Q8BP40	36.93
Q8BP47	437.83
Q8K2T8	130.79
Q8CCB2	73.76
Q91YQ5	654.52
O35643	236.93
P35951	9.26
Q9CZM2	254.96
Q9DC69	475.67
Q61316	887.57
Q8K2F8	17.4
P14869	128.52
Q93092	70.57
Q9CVD2	21.7
Q9DCS9	41.83
P21619	287.42
Q8VDW0	89.62
Q61792	58.64
P45952	321.66
O88430	170.74
Q9JMA1	329.79
P08228	220.65
Q3U1J4	201.06
Q8R5H1	367.99
Q9Z0U1	207.67
Q08288	261.41
Q8BG32	370.79
Q8C166	59.74
Q8C165	126.4
Q6NZJ6	234.76
Q91VI7	388.4
P28352	49.56
Q62376	558.21
P35550	51.27
Q9QZS3	198.71
Q8R050	205.05
Q3UIL6	20.82
Q01405	622.64
Q64FW2	156.74
P00329	6390.74
Q61176	1692.84
Q6PHQ9	146.09
Q9JLI6	130.5
Q9JLB0	56.17
Q63932	39.61
Q922J3	11.29
Q9QZM0	143.64
Q9D0M3	49.79
Q6ZWN5	856.46
Q8BH43	113.85
Q8R123	16.06
Q8C5H8	190.22
Q8CAY6	447.21
Q8K411	22.48
Q8K363	11.86
P97351	235.43
Q8K368	17.67
Q8VI36	95.48
Q91W67	21.75
Q91W64	957.65
O09174	126.53
Q9CX00	22.28
P60670	232.74
Q3UEG6	369.56
P32020	4001.23
Q9DBU3	164.8
O09173	2024.4
P46978	120.03
P11352	157.55
Q6PAM1	56.4
Q9D1A2	383.34
Q8CJF7	3.55
Q9JMC8	73.83
Q8K1M6	212.8
Q9D281	57.66
P48036	49.2
Q9DBG7	75.79
Q9DBG6	241.95
Q9DBG3	403.65
Q9DBG1	1013.88
O54754	167.89
Q8C753	4.9
P15105	1545.12
P25444	619.52
P62301	51.07
Q9Z1D1	98.71
D3Z7F6	109.86
Q9WVJ2	41.09
P26150	209.24
B2RR24	4.45
P30115	32111.81
Q9Z1R9	1547.94
Q64310	347.38
Q91V12	82.7
Q99K67	862.6
P13864	24.0
Q99JX3	112.18
Q9Z1R2	530.43
P52480	106.43
A8HG57	214.57
Q8K3H0	66.52
P54103	12.26
P48725	2.67
P48722	55.91
Q3URE1	108.11
Q4VA53	5.35
P63325	976.36
Q5SUF2	68.37
A2AS89	68.97
P31938	20.23
Q69ZS7	70.26
Q8BK64	46.15
Q6P5F9	28.58
Q9ET01	3212.41
Q9EQU5	26.35
P50172	706.53
Q3THG9	19.56
P33267	2687.97
Q80X95	24.05
Q8BIY1	14.86
Q80X90	408.36
P61255	50.96
Q570Y9	19.07
Q8BMA6	311.54
Q9CPQ3	169.81
Q8R2W9	21.39
Q8BWW4	132.31
Q99M87	100.62
O55143	7.66
Q78ZA7	123.64
Q99LB7	1997.97
Q99LB2	29.43
Q9JKR6	941.32
Q8BKC5	35.58
P29341	1107.56
O35075	53.35
Q91YR5	22.33
O70194	219.9
Q3TDD9	9.96
Q0P678	141.46
Q9DA77	42.09
Q9DC50	500.67
Q9DC51	21.69
Q8BWF0	282.85
Q8VCN5	1069.89
Q8CHY6	78.37
O88735	139.39
P17225	295.87
Q8BQ46	15.01
P09411	1816.19
Q61545	179.85
P70398	75.63
Q921H8	480.22
Q99N19	29.4
A2AJI0	37.71
Q8VDD5	178.71
Q6PAR5	5.42
Q8VDD8	68.1
O88428	287.53
Q9QZM3	557.04
Q01279	130.43
Q9JHR7	149.35
Q8BG05	22.18
P24527	611.35
Q91XL9	16.32
Q8K2J0	9.93
P14211	219.89
P27612	90.75
Q3B807	26.5
E9Q740	427.25
Q61301	16.71
Q91VH2	52.86
Q8CI66	20.49
P28656	290.93
P28658	32.75
P35235	38.54
Q922U1	204.38
Q9CQN1	668.85
Q9CQN6	302.17
Q8BHS3	112.52
Q00897	325.03
O09012	186.44
Q61164	147.02
Q9JLJ2	575.19
O08788	31.04
Q8BWT1	7653.03
P82198	11.79
P67778	442.39
Q99MN1	337.06
Q922K7	30.41
Q99MN9	1219.62
Q62418	54.18
Q62417	12.29
E9Q555	7.52
P27546	52.43
Q8BGC4	21.7
Q8BGC0	61.19
Q8R1V9	166.11
Q7SIG6	16.47
Q3URV1	5.94
Q63850	16.51
Q9JI78	11.84
Q5BLK4	72.81
Q8R1X6	36.31
Q3UPF5	8.24
P15626	3385.6
P07901	1306.94
Q80ZX0	12.98
O09167	426.42
Q05793	66.24
P97290	47.47
Q62523	14.53
Q148V8	6.71
P97298	19.02
Q02053	933.15
Q9JLI8	24.07
Q9JIF7	591.43
P59509	19.61
Q05421	1718.53
P62334	119.46
Q99JI4	38.63
P14685	449.02
Q3U3V8	9.89
Q9CQR4	231.7
Q9JIZ0	246.11
P26638	180.75
P17182	3451.38
O55201	29.15
Q9Z1Q9	263.44
Q9D906	124.8
Q9D2V7	52.34
O35083	55.47
Q9WUR2	20.33
P48758	1349.01
A2APC3	32.51
Q9ESX5	122.57
P59999	89.44
A2A6A1	5.33
Q9CZ13	116.48
Q9D5J6	85.71
Q6P5G6	101.16
Q7TPR4	76.8
Q9CQ62	2695.67
Q80X81	233.28
Q3U487	9.03
Q80X82	12.36
P59759	7.48
Q5D1E7	13.41
P49722	33.92
P38060	25.69
Q9D6F9	53.21
Q7TMM9	1409.77
Q9CPP6	131.66
Q60823	15.78
Q60825	12.79
Q03311	12.85
Q8VC97	60.05
P50580	865.4
Q8BVY0	209.31
O35660	377.82
Q9CU62	18.42
Q7TPV4	86.77
P54775	333.92
P29351	26.04
Q8BI72	73.6
Q9QXZ0	3.17
P31651	50.53
Q9R092	292.32
P61922	825.69
Q9DC40	37.7
Q6RHR9	10.86
Q03265	6049.26
Q8VDU3	79.23
Q3TW96	15.53
Q99KK7	350.1
Q99KK2	91.5
Q9QYB5	11.16
Q9EQH2	189.76
Q9EQH3	450.7
Q5YD48	214.24
Q9JHW4	110.73
P09405	194.87
P07759	1181.88
Q921G7	1214.11
P29758	545.63
Q61753	31.08
Q8BG19	10.6
P52430	622.4
Q9JHS4	343.0
Q61687	3.16
Q3UZ39	11.1
Q921N6	92.1
P14206	1017.72
O88700	5.55
A2AN08	23.05
P59242	109.57
Q8CI11	14.47
P28665	372.44
P28666	297.88
Q62318	237.57
Q8K0L9	10.85
E9Q414	13.81
P14246	30.8
P80318	913.85
A2AE91	3026.73
P08113	3357.11
Q792Z1	2951.57
O08553	155.34
P27773	2374.09
Q8K4B4	11.97
Q8BWU8	63.39
O08795	104.71
Q6IME9	216.96
Q61191	8.36
Q5XG73	15.53
Q922H4	57.05
F7B5B5	221.24
Q8R146	97.02
Q80TM9	20.1
Q8CH25	188.05
Q3THS6	40.26
Q8CFX1	385.7
P62754	1042.57
Q78JE5	238.75
P62751	99.4
P36916	38.37
Q8C1A5	56.36
Q5SUV2	33.05
P97379	113.82
Q9WV68	533.86
Q8CIF4	90.74
Q91W43	256.23
Q8K297	49.5
Q9DBW0	28.86
Q9D287	67.31
Q62452	29.31
Q6ZWY3	835.2
P26043	769.85
P26041	51.91
P19639	3216.48
Q9DBA8	283.77
Q9WTM5	51.62
Q6P6M7	31.79
Q9Z315	19.35
Q8VHK9	7.72
P19324	18.9
P54728	626.56
P54729	37.53
Q9CY16	42.86
Q9D024	47.25
Q9Z1P8	19.31
Q6NZR5	6.4
Q99K48	322.5
E9Q3G8	11.57
P19253	74.96
Q99K47	243.79
A2A5R2	13.05
Q91WG8	344.24
Q91WG0	774.3
Q00896	249.51
Q8R4Y4	3.18
Q3UC65	25.46
Q9D620	24.88
Q00898	95.82
Q00899	39.33
E9PWW9	32.85
Q8BK48	578.62
Q1HFZ0	51.46
Q9CYH6	105.83
E9PW44	30.8
A2APV2	21.43
P52785	7.29
Q99NB9	42.22
Q99NB8	27.7
Q9D8W5	166.27
Q99NB1	11.79
Q9D244	49.76
E9PVA0	24.75
Q8R2Y8	90.08
Q6NXK2	15.85
P47962	945.91
P47963	398.03
P47740	325.9
Q9D8E6	1119.06
Q99PG4	31.85
Q99PG2	12.44
Q99PG0	155.49
A2AQB2	4.98
P06745	630.52
Q8BW66	26.34
Q8C0L9	57.42
A2A9I7	22.89
Q9QXY6	303.66
Q9QXY1	61.98
E9PV38	210.33
Q07797	40.91
O35691	672.12
Q9WUA2	281.12
Q8BI84	20.58
Q9JIA7	107.22
P35922	38.24
Q6P9R2	226.61
Q5SW19	386.08
Q60960	29.23
E9Q5K4	62.35
P02088	55.52
P56593	814.05
Q9QYC0	21.81
Q3UEB3	87.58
Q9Z2V4	1483.64
Q9Z2V5	6.99
Q921F4	13.71
P02535	137.01
P07724	2010.05
Q921F2	118.45
A2RRY9	18.65
Q8BG60	138.77
Q61749	76.31
Q8BYC6	25.05
Q9DCN1	34.15
Q8VDJ3	930.7
Q8VE09	564.41
Q9D5Q6	29.21
P17563	2512.1
Q00PI9	103.54
Q05D44	140.6
Q6P542	148.21
Q3ULD5	429.85
Q61694	146.96
P24547	204.84
Q61696	414.14
Q61699	164.2
Q8BZW8	22.43
P19536	63.67
Q9WTP6	33.23
Q8K1R3	30.79
Q8BY87	106.12
Q8CGC7	341.28
E9Q401	1.56
Q9QUK4	5.36
Q8VI84	18.87
P52196	289.07
Q6PDI5	17.27
Q78JT3	107.24
Q8BGS1	258.55
Q8BGS0	25.0
Q61183	10.68
Q99388	73.1
O08582	48.66
O08580	38.69
Q80VP1	423.58
Q62186	185.77
Q8R151	4.02
Q3UVR3	6.43
Q80TL7	9.3
Q8BHG1	26.47
Q8BGA8	410.15
Q8BYU9	19.48
E9Q6L7	551.69
Q6P1F6	34.03
P54869	3095.47
Q91W50	118.86
P19001	59.23
P97364	533.19
Q91W59	19.99
P48193	45.85
B2RT14	14.64
Q8JZZ0	73.69
P17742	48.94
P49222	34.37
P97742	59.79
Q8R086	448.74
Q8R084	409.35
Q9R1C7	81.07
Q3U4G3	40.12
Q9CR16	43.17
Q9CR10	317.24
Q9DBB9	43.63
O70570	20.69
P54731	476.27
Q9Z1A1	183.99
E9Q166	5.34
Q8K1N4	14.92
Q8K1N2	6.22
Q64471	32.13
P11499	4245.22
Q9D2F7	4.21
Q9JIX8	268.42
Q8R0N6	52.83
Q9D826	240.69
P12787	273.11
P48774	1485.87
A2AMT1	11.94
P48776	1362.77
Q3UTJ2	126.26
Q99K51	658.9
Q8BM72	68.03
Q923U0	16.69
Q91WD5	401.08
Q9CRT8	16.03
Q6ZQI3	27.19
Q9D819	80.77
Q9Z2A9	28.52
Q8BTM8	53.16
Q64727	271.26
Q9QUJ7	22.24
Q9CYI4	140.13
P38647	3711.29
P49586	21.11
Q3TIX6	14.19
Q9CPR5	78.66
Q3TIX9	13.5
Q76MZ3	659.71
P24549	3487.65
Q7TMK9	378.9
P30416	494.54
O70435	185.77
P11679	5334.99
P60843	1600.63
Q8BW75	720.9
P20918	9.68
Q91YM4	24.6
A0AUP1	83.32
Q9QXX4	673.18
Q68FE2	13.93
P49698	16.69
Q8K0D5	178.95
P58735	69.63
P15208	11.3
Q3U319	15.43
Q60974	84.49
Q60972	92.27
Q8K2B3	1114.71
Q497M3	20.59
Q8VCM7	142.45
P57776	702.61
Q8R404	131.53
Q6PA06	26.56
P14824	834.44
Q61510	85.83
Q99KI0	1276.02
Q9Z2W0	320.07
Q99LG0	28.25
O54917	28.51
Q91YI0	4266.54
P08775	4.05
Q8VDI7	19.32
P62918	376.58
Q60597	317.2
Q9ES00	13.19
P52293	30.36
D3Z4N8	8.95
Q60598	86.15
Q6P3A8	266.63
P70694	1258.15
Q91VM5	41.72
Q80UG5	187.76
Q8R570	18.9
Q8C0C7	152.69
Q8CI08	98.69
Q61425	51.04
Q78PY7	1386.98
P11276	61.31
Q05920	2760.1
O89050	10.36
Q9EPL9	11.22
Q9EPL8	95.69
Q3UJU9	152.13
Q9CQM9	23.28
Q8VCC2	926.05
O08573	87.87
Q4KMM3	27.51
P17426	40.84
P17427	448.12
Q9QX47	16.55
O08808	25.25
Q9D9H5	142.69
P25976	29.48
E9Q5F9	6.16
Q8BFW7	333.68
P58281	7.9
Q9CQC6	36.61
Q9CQC9	157.17
P08551	14.3
Q8VCQ8	349.15
Q8BWY7	24.8
Q80SY4	55.92
Q8BWY3	215.24
P08003	1624.98
P23249	61.94
Q91WT9	771.66
Q8JZK9	504.13
Q8R5F7	15.17
P51612	16.83
Q02257	301.04
Q68G58	15.34
P42125	54.54
Q8K327	10.04
P97315	85.46
Q62513	18.94
P46935	145.57
Q62511	27.75
Q8VCB3	500.25
P28843	291.69
D3Z420	16.31
P14148	111.96
P53657	2272.45
P32067	202.57
Q9JII5	40.7
Q3TNA1	221.55
O08601	1056.08
P26443	5993.41
Q9DBC0	47.4
Q9DBC7	40.73
Q8VEG4	15.49
Q5F297	24.72
Q8BMS1	3191.49
Q9WUH7	19.04
P67984	536.3
Q9D2G2	682.11
Q9JLQ0	112.35
Q8R180	48.78
Q9CQQ7	941.78
P50285	14.68
Q91YU8	333.41
Q9CYX7	28.32
O08810	24.13
Q9Z204	76.73
Q810A7	25.88
P21614	196.9
Q9DBE0	287.07
Q64737	24.54
Q3UM45	63.9
Q9D8U4	28.49
Q9CRA4	25.29
Q9D8U8	18.79
Q64285	66.82
Q9D6Y7	33.84
Q91Z53	74.68
Q64282	16.37
Q9D6Y9	700.39
P11688	15.29
Q9R1P3	38.39
Q9R1P1	114.89
Q60749	145.45
Q8BH35	39.84
Q60737	896.34
Q924D0	81.11
Q8C804	9.2
Q8R2M2	563.51
P55096	116.52
P59096	33.54
Q8BGW1	45.48
Q8K2Q9	12.33
F8VPN4	292.67
P16406	65.17
Q91YN5	60.02
Q8K0E8	48.19
Q68FD5	1267.16
P50136	226.98
Q5U458	13.91
P51660	1272.47
P35123	8.12
O88738	4.96
P51885	45.97
P51881	721.07
Q9EQK5	394.24
Q8BLY2	19.26
P17047	96.26
Q61503	27.54
Q99KN9	975.58
P16546	290.48
P84244	57.38
Q99LF4	143.26
O54909	73.81
B7ZMP1	62.07
P62900	547.27
P62908	2044.2
Q8BIA3	22.32
P28474	311.33
Q6Y7W8	29.47
P59279	72.69
Q14BI7	270.64
P24369	37.09
Q922P9	14.73
D3Z0M9	36.84
Q7TSC1	11.51
P35585	36.23
Q61656	253.85
Q922Y1	157.17
O89023	258.07
Q99LI8	20.45
P60229	67.37
Q99MP8	551.38
P57016	14.94
P17439	61.05
Q8BGQ7	477.13
O08749	1296.39
Q61233	225.67
Q7TPM1	16.4
P28271	824.56
O89112	678.89
Q9DCL9	37.42
Q80TN7	13.94
Q9D0F3	91.31
Q9D0F9	1689.69
Q8CH18	53.28
Q6A068	419.75
P50431	635.35
Q9CZU6	356.98
P20029	5950.39
P53395	677.19
Q3TBA1	51.46
Q9WV32	64.25
Q02248	205.79
P97303	9.58
A2BE28	9.84
Q9DBR7	15.3
Q9DBR0	34.58
Q9DBR1	24.28
Q922R8	950.78
P42932	1063.25
P14152	337.23
O08638	85.22
P97760	56.18
Q9CX99	34.79
Q8K268	44.05
Q9DBL7	326.13
Q9DBL1	202.08
Q64458	883.95
Q64459	106.41
Q8VH51	192.45
P58252	1393.29
B2RQC6	21.69
Q91WT8	96.1
Q3TIV5	127.39
Q9CQV8	93.94
Q3UKJ7	30.57
Q8K310	269.52
Q91WT7	212.84
Q6PGF5	302.4
Q9D2R0	175.43
Q8BFR5	603.98
Q9Z210	30.63
Q5XJE5	23.27
P97432	55.99
P14576	47.35
P09103	2034.59
Q9JJ89	359.45
Q8CIM7	108.05
Q3UPL0	375.31
P56959	150.27
P63038	4386.16
Q9Z2G6	29.87
Q8BK30	148.9
Q8BK35	614.76
Q9JJK2	277.12
P46414	317.03
Q99PV0	12.86
Q3V209	104.05
Q6NXL1	78.05
Q9D6Z1	231.93
P13439	67.27
O35448	25.59
Q5HZI1	32.72
Q6PGF7	10.85
Q9Z108	260.95
Q8CC12	12.94
Q8C2Q3	139.3
E9PVD4	25.42
