('/home/simone/SiComPre_GUI_linux/build/App/App',
 True,
 False,
 True,
 None,
 None,
 False,
 False,
 None,
 True,
 'App.pkg',
 [('out00-PYZ.pyz',
   '/home/simone/SiComPre_GUI_linux/build/App/out00-PYZ.pyz',
   'PYZ'),
  ('_struct',
   '/home/simone/Canopy/appdata/canopy-1.5.5.3123.rh5-x86_64/lib/python2.7/lib-dynload/_struct.so',
   'EXTENSION'),
  ('zlib',
   '/home/simone/Canopy/appdata/canopy-1.5.5.3123.rh5-x86_64/lib/python2.7/lib-dynload/zlib.so',
   'EXTENSION'),
  ('struct',
   '/home/simone/Canopy/appdata/canopy-1.5.5.3123.rh5-x86_64/lib/python2.7/struct.pyc',
   'PYMODULE'),
  ('pyimod01_os_path',
   '/home/simone/Enthought/Canopy_64bit/User/lib/python2.7/site-packages/PyInstaller/loader/pyimod01_os_path.pyc',
   'PYMODULE'),
  ('pyimod02_archive',
   '/home/simone/Enthought/Canopy_64bit/User/lib/python2.7/site-packages/PyInstaller/loader/pyimod02_archive.pyc',
   'PYMODULE'),
  ('pyimod03_importers',
   '/home/simone/Enthought/Canopy_64bit/User/lib/python2.7/site-packages/PyInstaller/loader/pyimod03_importers.pyc',
   'PYMODULE'),
  ('pyiboot01_bootstrap',
   '/home/simone/Enthought/Canopy_64bit/User/lib/python2.7/site-packages/PyInstaller/loader/pyiboot01_bootstrap.py',
   'PYSOURCE'),
  ('pyi_rth_pkgres',
   '/home/simone/Enthought/Canopy_64bit/User/lib/python2.7/site-packages/PyInstaller/loader/rthooks/pyi_rth_pkgres.py',
   'PYSOURCE'),
  ('pyi_rth__tkinter',
   '/home/simone/Enthought/Canopy_64bit/User/lib/python2.7/site-packages/PyInstaller/loader/rthooks/pyi_rth__tkinter.py',
   'PYSOURCE'),
  ('pyi_rth_qt4plugins',
   '/home/simone/Enthought/Canopy_64bit/User/lib/python2.7/site-packages/PyInstaller/loader/rthooks/pyi_rth_qt4plugins.py',
   'PYSOURCE'),
  ('pyi_rth_mplconfig',
   '/home/simone/Enthought/Canopy_64bit/User/lib/python2.7/site-packages/PyInstaller/loader/rthooks/pyi_rth_mplconfig.py',
   'PYSOURCE'),
  ('pyi_rth_mpldata',
   '/home/simone/Enthought/Canopy_64bit/User/lib/python2.7/site-packages/PyInstaller/loader/rthooks/pyi_rth_mpldata.py',
   'PYSOURCE'),
  ('App', '/home/simone/SiComPre_GUI_linux/ui/App.py', 'PYSOURCE')],
 [],
 False,
 False,
 1528416508,
 [('run',
   '/home/simone/Enthought/Canopy_64bit/User/lib/python2.7/site-packages/PyInstaller/bootloader/Linux-64bit/run',
   'EXECUTABLE')])
