Q8TBF5	9.2
Q8TBF4	10.77
Q9NQ79	44.51
Q8TBF2	124.83
P23409	9.83
Q5H9L2	102.31
P20936	61.45
P23919	177.97
Q9C0H5	13.11
Q00535	278.43
Q00534	14.34
Q07960	110.31
Q9NXR7	6.08
O00244	286.34
Q92917	5.07
Q9UBM7	48.62
P40424	17.05
P40429	247.22
Q92913	28.84
Q13838	248.76
P03891	13.6
Q86WA6	16.28
P02768	5163.75
P05386	276.12
P05387	1930.53
P02760	40.76
P02763	56.34
P02765	80.85
P02766	700.4
Q7L266	99.18
Q9UJ70	460.75
Q9UQ03	62.67
Q15165	127.77
O15254	17.06
O15258	46.16
P29401	526.92
Q86XA9	2.39
P39023	189.61
A4D2Q0	4.89
Q96CS3	45.31
Q9P219	1.16
Q9P218	1.95
Q5W111	24.46
Q9UK13	7.45
P62807	2495.8
P62805	21000.04
Q9UK17	7.21
Q969K3	6.36
Q9H845	42.38
Q9Y6E2	44.01
Q9Y6E0	16.12
Q5TZA2	5.8
Q09161	77.89
P09001	13.72
P60520	426.47
Q9UKZ1	14.39
Q9UKZ4	5.21
Q14568	33.65
Q14566	74.16
Q8NFQ8	10.34
Q9NWM3	6.27
Q9H115	418.44
P41219	256.78
Q86VY4	11.74
Q92526	128.3
Q92520	64.41
Q92522	530.18
P23352	3.48
Q02878	607.13
P27449	33.67
P27448	43.9
Q96HA8	22.38
O75164	2.2
O75165	24.99
O75167	3.8
Q5VZL5	7.67
P06865	4.36
Q8TEH3	7.19
Q13232	195.06
Q5TBA9	2.35
Q14671	6.28
Q9C0H9	127.22
Q9NXR1	6.83
P10916	70.5
Q6UW02	5.05
Q15768	103.51
Q8WUF8	22.09
O00712	106.1
P48147	203.54
P48145	58.71
Q9BQG2	10.17
Q9BQG0	14.24
Q9BQG1	25.11
Q4VC31	79.7
Q6PL24	29.65
Q96RU3	14.86
Q6VMQ6	1.94
Q9NYU2	119.62
A4D1P6	6.36
P55145	243.18
P50395	1317.8
Q13642	328.77
Q13641	17.27
P62380	25.37
Q6ZRV2	2.08
Q96CN7	221.9
Q96CN4	46.39
O15069	16.45
O15068	8.27
Q5RKV6	103.22
Q9H6R4	4.15
P10644	86.29
O15061	1.53
O15067	60.41
O15066	40.46
P60891	296.62
P48553	7.45
P07093	48.17
P07099	150.11
Q5T6X4	14.98
Q01968	27.97
Q14CS0	21.44
Q8N5G2	6.96
Q8N5G0	14.4
Q9BR01	56.05
Q9Y296	43.54
Q9Y294	23.07
Q9Y295	84.95
P49795	10.75
P49796	2.0
P49790	13.77
P49792	15.53
P51116	64.25
P51114	41.8
P55286	6.0
Q9H7L9	13.89
Q587I9	24.32
Q9Y2T7	6.88
O60547	50.52
O60812	601.72
Q9Y2T3	10.39
Q9Y2T2	62.09
Q8NC74	3.71
Q9P0L0	702.87
P31483	43.17
Q9P0L2	80.37
Q32MZ4	11.87
Q92738	2.82
Q08174	20.78
P35250	20.3
Q08170	112.19
Q8IY17	8.83
Q92733	25.27
Q92734	48.78
Q9H773	113.46
Q92736	0.47
Q00765	135.59
Q6IQ19	8.77
Q5T5P2	1.24
Q5BKT4	4.76
O00506	5.51
O00505	41.25
O00501	22.89
Q8N9C0	2.64
P01009	459.16
P01008	75.55
Q01581	245.08
P05388	471.53
Q9BXB4	12.67
Q8IYD1	3.85
Q13002	10.33
O75391	40.71
O75390	379.12
O75396	161.59
Q9Y4F9	2.24
Q8IVD9	38.94
Q9Y4F1	73.7
Q99075	11.49
Q9Y4F5	35.49
P46013	8.86
Q8WVD5	10.38
P0DJJ0	49.54
Q9BSD7	179.07
O94979	73.7
O94973	226.81
Q8WXH0	37.26
Q8TC07	33.33
P28838	94.34
Q9UGC6	10.88
Q9UI08	83.13
Q9UI09	294.13
Q9Y2U8	15.9
Q2VIR3	108.6
Q16512	28.04
Q14008	204.43
Q8WY22	66.62
Q9BTC0	1.09
Q8NCW5	142.19
Q9NUT2	3.31
Q6Y288	23.42
Q9HA77	17.03
Q9UFC0	3.74
O14936	171.38
O43324	147.11
O14933	29.82
P04839	4.05
P49406	63.2
P56937	27.74
Q9Y2K5	2.48
Q9Y2K7	2.0
Q9Y2K3	1.18
Q9UHY1	79.69
Q9UHY7	347.96
O14681	34.0
O14683	213.92
Q5M9N0	2.08
Q9UNE7	114.01
Q00975	4.04
Q86SZ2	14.73
Q9BYM8	4.6
P50895	15.72
P50897	154.97
Q63HM9	36.48
P35240	19.01
O95754	3.17
Q13586	3.42
Q8WWC4	40.7
O95758	4.44
Q9BWH6	1.73
Q9BWH2	12.81
Q6YP21	15.46
Q8IWV7	11.91
Q9C0J8	5.45
O00267	37.22
O00264	721.3
P08865	491.91
Q9H2K8	7.54
P56556	177.9
O95347	11.72
Q9UQ26	1.65
Q9UJ96	5.17
Q9H0Q3	955.0
P10451	7.48
Q9H0Q0	347.92
P60174	2142.48
Q8NBI6	24.19
Q12982	14.71
Q12981	60.83
Q8WVX9	4.46
Q9Y608	16.12
Q93100	2.12
Q8N6M0	39.18
Q9Y6V0	7.66
Q8N6M6	2.83
Q9P232	7.04
P28332	13.56
P28330	5.56
P28331	233.37
P62829	320.81
Q96CU9	4.92
P62820	1834.16
Q5XPI4	10.7
P62826	683.41
P18615	18.38
P51858	534.07
Q9BZE9	13.21
P02747	10.28
Q9Y6G9	337.15
Q9Y6G5	23.07
P02749	20.75
Q8TAB3	14.69
Q9BZE4	10.75
P01210	8.61
P21281	422.01
Q9UKX7	42.27
P43490	90.66
Q9H1U4	4.21
Q9H1U9	7.87
Q9NRV9	113.02
Q9UHD9	48.39
Q9UHD8	210.65
Q9UHD2	25.34
Q9UHD1	127.2
Q92506	9.82
Q92504	5.29
P08195	319.51
P23378	7.05
P17480	85.94
Q96HC4	8.29
Q58EX2	3.32
Q13217	36.81
Q13017	23.04
Q99685	47.79
P14618	2149.23
Q9BWW4	6.55
Q9H8H3	28.07
P63010	255.93
Q8N158	193.97
Q99436	79.57
P40145	3.78
Q96BR5	41.22
Q6UW68	74.99
Q15742	4.68
Q86X76	103.33
Q6ZSJ8	23.1
O95502	15.04
P23763	164.28
Q9NYK5	6.84
Q99536	1061.77
Q9BQE3	1847.84
Q9BQE4	62.59
Q99081	7.26
Q96RS6	15.87
P40855	64.6
Q9NS69	187.75
Q9NX14	76.5
Q16891	246.96
Q16890	35.41
Q9H6L5	4.85
Q9H6L2	7.35
Q9HD34	24.63
Q14839	81.42
Q9HD33	17.99
Q14831	10.36
Q14832	64.31
O14745	88.61
O14744	91.13
Q96I24	68.77
Q5TKA1	4.28
P15259	27.63
Q9P2D1	1.58
P50402	301.54
P55160	2.07
Q96T37	7.42
Q96IK1	27.6
P10599	993.2
Q86TG7	26.44
Q9BR61	17.01
Q5JTH9	5.53
Q9ULF5	11.26
P55290	54.15
Q96C01	33.88
Q96C00	5.24
Q9P2P5	7.54
Q71RH2	8.65
Q969X5	186.96
O60830	43.5
O60831	233.87
O60832	45.94
Q674X7	18.41
Q00169	383.17
Q9Y2V7	3.62
Q9NTU7	12.15
Q9Y2V2	400.1
Q9P0J0	269.73
Q9P0J1	4.34
P29144	88.09
Q8NBJ7	31.31
Q8NBJ5	14.79
Q8NBJ4	40.91
O75400	19.48
Q7LDG7	19.13
P01024	55.21
P01023	76.26
P17677	5479.67
Q9Y4D1	51.5
Q8TCE6	6.54
Q9BXL6	2.34
Q9Y4D8	33.17
Q6IPU0	7.99
Q92752	74.4
Q92974	47.5
P43007	90.34
Q6AI08	4.11
P43005	4.64
P43004	63.99
Q8WVF1	5.94
Q9H2P9	16.74
Q02447	3.23
Q8TC26	33.68
Q99943	50.12
Q9BSF4	36.25
Q5RI15	19.93
Q9Y3C6	188.86
Q66LE6	10.18
Q96JJ3	28.86
Q96JJ7	45.97
Q9UI26	7.06
P04179	225.05
Q05397	22.22
Q14247	189.28
Q14244	3.15
Q14240	325.45
Q14241	5.89
Q8IWX8	17.88
P24928	31.72
Q8IWX5	5.92
P07858	77.05
O94952	18.33
O94953	2.17
Q14061	153.25
P16298	201.99
Q68E01	13.46
Q9GZR7	5.5
Q16795	380.17
O14910	244.58
Q16798	19.75
Q16799	735.07
P62280	546.23
O43347	40.63
O14917	27.29
P25787	419.41
P25788	242.27
P25789	350.44
O60229	14.02
Q75T13	72.91
P67936	390.13
P11413	71.54
Q9BUT1	49.57
P63220	261.71
P11142	2212.22
Q9C0A0	16.41
Q86SX6	95.6
Q16134	15.47
P80404	337.98
Q8TBB6	3.15
Q8N7J2	91.48
Q96GK7	45.95
O95777	280.14
Q13564	114.34
O95772	9.94
Q13561	371.37
Q9BWJ5	156.84
Q8NE62	4.05
O00203	26.21
Q9H2M9	50.95
Q96G28	6.72
Q96AQ8	26.7
Q96AQ6	16.43
Q9Y625	12.67
Q9BV73	0.94
O15294	86.1
P24311	173.52
P15313	9.32
Q9C040	311.96
Q00577	45.53
Q6IMN6	8.42
Q9BRD0	3.76
Q9NXV6	17.34
Q12962	12.2
Q9UID3	30.79
Q9P253	60.11
P62841	279.86
P62847	652.76
Q01628	18.11
Q9P258	51.96
P28482	422.46
Q70IA6	19.68
P00505	512.95
Q9GZM8	34.52
Q9UKV8	32.71
Q9UKV3	78.51
P35606	173.2
P35609	61.23
P42566	5.37
O76083	11.6
Q8NFU3	21.14
Q6P1M0	44.12
P42568	8.36
P39060	1.49
O60884	98.45
Q92569	9.73
Q92561	63.46
Q92563	5.66
Q92562	5.11
Q92567	10.12
P52566	46.1
P57087	31.91
P52564	91.86
Q9HAT2	4.54
P57088	123.1
Q495W5	4.75
Q8WU76	21.16
Q8WU79	45.3
Q96HE7	77.93
Q9Y3S1	25.11
Q9H251	0.72
Q9H254	2.75
Q8TDQ7	51.14
A5PLN7	3.2
O43598	152.52
P07996	18.43
O43592	38.55
A5PLN9	5.69
P40121	82.58
O95563	129.88
P40123	110.34
Q96BP3	3.6
Q9BQC3	5.09
Q86X55	44.25
Q52LJ0	121.1
Q9NYI0	29.68
Q76N89	2.95
Q96RQ3	23.05
Q96RQ1	12.45
Q8N3U4	5.62
Q9NQP4	207.6
P33778	7596.74
P21964	88.2
Q8IUI4	9.73
P07339	333.01
P61764	886.14
P61769	19.32
P69891	9963.83
P69892	1133.61
Q14814	4.74
P10606	328.85
Q9NZI2	19.76
Q9HD15	10.32
Q15800	60.19
P62070	169.83
P50461	12.63
Q96L14	89.26
Q9UJV9	7.59
Q9UJV8	13.4
Q9NUM4	17.02
B1ALY0	16.69
Q8NCN5	5.33
Q5JTJ3	37.54
Q9P2R3	80.47
Q96C23	21.05
Q9P2R6	1.54
Q9P2R7	152.69
P51153	34.9
P35030	48.87
Q9BTU6	9.81
Q9UMX0	67.8
Q13796	22.53
Q96NL0	5.02
P18846	9.06
Q9Y478	26.16
P02462	3.3
P02461	9.56
Q9Y3L5	76.63
P78406	103.47
P23142	72.06
P17655	39.74
P05204	676.94
Q9NWS0	24.56
P01042	22.09
Q15029	191.25
Q15024	33.3
O00541	11.69
Q15021	1.69
Q15020	60.25
Q9BY32	222.37
Q86V81	344.87
Q96S90	84.77
O15173	255.84
Q86V88	13.18
Q14D04	2.8
Q9Y4J8	12.63
Q8TCG5	11.65
Q8TCG1	2.59
P62987	9875.74
Q9BVG4	213.52
Q86U38	3.82
Q92777	59.02
Q9BVG9	4.71
Q99961	185.18
Q99962	152.48
Q99963	40.46
Q99784	23.94
P42224	21.23
P22234	287.0
Q96JH8	6.77
P04156	114.94
Q96JH7	27.61
O75683	6.39
Q9UJA5	4.75
Q9H089	3.52
O75689	30.53
O75688	55.36
Q9H082	10.3
P27348	3234.89
P19404	212.78
Q8N6R0	13.45
Q96LV5	5.44
P54687	24.66
Q86YL7	15.87
O14972	16.05
Q6Q0C0	3.55
Q9NUP9	145.61
O14976	14.8
O14974	43.67
O14975	3.77
O14979	484.94
O95302	4.2
Q9GZP9	38.44
Q9GZP4	241.07
Q9H9A6	104.81
O75027	6.41
Q9H9A5	19.31
O75023	4.13
P49441	42.15
Q05519	64.33
Q8IWZ3	1.97
Q9HCU5	58.27
P11387	75.92
Q02880	260.21
A8MW92	11.52
Q9UNA1	5.74
Q13405	96.6
Q13404	240.92
Q13409	318.86
P05787	49.33
P05783	66.15
P63208	1093.37
P14406	197.38
P01861	14.74
P01860	57.75
P50851	4.98
P61513	154.71
Q9Y5G2	2.63
Q13542	61.43
O95714	1.01
Q13547	43.27
Q5T750	20.19
Q9UBC9	29.19
P55316	20.24
Q96J01	27.33
Q96J02	2.58
Q9UBC2	92.76
Q9UBC3	2.77
Q6UXS9	156.79
Q9UBC5	4.48
P50148	421.21
Q96BM9	346.39
Q8IY81	2.74
Q6ZS17	16.02
Q9NQ90	2.32
Q9NQ92	13.2
Q9NV66	3.17
P18433	23.39
Q96AW1	27.56
Q5QJ74	16.49
P10645	41.81
Q5VWZ2	20.13
P10412	593.73
P48556	180.58
P29317	7.34
P35998	283.27
Q9Y646	5.11
Q86UE4	83.0
Q08722	105.33
Q9NXH9	3.67
Q9P273	8.8
Q9P270	25.42
P62861	199.26
P51812	6.33
Q92896	59.07
Q86WW8	31.63
Q969M3	9.47
P02787	364.41
P02786	134.23
O60443	77.7
P02788	3.39
O14490	4.87
O14492	3.91
O14495	105.62
O14497	18.61
O95926	9.22
Q9UKT5	12.01
P16422	7.58
Q86TI0	5.97
Q8NFW8	213.57
Q9NRR3	28.73
Q9NRR5	12.45
P28370	17.29
Q92542	37.17
Q92541	36.29
Q92544	21.33
P30825	3.92
Q9H4Z2	1.83
Q9H4Z3	9.85
Q8NHW5	215.87
P05413	196.14
Q9HAV0	77.58
Q9HAV7	76.39
Q9HAV4	19.44
Q96SB8	2.1
Q96SB4	14.26
Q96SB3	86.14
Q8N806	5.52
Q9H270	34.4
Q14457	10.21
Q8WU17	3.49
Q8NEU8	24.9
Q9Y3Q4	2.05
Q9Y3Q3	32.08
Q8N119	4.07
Q8N118	4.5
Q8N111	549.22
P26599	157.42
Q99570	1.73
Q9BQA9	51.01
Q99574	11.41
Q7L1I2	3.42
P22061	204.33
P82650	25.67
Q5W0V3	6.12
P40818	2.08
P36507	101.38
Q0VG06	5.67
P81877	56.03
Q8IXI1	15.56
Q8IXI2	44.91
P19367	395.52
Q9NX55	18.07
Q9ULU4	14.08
P05455	339.39
P07311	47.05
Q2M1K9	1.83
P10620	60.22
Q9BRA2	361.08
Q9BRA0	19.6
Q9BQ04	125.37
Q5T6V5	54.31
Q8IZD4	3.91
Q96A26	61.11
Q9UJX3	11.89
Q96L34	16.05
Q9NR77	47.62
Q5BJH7	15.39
Q5BJH2	14.08
P84085	180.67
Q15477	23.08
Q9P2T1	27.98
Q96TC7	35.58
Q5VIR6	53.22
Q96KQ7	2.0
Q9ULB1	67.1
P34903	33.62
Q96C45	3.72
Q5T7P8	13.86
Q9Y2R5	18.27
P50213	120.45
Q9Y2R9	9.42
P29762	1702.02
P30049	227.22
P30048	516.61
Q8N8S7	103.57
P30041	486.8
P30040	319.83
P30043	479.11
P30042	178.69
P30044	1271.54
P30047	54.64
P30046	145.89
P55786	448.93
Q9UMZ2	5.65
P13667	352.37
Q96PY5	60.15
Q15007	23.95
Q15006	76.06
O00566	3.36
O00567	148.41
O00560	122.49
O00562	23.58
Q15008	226.93
Q9UM73	3.0
Q96S44	47.04
P51172	3.77
Q9BTW9	69.93
P51178	21.65
Q8WWZ7	1.42
Q8TCA0	64.59
Q8NBF6	18.41
Q08117	48.24
Q8NBF2	30.01
Q5BKZ1	56.49
Q92930	269.61
Q92934	28.81
Q96AJ9	21.01
Q14202	6.95
Q14203	280.46
Q14204	947.47
Q5VTU8	45.62
P00338	1487.55
Q96EI5	21.5
P68036	355.98
Q8WXI9	52.78
P68032	69.36
P07814	82.31
O43164	10.16
O43169	648.88
P19174	64.21
Q8IUZ0	6.72
Q9H0P0	6.98
Q8N6T3	65.24
Q5XUX1	4.9
Q9H3Z4	454.54
Q86YN1	19.6
O94992	6.52
Q9GZV3	4.19
Q6FI81	134.12
Q9H9C1	37.18
Q6NXS1	68.97
O60269	5.58
O60268	51.13
P27361	178.11
O60262	105.66
Q8IWT0	13.59
P11362	2.88
P61353	436.03
P26012	6.19
Q15648	4.72
Q9BUR5	107.0
Q8WYP5	1.05
Q13428	22.64
Q13427	11.96
Q13425	4.57
Q13424	4.92
Q13423	211.68
O95487	21.21
O95486	13.27
Q53HC0	28.67
Q5JSP0	3.34
Q53HC9	42.53
O75051	134.29
Q96M96	36.7
Q13522	55.74
Q96GG9	52.77
Q13526	435.68
P48730	39.18
Q8NHP8	12.14
P48735	588.06
P48736	2.1
P48739	184.8
Q9NT68	16.35
Q9NWX6	15.21
Q9NT62	44.32
Q7L591	4.97
Q8IWQ3	45.44
Q7L2E3	45.5
Q9UQC2	10.67
P48651	19.08
P19827	18.29
Q14999	1.39
P19823	67.19
P51784	9.65
P62136	769.83
Q8TBN0	6.21
Q7L775	86.59
Q9UQ88	26.1
Q9UQ80	272.28
Q9BV38	89.42
P29373	16.88
P29372	24.18
P29375	1.38
Q12926	429.22
Q12929	23.07
Q9UBE0	82.68
Q9C005	70.65
P03905	25.68
Q969S3	4.88
Q969S9	3.06
Q6RW13	15.21
Q8TAD7	82.7
O60462	17.69
P61201	112.96
Q9H1K0	20.87
Q9H1K1	14.72
O95185	7.71
Q9NRP0	15.74
P29590	5.43
Q5T1Q4	11.69
A6NP61	7.36
Q9P2I0	20.96
O43920	63.49
Q8WW59	45.82
O75251	123.68
Q9Y6D6	26.65
P08133	443.46
P54727	49.1
Q9UKR5	116.9
Q9H299	507.64
P07355	411.78
P54259	2.11
Q13003	7.64
Q17R89	5.94
P05556	44.95
Q8TB61	5.58
Q8N131	12.3
Q01085	57.33
Q8N137	5.23
Q01081	95.05
Q75N03	4.86
Q8N138	15.14
Q765P7	19.89
P0CG31	4.45
Q86X10	31.77
P59998	956.45
O15498	224.54
Q8IV38	16.12
Q02218	123.4
Q99595	14.7
Q9NYM9	21.39
Q99592	22.7
Q8WU39	12.8
P82675	16.56
P21926	41.7
P21291	218.99
P16615	242.41
O43447	68.97
Q9NX70	12.57
Q9NX74	4.81
Q16342	6.87
P62308	93.55
P62304	147.13
P62306	81.73
Q9UEW8	49.0
Q9BRG1	127.69
Q8NC96	124.73
Q8NI37	8.12
Q8NI36	7.55
Q8ND23	3.53
O14727	1.87
Q9UJZ1	75.63
P55263	78.41
Q8IXK0	8.76
Q96DZ5	8.9
Q96DZ1	14.49
P55265	52.57
Q8NCB2	331.45
Q9NR50	21.09
P55268	1.35
Q15459	107.3
P49711	19.2
Q8TDC3	56.05
O60890	5.78
P13645	1387.12
Q04828	187.24
P46019	1.91
Q07157	42.02
Q15061	7.08
Q15063	2.84
Q96S66	21.36
Q15067	46.28
P55854	45.53
P17612	411.21
Q9UM19	131.26
Q9UM13	12.47
O15131	39.51
Q9NP60	3.37
Q9BTY7	6.29
Q9BTY2	4.9
Q7L014	47.41
Q86U70	5.69
Q5VUM1	21.69
P51991	1465.36
Q9Y305	84.95
Q9BVC5	20.49
Q9BVC4	22.15
Q9BVC6	90.97
Q86VX2	58.77
P04114	6.17
P15927	154.0
P15924	2.4
P53041	172.34
P00352	24.15
Q9H598	46.14
Q9Y5K5	119.76
Q8WWY3	23.89
Q9BXJ8	6.52
Q9BXJ9	73.25
Q8IYL3	10.2
Q9BXJ3	7.51
O43149	7.2
O43148	91.78
O43639	98.78
O43143	203.95
Q6NUQ4	3.43
O43633	52.77
Q92667	5.44
Q92665	11.69
Q96LR5	11.9
P53597	160.79
P62633	40.84
Q05086	65.78
Q05084	4.85
Q8TC84	6.91
Q9BSL1	11.69
P42261	2.61
P42262	50.94
P42263	13.1
Q9GZT6	17.96
Q9GZT4	137.66
Q9GZT9	51.81
Q9GZT8	31.56
Q9H334	3.52
Q9H330	26.25
O75069	3.42
O60242	6.18
Q8IWV2	42.03
O60245	27.39
O75061	68.89
Q9H9E3	5.95
O75064	1.62
Q13191	4.84
Q9NR31	319.81
Q9Y2Q3	41.56
Q9UHQ9	139.87
P26038	472.68
Q9UHQ4	18.71
Q13449	559.73
P63241	881.44
P63244	1012.1
Q13443	2.93
Q13442	141.27
Q13445	52.55
Q99439	39.31
Q96GA7	7.64
Q15599	28.32
Q13509	8132.0
Q4G176	4.13
Q13505	72.05
P48751	1.95
P12694	36.74
Q9NWZ8	9.25
Q9NWZ5	4.33
Q7Z3B1	232.65
Q7L576	102.19
Q15438	45.67
Q9UQE7	121.67
P48634	13.89
P48637	75.86
Q9Y266	256.33
Q6ZN04	9.01
Q16626	13.31
Q6F5E8	1.71
Q16623	320.91
Q16620	20.16
Q16629	629.26
Q96C86	75.48
Q7Z422	15.59
Q9BS40	51.44
Q9C026	13.38
P29350	3.92
Q12907	223.91
Q12906	461.3
Q12905	855.19
Q12904	200.52
Q9UBG0	3.18
P03923	14.23
Q969Q5	45.83
P27816	229.89
A2RTX5	14.3
P49902	44.86
P49903	74.09
Q5GH72	20.75
Q5GH76	22.23
Q9H0F7	75.35
Q07812	212.61
Q07817	40.68
Q5TFE4	10.22
P14209	42.17
Q9Y6M1	172.29
Q14BN4	8.35
Q9P2K8	2.83
Q9P2K6	4.66
Q9P2K5	152.87
Q9P2K3	4.77
Q86VS8	57.37
P30086	3447.43
Q53FT3	61.25
O75909	4.12
O75907	19.17
Q9H3P7	39.35
Q96QK1	260.0
P05452	35.27
Q1L5Z9	9.5
Q9H3P2	13.88
P47985	107.16
P06241	109.01
Q9Y3U8	129.72
P00167	362.93
Q99608	7.34
P62753	397.21
P62750	404.25
P18031	37.12
P22392	291.0
Q96P16	103.84
P02671	61.37
Q5QGZ9	8.61
Q92581	28.58
P53675	5.67
P53677	45.12
A8MQ27	4.47
Q14141	207.83
Q14416	49.9
Q14142	5.32
Q14149	4.95
Q8WVY7	115.17
P15121	369.48
P19320	3.26
Q96EB6	3.24
P62328	104.86
Q96JQ0	14.54
P46821	2345.56
Q16363	7.85
Q5VTL8	4.11
Q8WUH2	10.91
Q8WUH6	45.1
O60264	99.97
Q9NZC3	14.05
P49407	106.95
P58107	0.95
Q96DD7	24.62
Q96A65	88.71
P36542	578.11
P36543	435.73
Q8IXM3	17.22
Q8IXM2	148.01
Q8IXM7	8.53
Q8IXM6	72.14
Q9NUG6	17.08
Q9NR30	24.27
Q92782	24.93
Q5BJD5	24.45
P49736	62.4
P06400	2.5
O95674	247.32
P34949	34.07
O95670	77.9
O95671	100.04
P34947	23.45
Q15436	86.1
Q15437	21.45
O95678	22.24
Q15435	254.97
Q8ND04	4.83
Q6MZQ0	6.49
Q06330	14.29
Q6NVY1	140.14
P30085	619.96
P30084	244.79
Q13367	106.81
P06746	34.7
P06744	507.66
P51649	166.7
P06748	626.25
Q29RF7	21.08
Q13368	44.05
Q9UN86	146.86
Q9BUA6	10.47
Q63HR2	1.74
P57740	19.92
O95206	4.69
O95202	136.67
P31689	289.33
Q15043	4.89
Q15042	64.72
Q15041	147.42
Q96S86	12.96
Q15046	105.12
O95208	19.34
Q9H7B2	22.34
O15116	87.27
O15118	3.73
Q96S82	6.54
Q93045	330.73
A6NGN9	79.2
Q01780	15.77
P18206	113.42
Q9H7B4	10.79
Q9BVA1	4094.46
Q9BVA0	21.98
Q9H2X9	71.39
Q86U90	9.03
Q9BT09	120.63
P07437	14001.28
Q9Y490	88.39
Q58FF3	34.66
Q9Y496	43.03
Q9Y365	8.02
Q8N4V1	18.04
Q8N4V2	4.36
P28676	11.03
Q9UGI8	11.04
P60201	8.81
P09769	4.45
Q8N0Z6	64.98
Q8IYR6	90.61
Q96T17	12.93
P00374	61.75
Q9Y520	9.2
Q7Z6B7	87.41
P16949	2664.21
Q86XR8	4.64
Q9Y4L1	278.42
F2Z307	46.66
Q709C8	1.88
Q92643	23.42
P49137	11.63
P23258	113.91
Q86YJ5	7.01
O75592	5.71
Q4G0X4	8.94
Q9NPQ8	93.18
P20042	131.13
Q9GZZ9	41.34
Q9GZZ1	150.24
Q9H9G7	16.33
Q8IZP0	72.15
O75044	109.59
Q05209	21.05
Q96FC7	174.6
P25705	1343.5
Q86TP1	73.89
Q8NFZ0	2.25
O43617	130.68
O43615	92.86
P61313	307.22
Q13464	16.75
P11498	34.74
Q99417	44.28
Q99418	11.38
A6NI87	9.69
Q5JST6	3.03
P50749	28.04
Q96GC9	5.73
Q96GC5	44.28
P50747	6.56
P36959	7.08
P36955	5.72
P36954	36.49
P36957	152.15
Q9NY35	18.53
Q9NY33	131.52
Q68EM7	5.55
Q96PV6	3.08
Q9UHW9	4.15
Q96PV0	5.36
Q06830	3019.63
Q06787	37.22
Q6ZN66	3.66
Q8ND90	6.66
Q8TBJ4	14.8
O14880	1507.87
Q96HP0	2.31
P09972	698.33
Q2Y0W8	2.16
P15374	121.42
Q9HD20	15.94
Q86UK0	0.9
Q7Z408	1.39
Q9UBY5	6.6
P07602	77.5
Q96D46	4.6
Q4J6C6	50.51
Q969W8	5.38
Q13585	7.87
P51659	229.41
O95757	75.69
O60427	4.58
P30740	18.6
O60488	16.73
Q53GT1	22.18
P12956	834.53
Q5ZPR3	32.4
Q9UJC3	6.26
Q9UJC5	128.96
Q96IV0	14.25
Q6UVK1	5.29
Q01433	36.84
Q5VV17	5.19
P52294	57.19
P20674	189.67
P20671	56.34
Q6QNY0	24.93
O76003	247.72
O00425	70.7
P55957	96.36
Q15386	6.41
O00423	64.86
O00422	150.87
Q10471	20.46
Q15388	48.77
Q96T49	8.34
Q9P2M4	3.39
Q9NTJ4	11.44
Q9NTJ5	83.08
P08174	6.4
Q9NTJ3	14.4
P00491	206.22
P00492	237.14
O75925	3.69
Q08345	7.86
Q9UKN8	11.52
Q99627	193.92
Q99624	4.75
Q99623	938.93
Q99622	100.52
P54920	589.93
P08397	6.74
P54922	13.41
Q8N9R8	33.87
Q96P31	3.28
Q8TB22	3.01
P28288	45.63
P28289	13.06
P24752	310.66
Q86VU5	9.2
Q8WW12	153.99
Q02252	155.74
P42126	64.59
O43264	17.9
Q7L3B6	6.82
P19387	50.56
Q14168	69.74
Q14166	138.87
Q14165	254.79
Q14161	12.53
Q14160	57.57
Q16836	270.39
Q9UGR2	4.75
Q6NW29	24.93
O43402	44.58
P49366	6.47
P49368	621.48
Q52LR7	2.91
Q5R3I4	10.04
P41162	4.65
Q9UDV7	3.57
Q96A49	19.9
Q96DF8	5.04
P63167	357.81
Q5TC12	7.27
P63165	22.92
P63162	10.76
Q9Y5M8	71.36
P12081	64.61
P30536	14.07
P30531	39.5
P30533	70.28
P49750	39.74
Q9ULL5	2.04
Q15417	123.69
P49755	519.77
P49754	16.13
P49757	3.74
P49756	87.27
P61106	787.15
P49758	38.94
Q15418	6.41
Q9HCB6	20.39
Q9BRK5	12.67
Q9BRK4	3.64
Q9BRK0	75.0
Q96NT0	67.04
Q96NT1	94.65
Q6ZR52	3.52
Q6ZPD9	6.37
Q86SE5	32.78
Q6SPF0	4.73
Q9NR19	6.74
Q9BUG6	4.74
Q96HY7	7.71
Q8N2F6	28.23
Q96HY6	14.88
P20810	10.38
Q9HCJ0	1.51
O95260	4.48
Q9BW92	9.81
Q8NHG8	21.97
Q9BW91	20.31
Q9Y2X3	115.62
Q9Y2X7	81.67
P84243	587.67
P62906	234.73
P83731	461.95
P28074	688.39
P28070	145.15
P28072	250.75
Q08426	3.33
Q9Y343	13.37
Q5VUA4	1.06
Q9Y2W2	22.71
Q9BV79	6.55
O95886	12.49
O95881	137.94
P53007	116.84
P53004	245.69
P60228	91.32
P10301	67.7
Q86XP3	54.03
Q8NGB9	14.99
Q9Y4R8	2.89
Q8IVP5	30.85
P49116	8.1
Q9UIQ6	4.52
Q6ZVF9	28.92
Q05048	21.91
Q92623	108.67
Q92620	16.97
Q92621	25.57
Q92625	21.52
Q9BSH5	18.92
Q9BSH4	16.32
P20020	223.4
P27037	4.58
O60282	394.4
Q9UBP4	6.9
Q86TV6	14.07
O43670	31.32
O43674	158.35
O43677	60.67
O43676	92.94
O43678	242.57
O95466	2.17
Q14624	2.56
Q13485	13.15
Q9H4A6	39.18
Q9H4A5	8.09
Q9H4A4	69.34
Q9H4A3	9.51
Q13480	13.83
Q9HAC8	10.21
P32121	28.73
Q70CQ2	0.66
Q70CQ3	4.53
Q99470	92.05
Q99471	198.76
Q70CQ4	1.81
Q9H313	10.8
O95793	50.32
P85299	6.2
Q9BWD1	429.27
Q9BWD3	20.09
Q6PIL6	9.22
Q9NY12	11.86
Q9P2E2	11.51
Q96MH7	3.63
Q96MH6	28.32
P62487	13.73
Q14978	39.59
Q5H9R7	37.98
P15056	12.55
Q9BQ67	5.36
Q9BQ61	143.84
Q12756	62.4
Q96B86	21.48
Q96HR3	13.07
Q6UYE1	11.07
P61599	13.01
Q16666	3.0
Q9H0E9	9.79
Q7Z460	106.32
Q9H0E3	4.8
Q9H0E2	122.49
Q9NQT5	44.8
Q9NQT4	20.99
B2RTY4	0.91
Q9NVV5	9.39
Q9BZQ6	2.53
P56378	79.54
Q7Z4K8	60.34
P51674	1162.97
P56377	56.93
Q8N5H7	2.81
Q8N5H3	13.15
Q9NZZ3	183.3
Q08AG7	31.25
P17050	17.07
Q6ZTW0	8.47
Q8IWT6	8.44
Q9NWA0	16.15
Q9NRZ7	30.54
Q9NRZ5	24.07
P78346	9.04
P78347	164.97
P78344	113.88
P20618	390.07
Q96S19	35.2
P52272	457.99
Q96T60	9.28
O00409	4.92
O00408	30.07
Q15366	370.83
Q15365	904.36
Q15363	93.12
O00401	19.33
O00400	8.7
Q13905	15.38
Q13907	211.39
Q53FP2	402.29
P08151	4.49
P08621	205.55
P59780	12.03
A6NDG6	15.58
Q719H9	9.01
Q9BZE1	11.01
Q9UKL0	9.99
O15320	2.91
O15321	3.85
P21695	7.05
Q9H1A6	18.75
Q9H1A3	7.25
Q8NEM8	2.28
Q99643	14.24
Q9Y4E5	2.18
Q9UH03	442.6
P18077	84.52
P18074	3.05
O75940	79.35
O75947	687.74
Q86VW0	66.78
P55011	28.22
Q09019	11.28
P49356	16.3
O43242	238.96
Q8N3C0	3.16
Q8N997	11.47
O43795	94.34
Q9UPN3	141.27
Q9UPN4	2.17
Q9UPN7	5.48
Q9UPN6	1.89
Q9UPN9	12.97
P53634	5.11
Q14108	87.84
Q9Y3Y2	130.48
Q14103	1351.08
O43424	2.34
Q4LDG9	12.3
O43426	61.22
O43427	82.24
P16152	444.83
P16157	6.42
Q9H2B2	5.52
Q16851	158.2
Q16850	60.63
P99999	428.44
Q16854	8.26
Q9UGP8	30.11
A5YKK6	41.68
O75367	1437.8
O75363	4.29
P56817	14.27
Q8WUT9	7.02
O75368	580.73
O75369	49.53
Q8TCT9	6.39
Q9UDT6	265.31
O14782	2.96
O14787	62.71
O14786	35.96
Q6NWY9	5.33
Q96F10	13.83
P67870	254.93
Q13347	159.68
P23588	153.25
Q8NDA8	13.16
Q86YQ8	4.2
P21980	44.54
P63146	15.3
Q9BSW7	9.84
P11511	4.58
A6NC98	4.82
A6NKN8	70.88
Q96FZ7	169.22
Q9ULJ3	2.23
Q9ULJ7	11.9
P49773	652.65
Q9ULJ8	38.66
P49770	47.56
O15525	29.68
O15523	43.46
O95630	5.51
O95631	7.82
P05937	150.01
Q9BZ29	3.36
A0MZ66	303.25
Q13733	95.15
Q96EN8	2.7
P06702	40.01
Q9BUE6	18.69
Q86SK9	84.53
P37235	308.71
Q9NW68	5.62
Q9NW64	28.25
P30519	124.99
Q96H79	32.15
Q6P158	3.41
Q96GX9	48.84
O95249	9.26
O95248	94.11
P37837	338.76
Q86V21	10.58
Q96GX2	49.19
Q08999	2.06
P48426	97.43
Q01814	114.2
Q9Y2Z9	26.04
Q01813	108.33
Q9Y2Z2	3.31
Q9Y2Z0	154.99
Q9Y2Z4	4.98
Q93009	103.25
Q93008	72.52
Q08ER8	3.87
Q9BVM4	15.29
Q9BVM2	22.8
P09493	518.39
P09496	88.06
P09497	126.21
Q9NVC6	3.63
Q9BT40	20.74
P07477	39.9
Q96AB3	59.3
Q86UR1	5.2
P00846	42.7
Q86UR5	16.81
P16989	118.95
Q9C0E2	4.07
Q9Y4P8	21.45
Q9Y4P3	15.96
Q9C0E8	122.09
Q9BXP5	76.32
P35749	2.33
Q6ULP2	2.59
P50479	7.48
P32856	47.68
Q92604	6.15
Q92600	47.27
Q92609	2.98
O75558	7.98
Q9BZJ0	21.1
O75886	45.55
Q5VT25	12.08
O75553	12.46
Q9HAR2	37.66
Q9BSJ8	43.13
Q99986	11.65
Q9BSJ2	31.01
P17858	271.11
Q9H427	7.33
Q9H425	36.45
Q147X3	47.17
O75081	3.72
Q9NRG7	22.87
P14174	63.71
Q9NRG1	30.96
P54886	15.17
Q13136	23.41
Q9NRG9	4.45
Q2UY09	4.54
P52735	18.31
Q9C0C9	60.0
O43657	9.61
Q9UIS9	11.93
Q9UD71	57.69
O95400	21.11
O94804	4.73
O94805	73.47
O95405	3.39
P20309	4.01
Q14642	22.16
Q14644	5.54
Q8TD16	2.83
P11182	4.95
Q9H4G0	591.72
Q99459	89.03
Q8TD19	14.83
A2RU67	3.95
Q2TAZ0	1.24
Q6N022	29.25
P40938	26.13
P40939	146.83
P36915	100.32
P40937	13.76
Q9NY72	85.8
P31943	887.98
Q2VPK5	4.72
P31947	9.54
P31946	2726.54
Q8N1F7	56.68
Q8N1F8	2.18
P31948	266.46
P61601	178.65
P61604	557.4
Q14914	110.79
Q14919	23.71
P60953	1408.24
Q12774	4.5
P78333	8.32
P22570	9.84
Q16647	4.64
Q16643	1153.53
Q9UPQ0	56.52
Q9UPQ3	61.7
Q9UPQ9	1.37
P09936	3671.37
Q9H0C8	24.7
P47224	38.29
Q9BS26	135.37
Q9BPX3	2.32
Q9H0C3	8.8
Q9BPX6	9.75
Q9BPX5	187.67
Q9C086	6.86
Q9NQZ5	18.44
Q68DU8	16.18
Q9NQZ2	4.86
Q96D09	5.65
Q7Z3D6	15.95
A4D126	5.31
Q96D05	220.15
Q9UJ98	7.62
P38159	538.23
P0C7P4	197.75
Q9H6E5	2.82
Q8N5J2	15.35
Q9H6E4	9.97
O75822	191.44
Q08AE8	46.46
Q9NSY0	9.17
Q15208	19.56
Q06124	147.11
Q6P1Q9	6.1
O76041	2.28
Q6Y1H2	18.68
Q9NRX4	172.37
Q9NRX5	15.74
P78362	47.84
Q9NRX1	18.98
Q9NRX2	26.43
Q5SRD1	37.78
P05129	3.38
Q15349	3.18
Q9UL54	17.25
O95182	126.65
Q9UL58	4.41
Q6ZTU2	5.12
Q9BRR3	5.69
Q9BRR8	15.38
Q6ZMK1	6.51
P08603	17.14
Q8N201	3.25
Q96SL4	37.86
O95989	217.71
P06733	3898.02
P18583	15.06
O95983	40.33
Q8WY54	71.69
P43304	239.2
O15347	230.58
O15344	28.17
Q9H1C7	24.92
Q8N9N7	89.12
Q8N9N8	27.81
P62736	1545.13
Q9UH62	62.34
Q9UH65	7.68
P15531	957.84
Q96P71	5.97
Q96P70	52.55
Q14344	216.52
Q9BTD8	5.26
P21549	43.12
O75964	556.39
Q9H161	5.99
P68400	357.99
P00450	30.35
O75962	85.54
Q96RE7	13.88
P22087	250.95
P53611	21.53
P53618	143.42
Q14123	6.56
P10114	244.18
Q8TEX9	6.7
P49321	142.98
Q9UGV2	76.78
Q16877	4.9
O75340	242.3
O75347	844.99
O75348	19.26
Q05655	6.84
P25685	125.35
P25686	59.57
Q13153	87.37
P42166	224.61
Q9UDR5	5.19
P20839	9.56
P82909	69.32
Q96DB5	36.99
Q8NFH3	37.71
Q13362	8.68
Q13363	172.78
Q86YS7	19.19
Q9Y5Q0	5.18
Q8IXS8	4.52
P67812	205.53
Q8IXS6	87.92
Q9Y5Q9	5.23
P11532	3.72
Q9BSQ5	16.27
Q96KK5	152.42
Q14195	3865.25
Q96FX7	16.88
Q9ULH1	10.56
Q9ULH0	63.36
Q9ULH7	2.24
O95619	20.0
Q9H6B4	6.42
P48059	14.22
P48058	7.88
Q9BZ01	25.52
Q96EL3	43.77
Q96EL2	13.93
P55769	299.07
Q13751	2.04
Q9HA82	5.71
Q9BUK6	4.28
Q96GZ6	14.51
P31629	2.95
P31150	2734.05
P83881	21.3
P31153	127.43
P48444	138.93
Q86V48	2.2
P48449	127.21
Q9Y2D5	8.4
Q9Y2D4	42.19
Q53F19	11.26
P29218	157.97
Q9Y2J0	27.57
Q7L099	295.12
P62942	177.35
Q9BVK6	97.13
Q92995	2.72
Q92990	3.88
O14594	420.29
Q8NBX0	101.14
Q9NVA4	5.28
Q8TBQ9	65.74
Q9NVA1	22.97
P57723	12.77
P57721	87.27
P04196	13.34
Q9BXR0	30.07
Q9H8Y8	33.72
Q5T0F9	2.81
Q9C0G6	0.56
Q8IVT5	5.19
Q9P1F3	29.26
Q6UXB4	8.14
Q8IX07	2.53
Q8IX01	81.55
O60711	6.11
Q9Y6H1	136.63
Q00013	5.07
Q9BZH6	1.94
O60716	151.85
Q14DG7	2.22
Q9UJX6	2.82
P01112	659.29
P01111	37.44
P01116	330.31
P54577	161.27
O75752	13.41
P68366	1512.44
O75643	208.04
P68363	5177.01
Q96FE5	91.0
P54578	165.38
Q8NFD5	5.61
P52758	237.63
P61970	54.9
P61978	1974.96
P52757	24.57
P52756	8.62
Q96LJ7	39.07
P54753	4.8
P54750	8.65
P54756	20.77
O94826	184.6
O94829	2.45
O95425	2.14
Q7Z2D5	9.58
Q5JSZ5	1.09
P04040	159.61
Q6N043	2.42
P52292	4.58
Q9NWB1	55.73
P13489	148.44
Q9NY59	63.36
P19086	252.48
Q16401	28.29
Q9UHI6	2.87
Q03519	3.5
Q14669	8.41
Q14938	57.7
Q8NG68	6.13
C9J798	5.86
O94779	26.34
Q12798	13.54
Q12797	21.6
O94772	144.49
Q12792	85.5
O94776	91.82
Q12791	1.93
Q96HV5	8.93
Q14515	3.52
P09917	3.4
Q15382	142.18
P62191	215.46
P62195	214.85
Q9UPW8	4.12
Q9UPW6	19.26
Q96G97	29.84
Q9UPW5	34.45
Q9NQX7	17.53
Q9NQX3	102.99
O00429	197.38
A6NHG4	111.98
P30499	6.47
Q9UQM7	142.05
P61088	850.24
P61086	224.65
P61081	228.17
P85037	10.53
Q7Z3J2	9.67
Q9NZV8	18.78
O60486	57.29
Q9Y6W5	4.88
Q9NZV5	4.03
Q9Y6W3	5.72
Q96IX5	287.17
A6NEC2	44.36
Q6UX04	9.84
O00193	39.09
O00192	86.08
Q15223	83.43
O00194	10.77
Q9H0A0	2.29
Q9H0A8	24.35
Q03393	48.51
O76062	11.42
O00443	1.39
O00442	74.09
Q96I34	4.58
O00330	48.95
O00445	12.35
Q96T23	16.17
O95168	174.2
O95169	182.58
O95166	57.11
Q9UL33	16.41
P06132	38.97
P23396	1499.0
Q13948	10.26
O95163	28.21
Q9BRP8	105.24
P02652	47.42
P15884	7.43
P15880	541.31
Q96QC0	5.35
Q9H1E3	135.88
Q9H1E5	142.83
P53985	29.47
P29536	3.95
Q9Y241	26.12
Q9Y243	71.25
Q9Y248	12.36
Q99829	49.35
Q99828	12.21
P22314	849.78
Q7M4L6	5.66
P27797	946.55
Q9Y5Z4	92.66
Q86VK4	5.08
P24043	0.77
O43809	272.74
Q15811	51.52
Q15813	26.79
Q15814	81.0
O43759	114.48
Q15819	275.25
O43752	72.64
Q7KZN9	5.76
P53367	12.7
P53365	34.99
Q14498	93.7
P35219	168.73
Q8TEV9	2.52
Q8N4C8	5.31
P46531	0.97
Q6UWF7	4.26
Q96JY6	14.15
Q05639	215.22
Q6P2E9	20.96
Q6ZSZ5	4.05
O75326	28.33
O75324	55.79
P11388	16.71
A6NNH0	22.05
P63104	5337.87
Q13308	24.62
Q9Y5S9	266.41
Q13303	6.46
Q9Y5S2	59.99
Q9ULV4	333.35
Q9ULV0	8.68
Q9ULV3	5.3
P61160	266.35
P61163	534.67
P36894	4.4
P36896	4.66
Q9H9P8	10.53
Q8IU60	5.47
Q9HCD5	40.43
Q8IWE4	7.73
Q8IWE2	4.36
Q6Y2X3	3.37
P55039	32.51
P55036	110.56
Q6NXE6	34.25
Q5T160	4.04
P62277	476.89
P62273	79.36
P37275	2.14
Q03701	4.38
P45984	5.5
P45985	17.95
O15197	2.39
P45983	10.97
Q8TDM6	9.91
Q9Y2F5	1.07
Q6PI78	218.2
P09104	1715.09
P09455	334.3
Q9BT88	5.49
P56211	300.99
P21796	1894.06
Q9NVG8	28.45
O14578	1.14
O14579	230.5
O14576	54.47
P49841	130.36
P49840	93.54
P58546	513.64
P49848	10.94
Q86UV5	8.9
Q9NQC7	4.94
Q9NQC3	791.15
Q5T0D9	52.62
Q10570	24.7
P20774	31.24
Q5VT66	7.07
P43699	6.86
Q9Y508	10.31
O60739	268.57
P78537	15.35
P17813	3.75
P17812	83.43
O95394	79.68
P06307	20.91
Q13177	351.47
Q9H467	8.28
Q9NRC1	3.94
P14136	626.75
Q9P286	29.53
Q8N568	215.48
Q59EK9	31.95
Q9P289	17.08
Q9UIW2	161.92
Q96LD4	3.81
Q9H4K7	6.03
Q6P4E1	27.11
Q99490	8.5
Q99496	21.11
Q99497	1851.4
Q86TX2	120.23
Q8N6L1	15.06
Q8NFA0	1.46
Q8N1B4	32.22
P07947	13.07
P07237	398.92
P07942	9.36
P16070	6.5
P07948	4.52
P12109	31.74
Q9UNW9	70.28
Q14689	10.89
Q14687	3.89
Q14684	3.14
Q14683	81.39
P16383	2.96
P11766	313.46
Q8N3X6	11.87
O14807	66.66
Q9UPU5	27.9
Q9UPU7	2.41
Q96B26	26.46
Q9UPU3	1.95
P36405	777.09
P36404	164.97
Q2TAL8	6.13
O60936	21.78
P47914	208.94
Q9NXF1	20.06
Q9UBQ7	237.69
Q9UBQ0	400.52
Q15797	10.14
Q15796	20.26
Q96CT7	184.59
Q9H5K3	6.62
P12236	370.81
P12235	424.68
Q9NZT2	25.29
Q5QJE6	3.14
P13726	8.01
Q14CZ8	40.29
P05161	44.43
P05166	31.86
P05165	56.26
Q9UL15	36.22
Q96I13	5.6
Q96I15	5.5
Q9P2E7	21.11
Q9P2E9	20.85
Q9UL18	57.23
P61225	155.05
O95149	6.44
O95140	27.6
Q9NP64	9.61
Q9NP66	39.6
P38117	161.76
Q9NP61	4.65
Q6PJT7	12.79
Q7LBR1	23.97
C9JRZ8	6.71
Q9UKF6	13.68
Q9UKF7	82.85
O15382	5.98
Q9HBE1	3.58
P29558	5.95
Q9Y265	300.66
Q9Y263	51.68
Q9Y262	107.2
P15144	4.84
O95628	4.17
Q5KU26	3.25
Q01518	377.74
P09661	242.41
Q13630	22.14
O95970	8.3
Q9UNM6	283.78
Q86VM9	34.87
P00414	79.61
O43822	28.05
O43823	10.44
P08648	4.63
P02675	94.74
A7XYQ1	2.86
Q5THJ4	0.54
Q15878	5.06
O43772	8.04
O43776	273.59
Q92785	12.0
P10155	170.3
Q92783	44.77
P46087	2.97
P46736	58.76
P46734	13.48
Q9H8G2	6.91
Q9Y3C5	15.19
Q9Y3C4	13.48
P35579	342.67
Q9Y3C0	12.51
P35573	50.03
Q9Y3C8	108.93
Q99807	10.91
Q99805	34.96
Q99808	10.55
P42345	12.84
Q96JG6	21.45
Q96JG9	0.65
Q96JG8	16.28
Q9H074	59.4
O75306	126.05
Q8WUR7	16.2
Q9Y5X3	28.3
Q9H078	23.56
Q13098	62.02
Q13325	56.93
P23526	277.62
P23528	8505.68
Q9Y5U9	59.08
Q00839	777.99
Q9Y5U2	7.72
O14545	16.34
P19388	43.17
O43488	140.54
Q8N609	6.28
Q8N608	61.21
Q9ULT8	7.32
Q15493	7.97
O15540	6049.99
P36873	50.14
P36871	133.66
P43003	169.0
Q9NU22	0.84
Q9NZ94	8.46
Q8NC51	288.71
Q9HCJ6	184.71
Q8NC56	41.85
Q92973	98.36
Q9H2P0	42.88
Q8WXF7	120.91
Q8WXF0	52.1
Q8WXF1	184.91
O15018	0.88
P22695	503.15
P22694	241.31
Q9NR96	2.29
Q3KNV8	18.85
Q16740	43.89
P62258	6592.98
P62256	38.48
A6NKD9	11.72
P62253	27.16
Q9HB71	151.62
Q6P2C8	7.48
P07148	484.82
O14639	72.51
Q9P0X4	1.08
Q6NXG1	7.01
Q96K21	15.42
P55010	134.56
P50539	20.33
P56270	5.45
Q9NPI6	12.55
P09471	1461.91
Q9NVE7	52.38
Q8NBT3	4.77
O14558	15.46
O14559	7.72
O14556	71.44
A5PKW4	12.09
Q9UP83	5.71
Q9NSB8	6.52
Q9Y696	138.12
Q9Y697	42.22
Q86UX6	28.91
Q9C0C4	14.3
Q5T0B9	5.78
Q9C0C2	23.32
Q9Y4Z0	17.26
Q3ZAQ7	210.01
O00767	6.38
O00764	294.36
P39656	213.82
Q8IUQ0	58.46
Q9BZL4	31.21
Q9BZL1	31.0
Q08209	185.09
O75533	154.42
O75531	474.09
O75821	59.52
Q4G0F5	121.79
Q00059	109.26
Q9C0B1	50.0
Q9C0B0	9.02
O95801	5.93
P54829	20.85
Q8NFH5	30.48
Q8NFH4	7.22
Q13151	867.63
Q9NRA8	2.45
Q0VAA5	7.62
Q13155	89.94
P52799	21.53
Q9UII2	64.89
Q96Q11	58.14
P62899	366.36
Q96Q15	0.65
Q92845	29.05
Q92841	610.59
P98164	0.51
P98160	18.08
P22102	103.25
P22105	0.57
P12829	12.29
P04049	14.51
Q9H444	84.95
O75792	31.73
Q9H910	158.46
P00751	15.49
Q14517	0.52
Q9H1Z4	34.54
Q02750	182.97
P61457	132.47
Q5JS54	19.23
Q9UNQ2	7.52
P09467	7.19
P60660	579.01
P46940	65.8
Q6PGP7	16.61
Q9H4I9	23.16
O14828	131.48
Q5VZE5	3.17
Q8NGR4	7.57
O60315	1.94
Q13200	322.58
O60313	149.52
P30101	914.51
P49674	39.2
Q9UBS4	150.41
Q9UBS5	39.13
P13521	63.49
Q8NG27	7.46
P63313	158.14
Q9H2V7	9.36
Q15262	1.63
O00159	15.24
O00154	849.4
Q15269	10.34
P61224	521.6
O00151	29.38
P61221	86.59
Q06187	20.84
Q13636	61.42
Q8WTW3	2.43
Q5VWJ9	53.33
Q9H6F5	6.58
A6PW82	3.68
Q8IUD2	103.42
O00487	114.93
O00483	395.85
P05141	653.23
P52895	50.48
P55209	262.75
Q9P2G1	6.51
Q504U3	118.73
Q86WG5	12.71
Q7Z4S6	104.74
Q9BRT2	53.43
Q9BRT3	42.72
O15014	7.01
Q9BRT8	6.01
Q9NZR2	0.51
Q9NZR1	173.97
Q567U6	18.1
Q9NP81	40.91
Q96QG7	12.52
P15848	17.76
Q9UKD2	19.23
Q96ES7	23.91
Q9BU23	6.65
A0M8Q6	93.76
Q6IA86	8.59
Q12857	47.36
Q8N2U9	8.69
Q01064	21.58
Q08J23	33.7
P00439	5.11
P35080	1426.28
Q5JNZ5	407.53
Q5JNZ3	6.94
O43847	24.16
Q66K14	18.85
Q8WVM7	12.84
Q9UER7	3.26
Q8WVM8	84.19
O75494	397.81
P35555	0.85
Q14183	6.03
P35222	427.63
P35221	121.78
Q14188	5.38
P10176	314.61
O60678	4.42
Q9Y3A5	73.69
P23193	62.39
Q3KQU3	65.65
Q7L5N7	17.6
Q7L5N1	131.87
Q96JE9	241.95
P15086	11.19
Q8IVM0	73.96
P52630	5.41
P23443	4.48
O43716	17.56
O43719	64.8
Q96DH6	45.16
Q8N5M4	105.91
Q14728	5.48
Q6GMV3	50.29
Q6GMV2	22.39
Q9Y5W7	2.4
Q9Y5W9	8.71
Q9HBZ2	6.73
Q99757	72.06
Q99755	8.46
P49427	9.91
Q6IN97	7.53
Q14185	7.38
Q7Z7M0	4.37
Q9ULR0	24.09
Q9ULR3	4.69
Q9HCH3	40.3
Q8IWA4	3.15
Q8IWA5	33.07
Q9H9T3	17.02
A6NFY4	5.44
Q9NZ72	189.09
P51668	95.75
Q8WXD9	49.52
P33316	129.66
Q8WXD2	14.99
Q8WXD5	14.07
Q5T4D3	3.19
P16220	14.44
Q6DKK2	6.24
P22670	7.59
Q53H47	10.37
P04844	237.08
Q96KA5	17.03
P04843	382.52
Q6SZW1	126.81
Q7Z569	3.94
Q0VF96	1.78
Q9Y3A3	61.06
Q9NWU5	22.41
Q9NWU2	9.9
Q9Y2B5	3.84
Q9NWU1	5.42
Q9BW30	153.51
Q9Y2B9	66.99
Q9HB90	47.93
Q5JVF3	11.51
O14618	18.25
O14617	109.92
P55072	886.86
Q9P0V9	35.26
P56524	6.68
P51970	39.53
O14530	79.88
O14531	774.97
Q5TH69	3.3
Q9BYD6	35.89
Q9BYD3	22.76
Q9BYD1	51.22
P17174	504.12
Q9H3K2	7.12
P31644	5.08
Q7L0J3	102.52
Q9BXX0	2.29
Q9H8S9	73.95
P98179	262.31
P14854	545.88
Q9NQG1	55.97
Q5SW79	205.55
Q9NQG5	150.78
Q04917	1248.68
Q6UXD5	21.72
O00743	105.54
A6NGB9	21.43
Q6U841	2.1
Q9Y6N7	38.07
P08237	295.47
P08238	1750.03
Q9Y6N8	8.99
Q9Y547	81.28
Q1KMD3	358.0
Q9UJ04	11.74
O95825	41.08
Q15118	10.76
Q15116	8.37
Q15111	21.59
Q86W74	20.41
O15226	10.23
Q5VWQ0	2.94
O15228	6.86
Q5VWQ8	12.08
Q9H0V9	26.69
Q8TF71	4.77
Q8TF74	11.45
Q5K4L6	3.37
Q9UK41	10.42
Q9UK45	68.51
P47736	28.89
Q92688	285.29
Q6P9B6	36.37
Q5VVW2	4.7
P27144	115.34
Q8IW35	10.93
O75534	113.27
Q96QZ7	25.76
P04062	13.31
P26368	217.89
P04066	4.93
P54803	24.07
Q9H936	207.52
Q14533	4.82
Q14534	12.43
Q8NFJ9	8.14
Q9NWH9	42.97
P16035	21.72
P19022	180.5
O96028	1.74
Q9UHC6	60.8
Q9UHC7	4.97
P07900	1937.11
Q6PIF6	1.1
O43526	2.76
A7MBM2	3.49
O94888	28.97
O94880	5.3
Q15393	203.23
Q6VEQ5	10.53
O14841	1.93
Q9NYR9	49.27
Q15392	13.22
Q6NSJ0	3.27
Q15397	3.6
Q9UPY8	480.47
O75116	31.29
Q5VZK9	5.24
O75110	109.47
O75113	7.92
Q9UPY3	4.85
Q9UPY6	9.58
Q8NEZ2	17.94
Q8NEZ3	1.75
Q8NEZ5	11.91
P33121	37.39
O60333	9.07
O60331	25.31
A6NE02	15.15
Q9UBU6	12.01
Q9UBU8	44.72
Q9UBU9	26.42
P61024	27.43
P61026	963.79
P61020	167.63
Q06210	26.9
Q08AM6	63.24
Q14CX7	11.8
O00170	70.39
P12270	77.31
P12277	4982.62
O00178	69.48
Q15287	30.98
Q15286	161.09
P55196	110.17
P61247	716.64
Q13618	137.04
Q13619	42.3
Q13610	9.49
Q13613	24.83
Q13614	32.49
Q13615	5.95
Q13616	47.27
Q13617	45.69
Q9NS15	1.9
Q9P2Y5	3.39
Q96T88	8.85
Q96I59	19.59
Q0VDG4	16.37
O95104	18.94
P51693	22.02
Q9HC35	72.97
Q5T440	48.61
Q9H6U8	7.58
O15031	56.83
Q9H6U6	5.23
Q9HC38	380.73
Q9NSD9	284.51
P38405	41.86
Q32P51	983.11
Q9UKB1	4.27
Q96EQ0	31.7
P18507	9.78
P18505	14.65
Q96ST3	21.9
Q96ST2	2.88
Q96QE2	7.53
Q9Y223	3.34
P16591	11.2
Q12874	130.56
Q12873	42.09
Q9Y224	226.54
Q9BU02	20.73
Q00688	473.53
Q86UP2	89.85
P04217	9.77
P04216	236.35
P09622	190.72
O43865	49.44
Q9NZI8	129.38
Q6RI45	1.3
P46776	383.94
P46777	308.4
P46778	228.33
P46779	100.94
Q5T5U3	49.98
O75477	88.48
O75475	603.9
O75473	2.65
Q8NBM8	38.79
Q8NEG5	3.64
Q8N9F7	73.25
Q96JC1	20.82
P08574	329.09
P08572	14.23
O60500	1.97
Q9Y4C0	17.6
Q9Y4C1	3.6
Q13057	8.5
P23468	75.25
P08579	62.37
Q6UB35	5.01
Q5JU85	1.64
P54619	105.75
Q9Y5Y2	18.38
Q99733	173.23
P32004	429.57
Q99735	47.82
Q76I76	1.67
O95696	2.22
Q7Z7K6	398.12
P05997	1.83
Q9NZ56	7.36
Q9NZ53	40.71
Q9NZ52	6.77
Q86Y01	3.93
P42336	14.92
Q16566	96.94
Q16563	9.27
P11464	5.61
Q96C36	7.88
Q5TGY3	3.15
Q6DKI1	9.24
P19256	9.41
Q5H8C1	1.09
Q9NUY8	3.38
O14983	36.05
O14981	5.12
O14980	191.1
Q9ULP0	158.44
P56962	7.93
Q9ULP9	75.79
Q9BY77	80.48
Q9Y2L9	16.38
Q9Y2L5	4.94
P07108	685.82
Q9Y2L1	24.31
Q96MY1	11.22
P41743	7.76
O14672	25.19
Q8N8A2	32.01
P50579	50.09
Q9UNN5	28.66
P50570	105.36
Q9P0T7	12.88
Q9NVI7	48.26
Q9NQ29	42.41
O14519	21.43
O14514	4.58
P17152	159.89
Q15545	13.16
Q15543	18.54
Q6P587	53.32
Q03013	10.36
Q8WWH5	28.45
P23921	85.3
Q07954	88.21
Q07955	1508.74
Q86XD5	29.63
Q5T0N5	124.94
Q9NQE9	143.13
Q4KMP7	33.42
Q9UBH6	29.24
B2RPK0	32.79
O60825	9.06
Q6R327	1.38
Q13868	48.48
Q13867	120.97
P57105	16.63
P52429	8.29
P17568	64.61
Q8WX77	9.13
Q15139	5.21
O95847	14.69
O95848	109.85
Q96AX1	35.27
Q9H0T7	33.83
Q86W56	2.38
P43246	58.18
P43243	775.58
Q86W50	4.16
Q5VWX1	40.84
Q9UK22	31.8
P83111	8.73
Q7RTP6	31.89
Q330K2	13.88
Q9H3H9	51.24
Q9Y566	1.18
P07686	8.4
P0C7T8	11.26
O75864	3.54
Q4G0J3	7.92
Q92804	68.56
Q8N895	3.11
Q02539	485.19
Q8WYA6	20.33
Q14554	13.34
Q86UA1	6.76
P04003	7.9
Q14558	47.08
P60510	128.39
Q96EY1	20.19
Q9H488	36.16
P54868	23.39
Q96PD2	3.12
P22676	268.8
O43505	11.25
P41240	78.38
O96008	125.85
O96000	242.28
Q9UHA4	77.79
O96005	48.74
Q96CW1	117.38
Q9H4M9	275.31
Q9H4M3	17.81
Q53FA7	89.47
Q8N3R9	3.43
P54284	29.15
Q13263	439.82
Q17R31	8.73
P54289	172.27
O75131	61.68
Q16762	95.1
Q02790	189.22
Q8TEM1	28.42
P61006	111.94
P53621	178.1
Q9UBW8	87.5
A8MSI8	28.26
Q9UBW7	3.42
P61009	195.64
P40197	4.35
Q96BY7	2.28
Q15738	56.91
Q96BY9	14.33
O15442	21.36
P54136	126.53
P14550	369.45
Q6UVY6	15.21
P61266	972.24
O00116	76.31
A7E2Y1	3.59
P21246	209.8
M0R295	15.19
Q15036	10.02
Q9Y2B0	423.34
P30419	37.31
Q9NS37	7.13
Q96N03	35.56
Q96N06	34.27
Q96CM8	3.89
P47897	96.56
P48507	43.11
P48506	21.85
Q9H6W3	18.63
Q9Y6Y8	11.93
P48509	28.09
Q9BRX8	627.27
Q9BRX9	7.71
Q9NZN5	27.53
Q9NZN3	73.97
Q7Z4W1	132.91
Q9BRX2	18.33
Q9NZN8	26.61
Q15293	245.25
P37198	54.72
Q9P013	29.85
Q9P016	51.55
Q9P015	7.93
P56192	115.29
Q9HBK9	6.35
Q12815	3.16
Q9BU61	91.13
P07738	70.64
Q9BYC9	15.19
P07737	1777.5
P04271	98.92
P09601	8.07
P04275	1.71
O95057	177.98
P00966	79.71
Q9BTN0	4.0
O60518	31.87
P07384	145.59
Q9NTX5	94.34
P50552	19.96
P24593	8.67
Q5W0B1	3.27
Q9UNL2	62.84
Q8WVI7	21.46
Q9Y3E2	37.08
P35268	447.92
P35269	13.65
O60636	10.97
Q9Y3E5	82.82
P14314	178.33
Q8N2Q7	5.65
P00387	735.18
Q92499	247.48
Q8WUX9	78.06
Q9H019	49.74
Q9Y4A5	7.87
P08559	201.93
Q5TF21	174.57
Q5CZC0	0.34
Q5SNV9	1.63
P20290	95.61
P12004	165.76
Q9P1U1	27.82
O94925	86.56
O94927	3.7
Q9H2D6	4.05
O94929	6.81
Q99714	472.34
Q9NPD3	40.17
Q99719	377.8
Q9NPD7	17.28
Q04637	80.01
O75431	71.21
Q8N668	25.02
P26992	169.53
P26440	68.64
Q86Y26	2.2
Q86WG3	44.03
Q9NZ32	102.98
Q16543	148.95
Q16540	59.6
Q9H3S7	28.13
Q9H3S5	10.71
Q6ZWT7	4.45
P26196	262.91
P11441	149.03
Q9BUQ8	60.98
O43314	11.32
O43312	16.11
O43310	39.2
P54652	537.28
Q16720	9.87
Q9UFF9	31.6
Q96FV2	17.06
Q96FV9	14.01
Q9BY50	98.39
Q9BW71	4.28
Q9BW72	22.98
O14653	32.08
Q9NWQ8	73.31
Q6IAN0	30.18
O14656	42.04
P49593	26.58
P49591	297.49
P49590	27.94
Q9P0R6	16.93
Q96MW1	10.49
Q9UNH7	124.95
Q5T035	12.79
Q8TBG9	9.08
P30622	60.42
P20908	1.44
P30626	244.45
P49802	18.38
Q15569	3.91
Q8WWF6	48.0
Q9C0I1	6.15
Q9Y4X5	28.92
A6NHR9	35.11
O00258	26.79
Q7Z3U7	4.17
Q9H2H8	102.15
Q9H2H9	14.71
P08833	9.49
P02771	644.23
P02774	20.01
P52565	422.4
Q15155	61.14
Q15154	5.8
P17540	22.31
P34059	4.57
O95319	43.92
Q9UJ41	26.7
O95861	63.47
O95865	1304.84
O95864	15.21
O15269	25.12
Q9H0R8	94.32
O15260	113.32
P35908	716.67
Q9H0R6	4.61
Q86W34	6.42
Q7RTV0	42.71
Q7LGA3	12.65
Q03252	422.71
P39019	577.38
O95359	11.99
Q96CP6	6.57
Q9UK08	168.94
Q8N6H7	42.04
Q9P202	2.74
Q9H3N1	191.67
P56385	66.79
Q92820	206.27
Q92823	127.05
P00558	1496.45
Q9Y6B6	11.82
Q53GG5	33.77
Q9BZF1	75.92
Q9Y587	15.58
Q9Y584	26.45
Q9Y580	43.43
O75844	4.83
P05089	7.63
O75694	29.02
P09012	67.76
Q5HYJ3	6.84
Q6P1X6	199.63
Q5VTR2	18.65
P12883	349.14
Q93084	53.46
P00734	7.57
Q5J8M3	39.57
Q14576	301.47
P00738	64.47
Q9H1P3	4.8
Q8WZ74	5.85
P42025	256.84
Q9BQ69	59.7
P20366	88.29
A1L0T0	39.04
Q9UHG2	280.69
Q9UHG3	93.55
P41223	124.68
P41222	37.8
P41225	5.86
P41227	90.12
Q9ULK5	70.99
P49207	39.86
P46926	251.4
Q92530	142.17
Q9HBH1	9.81
Q92538	6.42
Q92539	2.67
Q14974	261.75
P20336	540.82
P27105	116.89
P20338	86.9
P09417	308.18
Q96RT8	2.24
Q96RT1	3.35
Q8N3P4	16.38
P41594	5000.0
P11277	18.27
P11274	33.39
Q13247	73.62
O75150	18.65
O75153	10.84
O75152	17.83
Q13243	211.85
Q13242	124.47
O75157	13.38
Q15717	543.2
Q92903	4.97
P62158	3272.76
P10909	111.03
Q96BW9	36.89
Q8WUG5	4.59
P02730	49.45
P18754	23.57
Q9HCD6	32.57
Q9UJS0	89.29
P61289	179.58
P55157	10.67
Q8IXB1	11.64
A4D1S0	6.18
A4D1S5	10.86
P21266	468.83
P84103	1562.48
Q96I99	28.48
P31749	47.58
Q96N66	55.23
Q96N67	42.6
O15079	4.95
Q9NZL4	46.98
P16435	138.19
Q9NZL9	84.66
Q01970	11.45
Q7Z392	8.22
Q96NK8	13.69
Q9HBM0	14.94
Q9BR39	3.57
O95822	14.45
P02545	89.34
P02549	1.89
Q12830	2.35
O00391	3.21
P40222	8.56
O00399	38.31
Q6ZMI0	36.0
Q7Z5Y7	5.58
Q3V6T2	47.83
Q9NTZ6	35.36
Q9Y2U5	3.8
Q5T7W0	2.52
O60573	37.36
A6NDU8	47.28
Q9UMS0	18.62
Q9UMS4	230.46
P35244	136.68
Q8IY26	32.92
O75436	124.94
P35241	162.29
Q8IY22	6.14
O75438	38.06
O75439	53.61
P35249	20.03
P43034	516.94
Q9NVP1	10.54
P16284	3.21
O60610	29.99
O60613	14.89
P17931	131.7
Q99880	265.85
P01019	49.84
Q13011	377.25
Q71DI3	241.04
Q13015	26.33
O75385	2.35
Q8WUZ0	11.29
O75380	154.57
O75381	38.55
O75382	98.33
P52655	6.38
Q9Y4G8	20.57
Q5MNZ6	6.95
Q9Y4G6	106.32
Q8TCZ2	123.07
Q8N461	10.26
Q5SNT2	18.34
Q8WVK2	28.1
P53384	30.69
Q66K74	77.91
C9JXX5	24.3
Q9NPF4	29.09
Q9NPF5	15.0
Q9BSE5	7.03
O94906	71.86
O94905	133.03
O94903	113.5
O94901	5.88
Q8TC76	19.52
Q8N684	111.98
P28827	6.47
O75038	6.85
Q6PUV4	103.26
P26640	139.56
P26641	697.77
Q16527	227.59
Q9H3Q1	153.46
P60709	19690.73
Q9HA47	8.43
Q9NUU7	63.81
Q6FI13	5037.45
Q96KG9	26.6
P49411	582.9
Q96KG7	2.17
P49418	222.35
P49419	212.9
Q96FT9	11.26
Q5U5R9	3.01
Q7Z7G0	2.23
Q9Y2H1	4.91
Q9Y2H0	44.15
Q9Y2H2	10.32
Q9Y2H5	2.26
Q9Y2H6	2.01
Q9Y2H9	12.42
Q9NWS8	20.54
Q9Y3F4	323.95
P25205	90.27
Q9P0P8	18.96
Q3LXA3	53.93
Q9P0P0	14.79
P25208	23.21
Q96MU7	3.13
Q9BYN8	21.88
Q9NVM6	15.28
Q9NQ66	116.63
Q2M3G0	2.95
P20929	1.37
Q92686	69.56
O95747	109.59
P01833	3.18
P01834	1597.51
O95741	4.27
O95749	15.2
Q03052	5.82
P69905	20506.6
P05067	100.56
P05062	67.12
P05060	54.15
Q9C0K0	16.64
O00273	43.52
Q9UBL0	5.94
Q9UBL3	11.57
Q9UBL6	41.46
P03886	22.29
Q13825	22.32
Q5T013	8.71
P56545	70.37
Q9H2J4	95.94
O95336	615.53
Q9UQ16	149.08
Q15173	60.01
Q15172	14.14
Q9UJ68	30.42
O15240	102.42
O15247	37.37
Q12996	22.37
P29475	4.94
Q9Y617	367.03
Q08752	77.99
P32929	35.72
Q01105	458.85
Q01101	25.03
Q6T4P5	209.06
Q9UIA9	98.36
P18669	1370.49
Q5U5X0	66.48
Q9P227	14.7
P00533	27.62
Q4G0N4	139.35
Q969J3	11.92
O43924	121.67
Q9Y6D5	3.93
P02751	123.07
P02753	23.03
P08708	715.58
P29692	340.51
P14415	174.68
P20264	5.26
Q8NFP4	17.53
Q8NFP7	128.89
P35659	111.75
P35658	13.64
Q8NFP9	60.61
Q9H993	31.06
P27694	62.21
P27695	715.34
O76021	24.1
Q86VX9	4.26
P23368	76.92
O76024	2.64
Q9HAS0	11.87
Q9UEE9	86.75
Q96HB5	11.76
Q5SY16	13.36
Q9H221	3.5
O75170	25.25
O75175	19.42
P51692	2.95
O75179	4.83
Q13228	60.68
P11216	561.68
Q15369	424.82
Q13224	4.78
Q99698	0.62
Q15771	11.49
Q15773	28.24
Q15777	47.65
Q6UW78	26.28
Q8WUA2	9.26
Q9BT30	10.81
Q8WUA7	8.96
Q8WUA4	5.26
O15409	6.63
Q99523	37.41
O15400	239.91
Q8NB37	159.2
O15405	8.37
Q8N3V7	2.66
Q96RR4	12.28
Q4VC05	11.61
Q9UJU2	5.99
Q7L4I2	15.72
Q9UJU6	153.88
P50416	6.0
Q9Y5B0	5.08
Q8NDV3	1.84
Q9Y5B6	2.53
Q9Y5B8	12.47
Q9Y5B9	99.42
Q9NX05	10.99
P38606	473.21
Q9NX00	53.91
Q16881	119.57
Q7L7X3	36.52
Q8WZA9	206.99
Q8WZA1	3.52
Q8WZA0	98.6
Q8WZA2	6.88
Q9HD26	47.2
P62424	512.28
Q9HC56	17.52
Q9HC52	30.53
Q9H6S0	1.65
H3BS89	23.79
Q01954	2.39
Q9NZJ9	91.33
Q9NZJ6	12.91
Q9NZJ7	108.41
Q9NZJ4	1.53
P16455	36.72
Q96ID5	127.78
P10586	47.29
A1A5C7	17.96
P10589	97.58
P56159	5.15
Q9Y281	183.82
Q5T4S7	42.94
Q9Y282	24.52
Q9Y285	142.68
Q9Y287	17.47
P52815	37.23
P55283	7.93
P83436	3.07
P55287	18.07
P55285	6.0
Q96C19	148.86
P0C2W1	25.95
Q5T200	4.04
Q9Y2W1	85.33
O60551	23.25
Q8TDZ2	22.48
Q9Y2W6	12.81
Q96SZ5	97.96
Q495M9	5.15
A8MWY0	2.33
Q96NI6	6.67
Q9P0M6	740.75
Q9Y3I1	4.53
Q9Y3I0	283.12
Q5VU43	9.99
O75410	3.02
P05026	460.94
Q8N653	2.8
Q5T2E6	16.83
O00512	1.77
Q6DN90	46.47
O00519	8.4
Q8N2M8	6.87
P17661	29.69
O95292	311.37
O95295	53.44
O95297	100.21
O95298	112.04
O95299	136.53
P01034	50.31
Q7Z6I8	52.64
Q9Y4E6	37.2
Q8TCD5	22.66
Q9Y4E1	12.82
Q8IYK8	7.13
Q9H501	8.04
Q9BXC9	6.63
Q9Y4E8	28.28
Q13033	60.76
Q9P1Y6	1.48
Q9P1Y5	82.58
P46063	18.03
P46060	70.88
Q8WVE6	53.35
P42765	183.26
P42766	218.49
Q9NPH2	147.5
O94964	3.32
O94967	166.32
Q8TC12	224.61
Q99848	7.6
P18124	344.47
Q96JM2	4.65
Q9UI15	1013.86
Q9UI14	38.49
Q9UI10	46.03
Q9UI12	90.08
P24666	558.01
Q8IWY4	4.91
Q9HCP0	5.46
O43681	198.06
O43684	192.53
O43687	138.65
A6NFQ2	2.63
Q14019	581.55
P60763	223.06
Q14012	12.82
Q14011	838.23
Q9HA65	51.0
Q9HA64	100.09
A6NLJ0	6.83
O14929	16.05
Q9GZS3	173.57
O14924	11.86
O14926	4.81
O14920	9.18
Q96TA2	9.19
Q96FJ2	409.56
O60237	2.4
O60232	12.34
O60231	4.44
O60238	33.21
Q9NT99	79.72
Q9Y2J2	349.07
P47813	144.86
Q9UHX1	132.74
Q15691	1448.37
P51151	81.2
Q3SYG4	2.67
Q8TBC4	71.53
Q8TBC5	29.01
Q15526	15.9
P25325	239.56
P49888	30.17
P01859	36.9
Q13596	44.85
Q13595	267.46
P13807	12.65
P13804	286.99
P01857	1122.67
Q9BY11	36.39
Q9BY12	11.72
Q9UBN7	10.08
P62714	52.13
O00213	6.86
P55345	21.61
O00217	268.23
O00214	14.8
P48681	450.92
Q9NV35	14.24
Q9NV31	24.25
Q9NQ48	53.61
O95352	20.39
Q32Q12	113.63
Q9BV44	13.94
Q9UQ35	36.25
Q15714	9.66
Q6EEV4	17.51
Q9BV68	7.45
Q9Y639	119.38
Q9NXU5	57.91
Q86XN8	4.08
Q12979	51.58
Q12972	48.2
P29323	87.94
P62837	79.16
P62834	656.44
P25815	76.42
Q9P244	6.44
Q04446	32.92
Q9UIC8	69.03
Q56VL3	359.42
Q969H0	3.33
P09234	106.62
P04350	7383.98
Q969H8	140.96
Q9BZZ5	130.21
P00519	8.62
Q08554	2.65
P08729	5.16
Q8TAC9	121.79
P02008	406.63
Q9UKY1	2.7
Q9UKY7	106.61
Q96QR8	39.85
Q9GZN7	90.35
Q9UKY4	3.15
Q9GZN8	41.2
P43487	295.51
Q07866	300.19
Q9NRW7	89.56
Q9NRW1	225.84
Q6P1L5	25.65
P35637	446.3
P42574	25.15
Q92572	195.06
Q92574	12.25
Q92575	23.33
Q9HAU0	8.31
P42684	2.06
Q9HAU5	14.34
P08185	5.87
Q9H4W6	8.17
Q8N6N2	20.43
Q9P266	1.79
Q9UPA5	5.09
P06850	12.37
Q9P260	35.42
P26232	352.2
Q8WU90	54.51
P06858	9.97
Q9Y3R5	3.08
Q9Y3R0	15.15
O75190	29.37
Q9H244	6.72
P11233	370.98
P63000	975.76
P11234	67.91
Q8N163	136.46
Q15751	1.0
Q15750	43.64
P54198	4.74
P59922	7.57
Q99547	13.93
Q9UEG4	2.74
Q96RP9	3.17
P10745	3.91
P21953	12.29
Q8NDT2	13.63
P07327	26.59
Q02153	56.36
Q9NX24	61.61
Q02156	38.0
Q5SZQ8	5.24
Q96CW5	15.35
Q6ZRS2	1.54
P10619	14.59
Q70HW3	9.02
O14770	10.23
O14773	34.61
O14775	103.38
O14776	49.18
P62068	12.48
Q9UJW0	70.87
Q96IJ6	17.17
P56134	291.19
Q9NUN5	4.32
C9J6K1	11.8
Q9BR76	63.5
Q6ICG8	8.3
Q658Y4	8.46
Q6ICG6	23.14
Q9ULE4	2.19
Q9ULE6	19.17
Q9P2Q2	52.78
Q9BTT0	129.48
Q9BTT6	17.89
Q71U36	29851.29
Q9Y2Q9	25.42
O60828	34.78
P30038	68.68
P30039	66.68
Q9Y2Q0	84.7
Q59GN2	167.6
Q8N8V4	5.69
Q5JVS0	11.57
Q9P0K9	49.76
P13637	832.16
Q96EY8	29.02
P18859	63.14
Q9P0K1	5.28
Q96EY7	13.49
P13639	653.04
Q6NXT4	5.18
Q9P0K7	26.48
Q6NXT6	12.37
Q6IQ26	1.8
Q6IQ22	136.12
P78417	355.61
Q8IY63	2.49
Q9NVT9	33.88
Q8IY67	8.3
Q2M389	7.77
Q96S38	2.23
P55809	188.71
O00534	9.19
O00533	229.49
Q15031	18.19
Q86V97	13.92
O15164	4.54
P35346	20.27
O15160	13.5
O15169	2.77
Q8TE56	2.19
P15586	17.07
Q9BXM9	84.49
P08069	22.25
Q9Y4K4	11.15
Q9Y4K3	8.89
Q8IYI6	84.21
Q5JPE7	3.8
P62993	231.24
P62995	511.52
Q92743	5.17
Q5VUJ6	6.26
Q92747	248.56
Q86U28	48.24
Q6P1N9	39.42
Q9NPJ3	88.55
Q9UI30	111.95
Q6UWP7	21.66
Q7L5D6	50.8
Q8TBZ3	4.21
Q6UWP8	4.38
O75691	1.66
Q7Z6K5	84.97
O75695	33.42
Q14254	146.36
Q14257	251.46
Q02388	1.79
P27338	54.1
Q8IU81	17.18
Q8IU80	2.94
Q8IU85	111.13
Q9NVH0	15.06
Q8N6S4	13.07
O60294	3.5
Q68CP9	5.37
P30304	4.48
S4R435	178.81
P49189	93.56
Q6UUV9	11.81
Q14789	3.52
O14907	57.87
Q9NUQ8	26.58
Q9NUQ9	497.46
Q9NUQ6	12.88
Q9NUQ7	4.97
Q9NUQ2	31.49
O14908	29.4
Q5T447	27.28
Q16787	0.72
Q9GZQ8	198.41
Q96FH0	19.77
P49458	78.6
P49459	61.2
Q9ULX7	7.03
P49454	3.6
Q86Y82	334.92
O60216	25.87
P42229	2.92
Q9UNF1	69.34
Q9UNF0	61.79
Q7Z2W9	11.61
Q13418	5.15
Q5VSG8	5.16
P11171	152.93
P11172	40.59
Q53QV2	108.43
P63215	31.9
P11177	324.14
P63218	36.2
P20962	1217.83
P01876	28.14
P01871	91.34
Q13574	10.67
Q13576	92.43
Q13573	34.47
Q13572	11.61
P47870	4.48
Q8NE71	35.9
Q9BWM7	346.09
O00231	357.24
O00232	95.15
O00233	150.28
P05023	1196.83
A6NHX0	22.04
Q9P032	143.8
Q9P035	435.83
P55327	54.45
Q6IEE7	2.47
Q8TBA6	6.38
Q9BYJ9	21.76
P31040	134.85
Q6ZVM7	28.61
O95373	106.4
O95372	10.71
Q9UQ52	4.65
O95376	13.75
Q9Y653	47.71
Q9Y651	9.27
Q86XL3	10.18
Q9Y657	80.55
Q86UD5	4.6
Q12959	29.01
Q68DH5	3.26
Q12955	27.57
P62851	655.5
P18621	792.44
P62854	183.21
Q9P265	69.52
Q96CV9	64.3
Q8N6N7	54.12
Q92882	22.28
P51805	26.79
Q969N2	16.13
P09211	1622.1
Q92888	2.59
P51808	40.57
Q16270	63.66
Q9Y6X4	60.09
Q9BZX2	9.04
Q9Y6X6	1.29
Q8TAA3	18.57
Q5JRX3	15.8
P02790	56.4
P02792	383.77
P02794	299.56
P04083	205.3
P04080	570.78
P53779	5.04
Q9GZL7	16.66
P46459	375.3
P01266	0.87
P35613	94.17
P35612	308.01
P35611	310.9
Q9H1V8	3.27
P0C870	29.49
O76094	81.68
Q6P1N0	38.19
Q9NRU3	2.54
P32969	678.61
Q5JTV8	16.0
Q92556	12.64
Q7L8A9	19.41
Q92551	10.55
Q92552	27.82
Q92558	146.11
O00750	2.87
P30838	26.29
P30837	27.79
P28161	267.56
Q6PJG6	3.01
Q8N766	56.89
Q6PJG9	3.96
Q09666	18.95
Q7LBC6	6.91
Q9H267	33.78
Q14444	108.18
Q5VZQ5	12.3
P25490	17.78
Q9H269	41.97
P63027	1150.71
P14625	825.16
Q8NET4	1.84
Q9Y3P9	63.11
Q8N108	4.57
O43583	131.92
Q9UH99	79.17
O43581	40.76
O95571	38.02
O95573	85.65
P14621	118.91
Q8WUM4	121.4
Q8WUM0	24.65
Q99567	19.03
C9J069	2.48
Q99569	2.01
Q8N3J6	78.0
P22059	71.11
Q9Y6A4	127.97
Q9Y5F7	2.62
Q8IXH8	5.56
Q8IXH7	4.0
Q9Y5F8	2.62
Q9NX40	95.9
Q9NX46	74.83
Q9NX47	8.48
Q8IY95	8.57
Q8IUH4	3.74
P07305	406.36
Q49A26	30.63
P10636	839.17
Q06413	10.34
Q6P995	8.62
Q06416	6.87
Q9HC98	7.42
Q9HD67	1.12
O14713	12.16
Q01995	23.43
P62081	957.87
Q96F85	582.5
Q96F86	23.62
P50454	279.53
Q9UJY5	7.53
Q96A32	13.93
Q96L21	108.05
P50453	62.48
Q8NF37	103.02
Q6YN16	58.36
Q9NUL3	38.06
Q9P2S2	57.29
Q15121	1497.31
Q9ULC3	49.69
Q9ULC0	9.65
P34931	105.41
Q96C57	9.4
Q9ULC4	232.0
P34932	398.82
P51149	1342.16
P51148	338.46
Q9Y2S6	37.49
Q9Y2S7	44.12
Q9Y2S2	59.84
O60841	61.07
P30050	1189.45
P11940	329.9
Q9P0I2	70.76
Q9UMY4	255.13
O15212	181.67
P13611	127.2
Q6IQ49	5.33
Q96BQ5	8.59
Q9BUE0	33.59
Q15018	39.54
Q15019	459.79
Q96S59	17.02
Q96S52	30.08
Q15013	8.53
Q15014	16.4
Q7L0Y3	27.98
Q96S55	33.06
Q9BTV4	177.11
P45974	351.27
O15143	38.82
O15144	763.95
O15145	232.09
P45973	309.94
Q9Y4I1	325.94
Q8N370	4.22
A6NGQ2	46.29
P21741	17.0
Q92769	76.57
Q8IY47	3.71
Q8IY45	9.33
Q86U42	137.53
Q92945	329.74
Q86U44	12.33
Q99798	477.61
Q02410	48.5
Q5JR59	5.29
Q02413	2.33
Q9P107	2.48
Q01469	2236.34
Q5VTT5	1.63
Q6PCE3	338.49
P10398	11.76
Q9H098	68.12
P16930	5.71
Q7RTS9	3.49
O43172	40.79
Q15907	421.92
Q15904	35.65
O43175	579.9
Q9HCU4	4.17
O00451	10.28
Q86YM7	85.51
O14965	5.78
O14964	43.03
O14967	11.35
Q9UFN0	232.67
O43396	328.59
O43395	13.67
O43390	705.82
Q2TAA2	143.99
Q2TAA5	9.52
P09874	318.62
Q8IWZ8	3.66
Q96FN4	116.9
Q53SF7	2.01
Q8IWU9	4.73
O60271	30.81
Q8IWU2	1.61
Q96PQ0	10.34
Q6PIU2	40.49
Q8WXX5	159.44
Q15654	5.27
Q15653	7.01
Q15650	4.01
Q13432	29.48
Q13433	6.23
Q7Z2Y8	0.95
Q13438	10.52
Q13439	2.03
O95490	14.6
P63279	338.4
Q6DD87	6.53
Q6DD88	8.75
P11117	21.92
Q92879	35.62
Q13557	136.3
Q13555	46.55
Q13554	164.04
O95721	128.03
Q969G3	56.79
Q96GD0	459.7
Q5T749	16.52
Q9NWY4	33.59
Q3SY69	10.42
P37059	6.19
Q9UQB3	137.8
P50150	315.81
Q9UQB8	52.23
Q13885	10601.27
Q13884	4.56
P33240	47.81
P33241	7.12
Q96BJ3	105.9
Q9NQ86	35.11
P51798	5.98
P48643	568.31
P51790	8.74
Q9NQ89	4.15
Q9NQ88	26.44
Q9NV70	23.38
Q9BYH1	9.48
Q7L211	6.87
Q6ZTN6	18.12
Q6ZVC0	12.05
Q12933	4.74
Q4KMZ8	22.5
Q9Y678	94.89
Q9NQS3	4.34
Q9NQS1	6.88
Q9BV23	55.29
Q9Y676	18.03
Q9Y673	7.17
Q9UBB6	245.24
Q9UBB4	287.28
Q9Y4C2	23.35
P62879	411.62
P62873	1892.55
Q9UIG0	35.65
P62877	21.59
Q96CX2	853.41
Q969L2	41.56
P02042	643.57
O60477	5.97
Q8TAG9	8.48
P78357	6.78
P11168	13.83
Q9H1H9	1.31
Q00536	9.51
Q8NFV4	15.27
Q8WYK1	32.75
O76038	8.27
P27986	15.85
P27635	172.29
Q9NRS6	41.51
O75223	201.78
Q5JSL3	4.46
P05408	44.66
P01243	10.59
Q8N0Z3	2.75
Q6PHR2	9.91
P06213	15.25
Q9UKU0	17.04
Q8NI08	2.5
Q8WU08	5.71
Q8TB72	9.28
P14649	174.58
Q8N126	220.27
Q8N9U9	19.99
Q8N122	16.0
P32322	39.71
Q8N128	66.91
Q8N129	56.15
P26583	242.51
Q7L8C5	5.65
Q5T8I3	6.74
Q99584	46.19
P25311	7.73
Q86X27	8.13
Q96RL7	0.74
P82664	11.52
P82663	52.68
Q8IXJ9	1.6
P11586	206.09
Q9Y5H7	2.6
Q9Y5H4	13.09
Q9HDC9	296.4
Q9Y5H3	2.61
Q8IXJ6	73.62
Q53R12	10.57
P21912	41.88
Q9NX62	13.7
Q9NX63	151.96
Q16352	2998.95
P62318	399.8
P62316	509.23
P62314	438.83
P62312	174.15
P62310	178.94
P61758	105.24
Q9HD45	19.51
Q9BRF8	44.72
Q8NI29	8.38
Q9HD42	48.83
Q9HD43	4.33
Q8NI27	15.94
Q8NI22	32.33
O14735	180.08
O14737	408.02
O14733	5.58
Q9NZD2	55.54
Q9NZD4	22.38
A8MVW0	81.81
Q9NR45	85.45
Q9NR46	102.42
Q8NF50	2.22
P84098	101.61
Q9NUJ1	218.61
P84090	194.5
Q9NUJ3	4.65
P84095	62.17
Q15464	4.81
P34913	4.23
Q9P2U8	32.92
Q96KP1	89.1
Q96A33	47.42
Q03113	5.98
Q03111	4.27
P13987	130.81
P13984	9.34
O60861	14.62
O60869	161.85
Q8N8R3	16.53
Q8N8R5	6.1
Q8IWS0	32.08
Q96EE3	20.05
Q04837	199.55
P08913	37.88
P13674	21.7
P52306	223.72
P02452	36.23
Q9NVX7	4.56
Q15070	21.83
Q8N2K0	64.62
Q15075	81.54
P17600	450.43
O95239	1.89
Q9UM00	125.12
O95232	92.66
Q71RC2	3.29
P51161	18.44
Q6L8Q7	47.2
O15121	20.99
O15126	349.34
O15127	21.69
Q9BTX1	3.47
Q9Y4P1	35.89
Q8N350	24.46
Q8WVC0	14.05
Q8WVC6	179.62
Q5T5Y3	34.24
Q9Y333	244.52
Q9H875	12.62
Q9H2U2	104.8
Q9H871	6.02
Q6DJT9	4.74
Q8N4Q0	33.0
Q8N4Q1	82.81
Q04695	55.07
Q9UGJ0	4.2
P00326	6.65
P00325	19.94
Q7Z6G3	165.61
Q7Z6G8	9.59
Q9BXI6	4.64
P43155	41.13
O43157	11.41
O43150	7.12
O43151	1.48
P86791	23.71
P46379	39.94
Q9H3Y8	22.5
O94986	1.35
O94985	55.5
Q6ZQV5	3.68
P42702	4.28
P42704	174.49
O14949	240.71
A6NKT7	1.34
Q9GZU8	18.33
O60256	155.37
Q13185	509.22
Q9H9B4	513.23
O75077	2.88
Q9H9B1	1.87
Q4LE39	1.79
Q9ULC5	6.97
Q8IWW6	19.27
P26022	18.93
Q96MM3	7.61
Q9UHR5	7.82
Q6PI25	13.99
P98194	2.63
Q13459	3.27
P23610	33.88
Q13454	33.39
O75882	10.03
O75880	15.67
Q15582	7.1
Q8TEL6	2.92
Q96GF1	12.95
Q13530	5.04
P13861	343.41
P48729	54.46
P48723	56.12
P31937	67.49
P31930	362.33
Q6ZVL6	2.66
Q7Z3C6	5.61
Q96BH1	5.17
Q6UXV4	36.34
Q9UBT2	130.19
Q9BYV7	4.03
Q9NV56	11.82
Q14980	246.86
Q14982	195.18
Q9BYV8	76.85
P12111	13.11
P12110	7.32
Q96AT9	53.14
Q9H0X9	8.06
Q86W92	2.32
P55795	64.53
Q12913	23.6
Q9H172	7.37
Q7Z5J4	2.61
P03915	27.67
P09525	59.07
O75083	504.3
P07585	33.33
Q8TAE6	74.24
Q6P1J9	30.61
Q8NFX7	56.24
Q5M775	4.47
P20645	17.1
Q562E7	3.75
Q6NZI2	6.09
Q9P2J5	59.11
P28340	8.57
Q92598	262.57
Q92599	38.01
Q7Z5L9	13.02
Q7Z5L7	3.84
Q86VP6	508.98
Q6ZMG9	5.9
Q86VP3	27.12
Q92597	197.92
P08697	4.86
P30876	41.55
P08123	45.07
Q8N720	4.62
Q13131	16.56
Q8N0X7	3.64
Q9Y3T6	14.92
Q9Y3T9	6.24
P67775	550.8
Q8TB52	6.44
Q8TEA8	226.21
Q99614	79.02
Q99615	70.41
Q8TEA7	13.16
Q99613	75.45
P11166	88.17
Q6PI48	14.41
Q92890	122.87
P0CG01	13.1
P0CG05	422.25
O15484	36.21
P46782	463.26
Q8IV08	53.27
Q9NYL9	100.37
P53667	7.3
Q969M1	23.43
Q14157	50.89
Q14406	10.43
Q14155	44.15
Q14152	108.16
Q14151	66.56
Q14409	17.49
Q8NDN9	4.55
P21283	102.5
Q8TAF3	41.72
P36021	8.9
Q9Y5J1	4.27
Q9Y5J7	76.59
P19338	736.57
P19623	172.32
P16104	17.49
P62330	197.89
P62333	281.89
P61956	658.01
P13797	3.74
Q9NZB2	21.74
Q9BZ95	3.28
Q9UDY4	28.03
P13798	61.97
Q96A72	659.43
Q96A73	15.94
Q9BTV5	109.16
Q9NR28	253.89
Q53EL9	19.73
Q9NR22	5.85
Q53EL6	30.73
Q8NCC3	22.71
Q96KR1	33.96
Q9UFW8	56.31
Q9P2W9	47.95
A3KMH1	1.23
P13473	41.25
P49720	300.16
P49721	626.49
Q9P2W7	6.93
B7ZAQ6	5.01
Q96C90	149.86
P60866	554.72
Q03135	25.88
Q06323	359.73
O60888	235.61
Q8TDB8	9.41
O60885	8.7
P11908	15.24
P50583	173.17
P06753	474.39
P06756	18.27
Q9H4G4	76.94
Q9BUB5	5.16
Q9BUB7	18.29
Q6P4A7	6.97
Q96H20	9.18
Q15059	56.62
Q96S97	7.51
Q15056	174.14
Q15057	3.01
Q15052	12.11
O00592	9.04
O95219	51.04
Q9H7C9	39.74
Q9BTZ2	17.94
Q93052	8.06
Q93050	239.07
P31327	118.86
P62937	4206.74
P31323	429.14
Q05D32	5.0
P31321	24.6
Q9H857	13.09
Q92900	127.84
Q9H2W6	8.36
Q92905	133.95
Q86U86	13.73
Q70EK9	3.32
Q9Y316	47.12
Q9Y315	60.16
Q9Y314	7.99
Q9Y385	7.53
P43897	97.32
P15954	182.82
Q8IYS1	11.09
Q14232	102.16
Q6P2Q9	194.64
Q9BXK5	55.28
P53582	30.65
Q15942	82.15
Q5EB52	75.05
Q92673	1.07
O75586	9.32
A1L020	39.12
P20073	20.09
P38435	3.03
P49821	166.83
O75054	170.49
Q92947	5.5
O75056	98.99
Q147U1	13.13
Q8IZS8	15.08
Q8NAT1	11.93
P19105	562.16
Q92765	7.31
A6NFI3	9.77
Q9H4B6	35.61
Q9H4B7	2168.89
P54725	40.13
Q9H4B0	5.87
O95456	40.32
Q99426	921.06
P42858	9.15
P42857	25.34
Q9HAN9	16.59
P31942	674.43
Q13510	77.12
Q96PU5	165.69
Q96PU4	2.94
Q96PU8	98.46
P34896	14.97
P34897	42.58
Q9BYT8	78.84
A1L390	1.97
Q9BYT3	9.16
Q16143	389.39
Q16637	8.32
Q16630	107.39
P09960	80.3
Q7Z434	23.43
P20340	583.93
Q9NQW7	83.36
O00291	68.39
Q9UQF2	6.83
Q08380	60.83
Q9UBF2	65.13
O00299	432.98
Q6UXT8	18.57
P51648	62.79
Q969P0	89.62
O60437	3.88
Q9BZR6	5.22
Q6IC98	11.97
P49916	14.08
P49915	72.52
Q8IZ40	4.57
Q8NFZ4	40.84
P0C0L4	5.5
Q8NFZ8	179.58
P05198	315.47
Q01658	81.75
Q01650	38.53
P08107	722.36
Q15906	6.53
P00488	3.18
P23381	74.75
Q66PJ3	6.9
O75915	330.94
O75914	80.79
O75912	2.26
P61421	223.36
Q5T9L3	4.26
Q9NTI2	14.35
Q9NTI5	62.75
Q96SI9	71.94
Q96SI1	16.59
O60826	33.7
P48047	671.53
Q13283	111.74
Q9Y3Z3	40.36
Q13285	5.13
Q99638	6.23
Q69YQ0	48.9
O00411	1.91
Q8TB36	237.09
Q8TB37	15.55
P62745	586.8
Q96P20	2.24
Q8WX93	7.04
Q8WX92	40.33
Q8WW22	17.74
Q86VR2	15.46
Q02224	1.67
P22033	38.24
O43292	23.51
O43291	9.39
O43290	38.16
Q9NYB9	109.47
O43295	95.76
Q684P5	26.48
Q9NYB0	101.76
P00156	24.81
Q2KHM9	2.42
Q8IUR0	89.23
Q8IUR7	7.02
P15153	86.54
P15151	5.85
P49354	17.9
P04908	18.74
Q16822	7.49
Q16827	7.66
Q6ZSS7	3.01
Q8WUK0	23.2
Q96DE0	137.0
P36551	31.7
Q9Y5L0	45.77
Q9Y5L4	50.46
Q8N7H5	26.5
Q86Z14	2.21
P30520	89.9
O60503	1.76
P49747	3.2
P49748	82.8
Q9NPL8	16.47
Q15428	80.68
Q15424	129.06
Q15427	47.75
Q8ND76	20.21
Q9HCC0	34.56
Q9BRJ6	251.94
Q9BRJ7	147.58
Q9BRJ2	44.97
Q9UNW1	9.63
P60842	568.29
Q8N8N7	75.7
P06732	61.47
P55081	25.5
P06730	147.79
P55084	123.96
P06737	27.27
P55087	30.43
P55735	134.18
O43399	214.45
Q13702	5.72
Q8NCA5	23.91
Q9NR09	1.5
Q8NCA9	15.48
Q8NF91	4.45
P57772	64.91
Q8N2G8	4.61
P55884	131.78
Q8NHH9	16.0
P50440	43.74
Q9Y2Y0	56.3
Q6P3S6	6.81
Q93070	7.38
Q93074	3.27
Q93077	3174.35
P28066	300.94
P28062	26.18
Q6ZV70	5.72
P62913	222.39
P62917	198.52
Q9Y485	2.35
Q9H832	6.93
Q5VUB5	5.41
P10253	20.12
Q9BQA1	101.0
P02144	61.67
A8K0Z3	5.26
Q00796	117.52
Q9Y376	172.77
O95897	5.16
Q8IYQ7	31.89
P00367	457.4
Q9Y3D6	125.13
Q9Y3D0	30.0
O60641	283.55
Q3ZCM7	175.64
Q6ZWB6	25.26
O60749	67.97
P23246	748.02
P51610	34.27
Q6ZUX7	21.64
P25713	344.22
Q8IZQ1	3.35
Q8IZQ5	295.4
Q9H307	61.68
Q9H3H3	77.48
Q9H305	12.1
O60299	3.69
P52701	41.62
O60291	4.36
O60292	1.36
P11310	159.23
O43663	3.7
O43660	83.38
P61923	222.99
P61925	298.46
P61927	23.92
P10809	1805.15
Q8NDI1	26.49
Q15637	62.04
Q15631	293.44
Q15633	20.36
O95479	8.94
O95470	20.85
P54709	260.62
Q13492	22.47
Q13490	11.37
Q13491	100.53
P32119	3509.57
A6NCS6	8.69
O95782	187.22
Q6ZNB6	7.84
O95786	2.49
O95785	7.41
O95789	1.79
P36969	310.64
Q02078	4.83
Q9NY27	11.3
P19784	199.28
Q9UHV5	3.62
Q9UHV9	270.54
P33992	54.73
P33993	87.98
P33991	71.34
Q7Z3G6	2.77
Q96BD5	3.54
Q96IZ0	7.25
Q9NV96	97.68
Q9NX58	18.22
P60981	1088.03
P60983	301.19
Q9BQ70	24.19
P00390	61.22
P61586	912.82
P61587	9.68
P62166	242.18
Q86UL3	5.09
Q9H0D2	1.79
Q9H0D6	41.48
Q7Z417	10.44
Q86UL8	15.02
Q13435	97.8
Q14C86	36.93
Q9UBX3	8.47
P50135	7.96
Q5D862	10.68
P23634	105.65
P02585	14.62
P51665	300.54
P51884	13.79
Q969V3	42.07
Q9NSK0	46.32
Q9H8M7	5.33
Q6NW40	22.29
Q96IU4	59.28
Q08AF3	2.62
P27824	1211.6
Q13043	9.52
Q6P1Q0	12.68
Q6PKG0	49.34
Q5VYS8	1.55
P83916	494.79
Q8IZ21	6.77
Q00325	845.79
O00410	145.72
Q9P2N5	2.23
Q9P2N6	2.76
P28472	14.69
Q96T51	23.23
Q86TB3	1.12
Q96T58	2.63
Q5XKP0	20.24
Q13938	75.82
Q9NTK5	307.9
P04004	48.79
P06276	7.74
Q96SK2	8.42
P46100	13.13
P46108	195.78
P09486	30.6
Q99653	129.78
Q8NEL9	2.64
Q99873	293.55
P42338	2.16
O00468	34.15
Q9Y3X0	13.31
P42330	64.7
Q8N183	53.37
Q96P47	61.33
Q5JUX0	18.14
P09382	576.1
P62760	586.3
O75937	168.68
O00461	6.47
O75935	250.9
O75934	70.97
Q14376	20.76
Q8WW01	14.21
P43686	251.7
Q02246	88.78
Q5SYE7	3.1
Q8N983	11.31
Q9UNS2	44.27
Q8N987	6.53
Q9UEY8	76.98
O43504	165.34
Q8WVT3	3.34
Q96HN2	3.97
Q14118	21.75
Q14112	5.25
Q14117	4.68
Q14114	2.51
P45880	1737.31
Q16842	6.59
P15170	71.28
O43414	42.69
Q8WUU5	9.23
P82970	58.83
A4D1E9	6.17
Q96DG6	47.23
Q96F07	174.96
P36578	438.81
P63173	193.43
P63172	234.04
P20594	2.26
Q9ULK2	2.9
Q5PRF9	3.51
Q9ULK0	4.73
P49768	30.18
Q9ULK4	5.08
Q15404	33.6
P50336	41.75
P13929	5.64
Q96A23	63.69
Q8ND56	31.46
Q9UJX2	3.85
Q8N8L6	67.54
O00629	114.42
P40227	579.88
Q6PD62	11.91
P13693	283.93
P59665	25.97
P84077	2265.72
Q9NUD5	30.37
P84074	330.77
Q9BUF5	85.02
Q69YN2	8.74
Q69YN4	7.87
Q06587	24.98
O95258	7.32
Q96GY0	113.25
Q9HB07	118.58
Q9BW83	103.49
Q00403	30.42
Q9UKJ3	3.23
Q9Y4W6	98.7
P62979	14.75
Q01201	4.26
Q04323	63.6
Q6ZV50	4.0
A0AVT1	130.26
Q08188	3.46
Q6WCQ1	25.01
Q9BVL2	8.7
Q9H814	5.97
Q96AC1	71.46
Q9BXW7	34.32
Q9BXW6	2.44
Q6IPX3	47.53
P43307	16.44
P43146	43.47
P51797	5.45
O75891	8.04
P78563	3.28
O75899	27.54
P23229	2.09
Q5TDH0	23.8
P24941	39.04
O60762	62.58
O60763	112.95
Q9BSK2	22.47
Q15185	765.18
Q15181	1176.23
P17844	291.19
Q05586	5.03
Q2TAY7	18.42
Q9NRF2	10.01
Q8NFC6	2.41
Q9H9H5	25.23
Q9H9H4	25.39
O75093	6.31
Q13123	32.31
Q9NRF8	32.27
Q9NRF9	15.71
Q562R1	189.23
P68402	466.27
Q8N511	34.36
Q53GL0	11.46
Q641Q2	19.8
Q9UNX3	276.36
Q9H4F8	22.0
Q9Y2R0	112.92
P54762	33.75
P54760	2.45
P54764	33.76
Q9HAB8	54.54
Q03426	37.45
Q99460	272.86
P26885	169.3
P40763	15.04
Q70E73	25.46
P24821	381.7
Q6UN15	19.91
P16083	40.89
P62491	1151.24
Q96MG7	23.17
P61619	30.41
P62495	32.42
A6NDR6	8.77
Q14966	19.21
Q14964	10.59
P36639	58.82
Q9H5L6	2.56
P16333	18.54
Q9BYP7	6.68
Q9BQ52	2.87
Q16186	44.0
P62140	313.47
Q16181	580.27
P12429	94.69
Q9UPR5	18.48
Q96B97	10.87
Q9UPR0	21.05
Q9UPR3	2.33
Q7Z478	17.07
Q9BX40	69.27
Q9H0B6	84.55
Q86UN3	11.49
Q12931	109.14
Q9NXA8	39.1
Q9Y679	5.0
Q5SZB4	5.56
Q7Z3E5	5.77
Q7L523	101.44
P13591	2851.79
Q9BV20	27.07
Q96D71	15.29
Q96BY6	1.06
Q7Z4H9	9.45
P51608	121.25
Q9BZV1	42.6
Q9Y6R1	4.36
Q9Y6R0	16.33
Q9H9J2	21.18
Q08AD1	33.1
P17066	7.46
P49959	3.29
Q00341	43.08
Q00610	1371.59
O76031	7.65
P35813	87.38
P78356	72.7
Q5T1V6	3.85
P78352	72.41
Q5SRE5	4.05
Q5SRE7	16.35
O00479	27.77
Q15375	11.82
Q96T76	23.39
O00470	6.16
O00471	71.21
Q15370	322.77
O15085	18.96
O15084	14.07
Q969T7	7.7
O15083	47.93
Q969T4	11.56
Q969T9	47.16
P09543	328.53
P32455	3.9
Q9UKM9	301.96
Q4V328	82.8
Q5T1M5	21.81
Q86T03	8.99
Q99674	8.3
Q99676	3.07
Q6NYC1	34.21
Q9UH73	8.22
Q6NYC8	42.89
P62701	716.09
P18065	15.22
Q15005	211.92
P68431	550.37
O75953	20.31
O75955	229.38
Q08379	21.09
Q08378	26.91
Q9H7Z7	113.7
P00441	1579.38
Q9NYF0	2.94
O43252	26.18
O43251	12.81
Q09028	305.76
Q9NYF8	119.83
Q5SYC1	41.83
P53355	4.97
P53602	85.45
Q96RD7	55.14
Q8WVV9	119.06
Q14137	3.17
P17096	294.98
P46783	280.39
Q14139	17.29
P46781	750.56
Q8NEN9	12.36
O43432	28.5
Q96JZ2	6.79
P04632	65.49
Q16864	297.24
Q8N4N3	3.79
Q8WUW1	151.48
Q7Z6Z7	78.62
O60476	7.26
O75379	16.16
Q8TCU4	1.15
Q8TCU6	25.61
Q8N5V2	12.85
P82912	38.55
P82914	8.88
Q9Y5P6	39.91
Q86YR5	67.56
Q9Y5P4	14.96
Q96DA2	86.08
Q96DA6	21.2
P63151	123.01
P38646	435.09
P06454	1367.78
Q9ULI4	1.36
Q9ULI0	1.61
O15534	1.95
O15530	29.37
Q9H6A9	1.19
O95622	3.81
Q9HCG8	12.56
Q9H6Q4	9.99
Q9HCG7	7.59
Q5VST9	0.31
P21333	310.48
Q9NUB1	7.08
P30566	14.48
Q8NCE2	3.67
Q9NW15	6.94
P48431	7.72
Q8WWQ0	21.79
Q9HB21	11.63
Q9Y2E4	35.68
Q969Y0	4.15
Q6P3W7	25.55
Q01826	21.58
Q07343	22.25
P13010	432.46
P09488	216.38
Q9BVJ6	3.01
Q9BVJ7	63.89
P47756	760.58
Q2PPJ7	3.77
P52926	134.35
P02100	81.76
P57737	47.4
Q96AA8	5.58
Q8IYU2	2.59
Q86US8	8.26
P35711	3.15
Q9C0D5	1.31
Q9C0D0	4.0
Q9C0D3	9.47
Q9Y4W2	25.52
P29992	188.69
Q9C0D9	5.86
Q8TCJ2	56.57
Q9BXQ6	4.53
Q93034	52.43
P24462	55.27
Q92616	28.05
Q92615	6.58
Q92614	171.61
P78540	20.6
O75569	369.64
Q9BZK7	33.36
O60701	86.67
Q9Y6I3	35.15
Q9BZK3	56.84
P78549	23.11
Q9H694	2.53
Q9Y6I9	15.5
Q99996	11.68
P42785	18.99
Q01484	434.32
Q9Y450	73.72
Q6ZUT9	3.65
O75746	258.69
Q9Y320	62.27
P68371	4428.81
Q9NRD5	34.11
P33151	3.03
Q13107	12.2
P61964	94.13
P61966	70.71
P61960	87.17
P61962	68.06
Q9Y328	41.65
O94811	111.82
O94819	161.25
Q14657	35.79
O95433	138.44
Q99442	11.55
Q9HAD4	10.24
P40925	858.25
P33402	55.09
P40926	2171.55
Q9NY65	10.58
Q9NY64	5.21
Q9UHJ6	41.16
P80723	5066.86
Q96PK6	183.0
Q8N1G4	367.31
Q8N1G2	5.56
Q9UNZ2	385.26
Q96ME1	12.0
Q96ME7	86.02
P11717	11.59
Q12767	3.51
Q12765	582.63
P19525	59.73
Q12768	25.65
Q16650	14.31
Q2LD37	0.48
Q16658	1821.95
Q96HU8	70.7
Q9UPP5	1.7
Q9UPP2	6.23
Q9NS85	14.11
Q9BPY8	32.07
Q9NS87	1.65
Q9NS86	161.5
Q9NXC2	6.14
Q9BX66	13.01
Q9BX67	45.39
Q9BX68	138.94
Q5TCY1	5.57
Q9BV81	44.09
Q7L2J0	17.82
P23786	7.18
A2A3N6	41.81
Q9H5N1	8.34
Q7Z3K3	27.29
O60493	183.57
P30711	9.69
Q8N5K1	294.8
Q9UJF2	2.06
Q15233	508.06
O00186	31.28
Q06136	36.61
Q13685	39.67
Q13683	2.05
Q12888	127.77
P14927	352.46
Q07889	10.43
Q07666	258.2
P14923	74.54
Q9NRY2	23.19
Q96QV6	5174.39
Q9NRY6	33.49
Q9NRY5	33.43
Q9NRY4	83.9
Q5JTZ9	29.62
Q2VWA4	5.08
O00459	13.0
O95197	124.69
O95196	44.14
Q9UL46	183.7
Q9P2B2	61.83
Q9P2B4	15.11
Q9UL41	5.06
Q9UL40	24.13
Q9BRS2	4.04
Q969Z0	11.24
Q969Z3	6.97
P02649	87.94
P02647	705.85
P01591	14.64
Q12769	17.98
Q9UKK9	174.24
P53999	276.07
P53990	99.97
O95996	4.34
P53992	62.69
P78371	608.33
Q86T65	4.29
Q9Y259	29.26
Q69YW2	70.62
Q99832	508.75
Q99836	7.97
Q01546	8.05
Q9H7X3	6.53
Q14331	45.41
Q9H7X7	12.72
Q86VH3	8.57
P16870	19.94
Q6KC79	0.84
Q9BTE1	39.49
Q9BTE3	3.63
P21554	10.02
Q9BTE6	69.9
Q8N490	6.18
P22090	62.96
Q8N3F0	17.75
O43237	190.99
Q9Y6C9	437.18
Q9UEU0	29.78
P35527	140.87
P35520	52.47
Q5VU97	5.59
Q8N4L2	9.43
O95071	0.86
Q6PCT2	3.5
P23416	5.09
O75355	4.48
O75354	9.95
O75352	99.46
O75351	53.74
Q8IVH2	3.61
Q8IVH4	28.46
Q86X83	93.18
P82930	10.33
P82932	18.62
P82933	17.34
Q96F45	4.24
P67809	582.62
Q8NDF8	4.19
Q13371	7.73
Q8IXT5	65.05
P14735	6.74
P17275	7.38
Q9ULW0	3.09
P61158	514.54
Q9H9Q2	80.5
Q8IWJ2	10.82
Q9HCE6	5.66
Q9HCE7	6.15
Q9HCE1	2.33
P48066	18.76
Q9HCE3	5.61
Q9HCE9	5.84
O15511	292.21
Q2KJY2	1.18
Q96NY7	3.63
Q96EK6	38.31
Q96EK7	5.11
Q96EK5	33.2
Q96K17	291.46
P50502	192.3
Q96NY8	4.78
Q13769	16.87
Q13765	351.22
Q53H12	89.93
P51452	232.88
P16278	6.97
Q9BUJ2	99.62
P62266	301.67
P37268	77.09
P62263	634.95
P62269	867.22
P31146	145.38
Q7L311	8.07
P48454	4.56
P10720	91.73
P10721	31.35
Q9Y2G0	20.05
Q8TDJ6	35.1
Q9Y2G5	15.9
Q08945	104.57
Q9H165	43.58
P07195	1764.41
P07197	879.05
P07196	611.55
P09132	49.2
Q9Y394	48.42
Q5T5C0	12.46
Q08495	52.39
Q08499	2.91
Q9Y399	23.9
P37840	934.42
Q4ZG55	1.22
P52907	539.16
Q8NFT8	6.75
P04181	87.34
Q9NXX6	5.98
Q9BXS5	212.66
Q86UU1	7.01
Q9BXS9	3.19
Q53LP3	19.04
Q24JP5	28.87
Q9Y3E1	456.79
Q9Y3E0	34.35
Q3MII6	3.47
Q5VT52	11.89
O75506	62.02
Q8IX12	31.91
Q8IX18	8.97
Q00005	5.12
Q9Y6K1	5.2
Q9BZI7	4.59
P08263	20.67
A2RRP1	13.81
Q96AG3	17.21
Q6NTF9	13.52
O95389	6.74
Q13162	173.5
Q9H9L4	4.81
Q13164	20.98
Q6VY07	126.28
Q3ZCW2	251.18
Q8N556	19.69
P61981	2686.52
Q9UIV1	89.0
Q6JBY9	5.95
Q6P4F7	2.33
O94830	6.54
Q8IW45	137.63
Q02543	548.71
Q6IBS0	133.98
P12814	161.96
Q04724	3.18
Q04726	9.53
Q9H1Y0	8.17
Q8NDH6	4.87
P21810	6.36
P33176	195.65
Q9NY47	128.57
Q9NY46	2.34
P58335	4.94
Q96MC5	11.16
P07203	251.89
Q96PM5	26.4
P38919	231.75
Q71UM5	195.69
Q14677	38.81
Q14676	2.34
O94766	42.82
O94763	13.28
O94762	2.43
O94760	834.26
Q12789	2.22
Q12788	2.98
Q2NL82	5.77
Q96B54	181.1
P04406	6415.26
Q9UPV9	2.5
Q05329	4.05
Q9UPV7	93.8
P30153	555.76
Q9NXE4	5.68
O60925	111.87
Q4ZIN3	3.9
Q5ST30	2.24
Q15784	38.43
Q15785	23.0
P13716	58.4
Q7L2H7	99.73
Q9UQN3	11.08
Q7Z2Z2	16.9
Q52LD8	14.21
Q53GS9	64.84
P80303	52.78
Q9NZW5	60.69
Q5T6F2	2.26
Q07065	284.91
Q53GS7	3.32
P37108	654.61
Q8N5M9	37.62
P17026	40.89
Q8N5M1	8.08
P17029	4.16
P50991	544.29
P50990	862.07
P50993	148.67
Q15257	97.72
Q5GLZ8	11.17
Q9H0N0	56.06
Q53HC5	7.78
P05114	472.26
O76071	7.0
O76070	1033.43
O76074	2.65
Q96I25	35.35
Q9P2D3	5.91
O00303	112.85
Q9P2D6	1.56
Q15334	96.41
Q9P2D8	0.9
Q969X6	3.45
Q13951	36.95
Q6ZT12	2.49
O95178	21.97
Q9UL25	195.86
Q9UL26	218.2
Q9BRQ6	100.13
P56693	5.31
P32418	29.29
Q2V2M9	1.67
A6NDB9	25.87
P52597	348.05
P57076	7.97
P52594	31.83
Q96EV2	2.04
O15372	86.26
O15371	49.7
A1X283	28.69
P60033	143.71
P43378	23.37
P78310	681.7
Q7KZF4	171.43
P78314	4.26
Q9Y276	27.87
Q9Y277	941.91
P78318	67.55
Q8N9I9	27.9
Q14847	410.1
P22307	58.38
Q8N9I0	22.61
Q5SQI0	599.94
P00403	497.44
Q14318	47.56
Q13523	15.85
Q14315	100.14
P21579	311.87
O43815	36.91
P08670	4582.51
O43813	117.01
O43819	17.77
O95199	13.18
Q9Y383	96.83
Q8N3D4	1.64
O43747	89.91
O43741	26.23
Q9NVA2	343.25
Q92796	41.07
Q92797	15.02
Q92793	4.99
P04792	593.06
Q7KZI7	36.16
Q8WVR3	12.7
Q9Y3B7	128.09
Q9Y3B4	108.99
Q9Y3B3	52.63
Q8NEB9	13.04
Q99816	66.32
P42356	14.89
Q9UGU0	1.25
Q96JF0	4.4
Q9H061	123.07
P46527	72.02
Q6UWE0	31.69
P23434	56.12
P23435	12.56
O75334	51.77
Q9BQT9	19.98
Q5JPH6	4.51
Q02952	341.75
Q96DM3	14.13
Q99766	42.62
Q99767	9.63
Q13310	74.86
Q8N612	5.02
P04899	877.64
P06493	77.71
Q9ULU8	150.86
P17252	41.42
Q6P461	4.94
Q9H9S3	5.07
Q9H9S4	40.67
Q9H9S5	4.86
Q8IZD9	14.78
Q9BZ71	34.74
Q9BZ72	7.12
Q8NC44	9.16
Q9HCK4	78.85
Q9HCK5	5.46
P55008	15.86
Q8WXI2	2.25
Q8WXI7	0.11
Q8WXI4	3.87
P55001	12.72
Q9UN36	155.85
Q9UN37	54.18
Q96K37	17.75
Q9BUH6	61.21
P22681	15.95
Q08828	12.88
Q16204	59.66
P62241	361.2
P62244	428.47
P12018	15.96
P62249	966.63
Q9H1B7	32.05
Q7Z553	7.4
Q8WWM7	23.37
Q8WWM9	37.13
Q9UP95	2.2
Q96GW7	171.07
Q0VF49	4.07
Q9Y2A7	170.74
Q9BVV7	18.79
P09110	59.82
Q9NVD7	18.81
Q9BYG3	7.74
Q8NBU5	91.03
O14561	15.21
O14562	55.56
Q9NNW5	2.18
Q9NNW7	14.07
Q86UW6	1.33
Q9H8T0	47.98
Q9ULA0	25.27
Q10567	291.17
O15355	44.7
Q96KP4	355.73
Q08211	567.62
O75528	5.42
O75529	4.0
Q9Y512	66.26
O75525	34.14
O75832	151.84
O75521	48.63
Q9Y6M9	303.39
Q9Y250	7.95
P08240	11.39
Q6V0I7	5.37
Q8TAT6	42.78
P08243	12.35
Q9Y6M7	1.95
Q8TAT2	38.41
P08247	422.71
P15336	14.57
Q6ZTA4	25.29
O95819	110.0
Q96AE4	231.37
Q9H479	188.32
Q13148	254.63
Q13144	26.37
O75781	226.68
Q8NFI3	3.15
Q9H477	7.76
O75787	81.5
P52788	70.62
P52789	2.59
Q8TF27	4.38
Q8TF21	2.13
Q13255	5000.0
Q9P291	5.39
Q8N573	32.45
P62888	580.27
Q9UIH9	6.02
P43121	33.3
Q58FF7	65.92
Q8TAQ2	93.71
P78559	159.58
P08294	10.25
P42658	141.17
O94856	135.98
P05771	51.7
P26358	7.23
Q6XR72	5.03
P07954	198.81
P12955	63.14
P07951	129.04
O43559	14.59
Q14699	41.96
Q14694	66.89
Q14697	451.17
Q14696	81.28
Q14690	6.35
Q16695	1315.46
Q7KYR7	4.44
O14818	418.02
O14810	17.63
Q16698	220.36
Q9NTG7	6.08
Q9UPT6	32.34
Q9UPT5	82.61
Q96B36	9.68
Q9UPT9	4.42
Q9UPT8	17.0
P04424	10.26
Q3MHD2	61.04
O60306	12.37
Q9NQR4	268.33
Q9NXG2	53.91
Q27J81	11.72
Q9UBP0	19.71
P13533	62.76
P06576	1527.04
O75976	15.59
P60900	386.78
P60903	47.3
P63302	84.12
P11021	952.31
Q9NSC5	26.6
Q15274	8.59
Q15276	98.73
Q13114	8.22
O00148	312.77
Q7Z494	1.76
Q5VYK3	28.53
O43236	9.62
Q9BS91	16.39
A7E2F4	3.78
Q8IUE6	18.93
Q9BPU6	1712.44
P51553	55.72
P51003	3.2
P52209	613.23
O00499	155.61
O95155	7.25
Q9BQI7	34.42
Q9P2F8	1.39
Q9P2F9	8.08
Q9P2F5	2.58
Q15311	3.48
P55273	29.94
O95159	15.53
Q9H6Z4	44.0
Q9NP72	818.67
Q9NZU5	6.49
Q9NP77	46.95
Q9NP79	242.42
P18887	41.95
Q9UKG1	43.23
Q9HBF4	6.08
O15394	216.4
O15397	11.04
P07766	11.45
Q12846	62.01
P78332	4.12
P78330	63.56
Q9Y217	3.68
Q12840	76.74
P18085	167.92
P09651	2058.12
Q7Z5P9	0.44
Q6PFW1	1.66
P68104	4258.76
O00571	198.95
O43837	62.8
P08651	14.28
Q4ZHG4	1.29
Q14194	4051.75
Q05193	318.22
P60484	33.7
O60684	22.07
M0QXB9	81.54
Q8TB96	35.01
Q96RT7	1.32
O75312	26.01
Q5VW32	74.11
O75317	12.36
Q5VW36	5.3
Q5VW38	7.91
Q8IVL5	3.27
P23458	1.99
Q8IVL0	2.07
Q8TCS8	18.49
Q13085	49.88
O43765	388.89
Q02978	653.36
O43761	107.9
Q2M2I8	45.91
O43768	79.15
Q14738	87.06
Q14739	56.21
Q13332	34.18
Q13330	88.55
Q9Y5V3	24.6
Q99747	198.25
Q5SGD2	6.45
O43491	72.95
Q6IN85	27.78
Q86Y56	2.83
Q8IWF2	3.41
P45954	55.79
Q9HCI5	2.57
Q16595	22.9
A6NK06	5.03
Q712K3	29.26
Q7Z794	21.4
Q8WXG6	24.57
Q02108	6.84
Q9BUN8	55.19
Q6DKJ4	60.22
Q96KN1	15.37
Q16773	5.53
Q16774	121.94
Q16775	141.07
Q16777	170.46
P12036	2.36
P10768	530.5
Q8TDN6	6.4
P50542	26.17
P55060	247.14
Q96K58	3.9
Q9BVT8	10.09
Q9H2C0	7.83
Q9BYE2	12.68
P37802	366.8
Q9NVJ2	196.8
O14548	84.01
P52948	20.11
P52943	412.25
Q96GQ7	8.85
Q96GQ5	15.58
P49815	21.13
Q9NQ03	8.13
P14867	5.11
P14866	537.04
P20742	1.62
P14868	245.76
Q93096	147.08
P05090	12.45
P05091	234.95
P13073	608.99
P09466	256.92
Q4G0G2	24.07
Q9UJ14	37.6
P24539	394.07
Q15102	1080.99
P17516	14.29
O95831	102.96
O95834	3.75
P54819	80.05
Q8TF05	12.38
Q8TF01	2.86
Q9NRN7	155.51
C9JLW8	121.31
Q9H2U1	25.39
Q96Q05	14.43
Q96Q04	12.07
Q92922	38.81
Q9UIJ5	6.3
Q5U5Q3	3.82
Q9UIJ7	176.18
P24534	759.59
Q9UK76	430.12
Q9H3K6	183.31
Q92859	72.85
Q9NWB6	7.98
P45379	22.12
P42898	10.65
P42677	224.02
P98172	48.8
P98174	9.94
Q8N0W4	11.53
Q04760	459.03
P26378	63.43
P26374	21.46
P26373	185.64
P00747	17.55
Q9H902	285.71
Q7Z5M5	6.32
P12931	119.55
Q8N335	124.13
P46976	47.09
P46977	32.9
Q9UNP9	23.77
Q71UI9	2765.27
O94875	19.21
O94874	23.66
Q9BYX7	365.72
Q9NYS0	12.24
Q96B18	12.24
Q9UPZ6	37.16
P50225	23.26
P25440	3.01
P63096	439.8
Q8NEY1	45.8
Q9P121	460.5
Q8NEY8	5.02
P63098	741.27
Q9UBR2	7.82
P30443	6.49
P84157	98.74
Q06265	5.41
P54105	40.43
Q9BQM9	15.39
P25054	13.6
O00165	16.76
P61254	122.81
Q15291	26.87
P59768	1349.99
Q13625	2.11
Q13627	12.38
Q13620	56.05
Q9BPW8	365.87
Q8IUC8	4.14
P51570	87.74
P51571	167.34
P51572	47.32
P52888	43.69
Q9P2X3	14.53
Q9P2X0	52.49
P05155	24.02
O95139	68.42
P48539	312.1
Q9H6T3	14.0
Q07020	722.53
Q07021	321.01
Q9NSE4	37.25
Q9NP97	363.86
Q9NP90	11.66
Q9NP92	5.26
Q96QF0	9.99
Q9UKE5	34.2
Q32P41	9.1
Q96SU4	28.66
Q6ZU35	67.8
A5A3E0	63.26
Q96ER3	9.89
Q9Y237	76.74
Q9Y230	295.2
Q9Y231	12.59
Q9Y233	8.99
Q9HBH5	28.75
P10515	49.92
Q8IZ81	37.89
Q8IZ83	21.79
P07741	243.21
Q12860	911.8
P02511	131.42
Q9HCE5	10.16
P25940	1.54
Q86VN1	12.09
Q8NC67	4.46
P00918	99.65
P48067	10.16
P00915	293.66
P14678	301.43
O43852	142.8
O43854	4.93
P53680	140.11
P49069	64.32
P35237	68.38
O75487	76.41
O75486	5.97
P35232	737.81
O75489	359.18
P14324	153.67
O60664	146.33
Q3KQV9	4.65
O60663	5.9
P17980	274.61
P17987	702.47
Q96JB2	5.63
Q8IYB5	78.87
Q8IYB7	42.7
P23470	8.18
P23471	174.83
Q8IYB3	38.83
Q01082	1169.31
O75663	328.6
Q8IYB8	21.08
P27544	13.4
Q8IVB4	3.65
Q8IVB5	14.49
P14061	37.9
Q96B45	22.91
Q15843	379.65
Q15847	33.73
O43707	475.02
Q96DI7	121.31
P54277	2.5
P42285	22.49
Q9NPA0	70.06
Q2PZI1	3.43
P68871	16262.49
Q8IXZ3	5.44
Q9NPA8	68.94
P23515	21.36
Q9Y5X1	3.98
Q99729	314.49
Q99720	21.09
Q96K19	17.77
Q6H8Q1	27.35
Q68D91	202.68
Q7Z7L7	6.01
Q02338	34.72
Q9NZ43	27.06
Q9NZ45	369.2
Q16576	44.32
P26639	101.61
Q5VSL9	44.35
Q9BUL8	75.08
Q6B0K9	50.89
O14994	62.78
Q16718	610.23
Q9BW27	21.19
Q06520	23.53
Q03001	20.93
P10746	27.76
Q9Y5U8	21.46
O14662	21.46
P41732	19.22
Q7L1Q6	33.09
Q96MZ0	176.74
Q96K76	48.84
Q99598	96.01
Q9NQ34	11.76
Q8NBQ5	32.18
P56537	79.68
Q9NQ39	171.18
O14523	17.39
O14522	3.27
O14525	7.31
O14529	3.28
Q9NVH1	37.68
Q9NVH2	4.96
Q9NVH6	16.05
Q9BYC5	3.98
Q8WWI5	21.69
Q96GS4	21.35
Q86XE0	5.71
Q9BXY0	14.98
Q86XE3	4.36
Q9UBI6	132.37
A6NHQ2	175.73
Q9UBI1	95.68
Q9UBI9	13.51
O00757	7.21
O00754	2.33
P39687	611.71
Q6I9Y2	22.32
P08758	1039.49
Q9Y6A9	14.48
P08754	1143.88
Q9Y6A2	9.33
P23284	1383.65
P52434	170.0
P52435	39.86
Q3B7T1	5.74
Q96AY3	8.25
Q96AY4	1.96
O95857	23.93
Q8NBN3	12.53
Q15124	17.03
Q15125	20.11
Q15126	373.4
O15211	3.17
Q86W42	28.23
P24390	10.8
Q5EBL8	82.12
O15217	133.99
Q5EBL4	5.62
Q9H0W9	52.81
Q9H0W8	13.79
P43250	8.03
Q9Y3E7	31.7
Q8TF66	8.23
Q8TF68	4.19
Q9NRL3	59.17
Q9UK53	5.67
Q3ZCQ8	120.29
Q9UK59	12.91
Q9UK58	4.44
Q76G19	15.37
Q9UIL1	44.05
Q08257	240.8
O75874	562.14
Q92878	18.94
Q92692	27.53
Q969G6	60.13
Q92696	52.93
Q92871	53.44
Q92870	3.18
Q8N0U8	186.99
Q5HYI8	10.03
Q8WZ42	0.76
Q9Y6B7	3.18
Q6ZUL3	10.71
P04075	1438.26
Q3YEC7	19.98
P07919	148.02
Q9UHB9	101.13
P41250	130.61
P41252	108.18
Q9UHB6	27.98
Q2VPB7	2.82
O96033	27.16
Q7Z2K6	7.93
Q7Z2K8	137.13
Q9H4L4	16.3
Q9H4L7	2.26
Q96RY7	3.21
Q9NYQ7	4.44
Q96G61	71.38
Q9UPX8	8.34
O75122	165.19
Q9BWQ8	15.09
Q6GYQ0	24.21
A6NHL2	47.78
P61018	134.79
P61019	1935.32
P11137	715.7
Q96D96	8.36
P61011	19.02
P49641	2.03
Q96BX8	10.4
Q9H223	4.33
Q06203	55.39
Q01844	69.64
P15104	44.09
P14543	19.43
Q8NG11	8.63
P12268	189.9
P61278	20.8
P13796	18.85
P40616	51.9
Q96L91	2.31
A4D1T9	10.02
Q96L93	3.49
Q96L92	73.52
P51513	106.88
A0FGR8	12.94
P12882	40.37
P50607	14.28
Q6NZY4	6.74
O15027	14.75
O15020	139.63
Q0VDF9	14.51
Q53GQ0	501.71
Q9H6V9	28.4
P38432	12.69
P05109	24.45
Q14896	15.06
Q14894	831.46
Q7Z4V5	114.08
Q9NZQ0	8.59
Q8N5C8	13.47
Q96QD9	51.78
Q96EP0	2.21
Q96ND0	17.22
Q96EP5	36.64
Q9P000	121.42
Q04206	26.4
P56181	44.37
P60059	34.23
Q14573	0.87
Q12802	2.58
Q12800	37.02
Q9BT78	194.68
P02538	26.47
Q5JTB6	25.7
Q8ND24	27.29
P02533	30.83
P04264	1464.31
Q7KZ85	30.61
P09619	4.27
Q9H7P9	5.37
Q9BTM9	46.56
Q9H7P6	52.06
Q8TDW4	4.09
O60502	82.38
Q8TDW7	14.67
O60506	582.38
Q96SW2	26.21
O95167	28.55
O95164	20.14
P49005	5.17
P49006	732.58
P53803	37.83
P53805	9.44
O60645	64.06
Q8NBL1	5.74
Q9Y3D2	13.56
Q9Y3D8	13.21
Q9Y3D9	109.52
O94915	0.78
P27707	26.04
P27708	58.88
Q8TEQ0	14.52
Q8TEQ6	23.57
P28702	4.65
Q8WUY3	0.78
Q8WUY1	99.91
Q9H000	5.64
Q9H553	16.88
Q7Z6L0	121.3
Q7Z6L1	22.47
Q8WUY8	24.47
Q9H008	54.5
Q9Y4B5	2.53
O75608	85.91
P08567	6.6
Q9Y4B6	3.14
Q13049	7.36
Q9BXF6	3.76
Q13045	36.61
Q9H8M5	5.48
Q9H8M1	9.79
Q13042	3.7
Q8N414	10.26
Q5T3F8	16.74
Q99707	5.66
Q99700	11.33
Q99250	20.92
Q9NPC6	8.86
Q99708	2.6
Q99259	3.96
Q7Z7J9	30.98
P54646	8.5
Q7Z7J7	19.62
Q8IWB9	6.34
Q02641	32.25
Q9HCM4	29.13
Q8IWB7	40.03
Q9HCM2	139.67
Q9HCM3	10.06
Q5SXM2	1.66
O43186	8.21
Q5SXM8	13.8
O43181	158.11
P31939	270.61
Q16555	9424.64
A1Z1Q3	31.76
P21397	93.22
P21399	83.47
P22626	4586.66
Q53H96	46.24
P12074	87.19
Q96FQ6	22.45
Q8NHZ8	54.2
Q9BY67	81.92
Q8NE01	3.48
Q96PX6	8.83
O14647	7.52
O14640	3.52
O14641	6.71
Q9NWV8	57.97
Q9NWV4	146.8
B9A064	275.7
P49585	6.35
Q9P0U4	3.5
P49588	188.51
P49589	102.29
Q96E39	119.45
Q8WXC6	341.25
P20339	335.94
Q9UNI6	14.06
Q8NBS9	44.5
P47755	546.77
Q8TBX8	33.61
Q15555	293.33
Q15554	9.54
Q96GM5	4.55
P83876	15.78
Q96GM1	14.37
P25398	438.06
Q96GM8	4.69
Q6P597	14.36
Q06547	6.24
Q86Y38	4.93
Q9UBK7	60.87
P20700	1097.12
Q6UXK5	3.28
Q04941	31.75
Q6UXK2	107.33
Q9H2G2	38.99
P09429	872.69
Q13813	1319.38
Q7Z3V4	8.61
P08779	62.01
B7ZAP0	45.62
Q15147	17.73
Q15149	111.1
Q5JRA6	19.84
O95870	37.7
P06396	234.95
P35914	15.42
Q9H0U6	25.75
O15270	8.42
Q9H0U4	143.4
Q9H0U3	6.97
Q8TF42	14.58
Q8TF44	41.6
Q9UK33	14.13
Q5R3F8	5.91
Q96Q42	10.1
Q01130	353.58
Q969E4	176.61
Q969E2	20.6
O75151	4.39
Q9Y570	125.22
P00568	795.97
Q92817	1.14
Q02818	122.93
O75155	3.92
Q9Y6K8	96.21
P11279	17.71
Q5HYK3	21.4
Q9H492	111.38
Q9H490	26.47
P78527	264.89
Q9NRJ3	18.55
Q9NRJ5	3.7
Q9H944	22.82
Q8N1I0	14.12
Q96PE3	36.14
Q96PE2	3.59
O96013	4.13
O96011	74.55
O96019	50.24
P46937	4.86
Q7L8J4	6.09
P46939	1.34
Q5T9A4	3.65
P17301	51.23
Q96G03	85.36
P17302	6.16
O60361	716.55
Q13257	22.54
O75140	1.46
O75146	66.57
Q9BWS9	64.85
Q9UBV8	69.76
Q96AG4	212.37
Q9UBV2	23.88
Q8WUD4	41.44
P13647	72.2
Q8WUD1	229.77
Q15700	51.6
Q9BQI5	14.87
P11047	29.83
Q9BQI0	46.57
P48163	20.65
O15479	7.51
Q5T8P6	11.66
Q8NFG4	8.22
P50914	327.89
Q96IG2	5.47
A6NEH6	10.53
Q5T619	8.5
P51531	33.61
P51532	45.91
P30405	60.1
Q8N954	8.77
Q96N16	18.09
Q96N11	5.29
P31751	14.25
O15040	1.72
O15042	42.55
O15047	1.42
Q06481	24.37
Q8NAV1	56.55
P16401	2170.65
P16403	1934.47
P16402	1043.15
Q9HC07	7.59
P12532	208.4
Q9UKA9	156.68
Q9UKA8	19.27
P18827	32.65
P15814	11.54
Q9HBL0	1.43
Q9HBL7	30.8
P51397	94.92
P51398	23.26
Q9HBL8	31.78
Q12824	42.01
Q9H7N4	5.71
Q9UBF8	5.8
P35052	249.13
Q6Y7W6	8.83
Q8TDY2	5.79
Q96SY0	4.61
Q9P0N9	85.79
O75443	1.11
P35580	605.08
P49023	4.11
O75448	2.4
Q8NBN7	88.48
Q9NVS9	70.68
Q15084	396.41
Q9Y2I8	87.24
Q9H7D7	7.35
Q14289	4.57
Q05682	59.68
Q8IVF2	3.01
Q8TE82	3.61
Q8N474	112.31
P53396	291.6
Q8WVJ2	119.91
O94910	42.33
Q13394	25.88
P0DJ93	179.17
Q96JN8	1.59
Q6PCB6	7.39
Q6PCB7	14.9
Q6PCB5	2.79
Q96JN2	1.98
Q8IZL8	50.91
Q9HCS7	18.54
Q9P242	15.02
Q86Y39	124.87
P36776	84.59
Q9NZ08	27.18
Q9NZ01	95.58
Q16531	127.28
Q16537	72.65
Q6NUK1	29.79
P39748	49.76
Q9BUP0	78.71
O43301	151.94
O43300	4.48
O43303	4.67
Q16288	5.61
Q8TD22	35.68
Q96FW1	465.78
Q7Z7H5	40.85
Q7Z7H8	9.05
Q9Y2I2	4.38
Q9Y2I7	1.12
Q9BW62	14.35
Q9BW61	22.39
Q9BY44	40.77
Q9BY43	73.89
Q9BY42	39.09
Q96PZ0	7.06
Q6IAA8	298.6
Q96PZ7	0.68
Q9NZV7	4.33
Q9P0S3	15.25
Q96E17	91.88
Q9UNK0	29.54
Q8WXA9	13.39
Q17RB0	40.0
O75323	109.92
Q8WXA3	17.65
Q7Z739	33.19
