Q8TBF5	6.52
Q5MIZ7	1.93
P30613	133.66
Q5H9L4	3.57
Q8TBF8	13.29
Q5H9L2	136.99
P20930	0.43
P20933	5.05
P20936	30.66
Q8TBF2	53.1
P23919	189.25
Q9C0H2	9.79
Q4VXU2	2.75
Q00535	22.56
Q9NXR1	4.84
Q00537	3.15
Q07960	119.16
Q9NXR7	12.94
O00244	608.98
O00716	7.64
Q9UBM7	24.13
P40424	16.11
P40429	366.44
Q92913	6.81
Q13838	168.68
Q9H2I8	8.32
P08842	2.87
P03891	9.64
P48960	4.09
P03897	14.24
P02768	33308.94
P05386	179.43
P05387	1288.08
P02760	837.98
P05388	235.64
P02765	702.08
P02766	2045.23
Q9UJ70	236.18
Q15165	123.95
O15254	2.42
O15255	8.43
Q6ZTI6	39.78
O15258	114.53
P29401	589.37
P29400	3.5
P39023	215.89
Q2VWP7	4.43
Q96CS3	49.97
Q9P219	1.65
Q5W111	8.67
P62807	1053.49
P62805	22438.4
Q9P212	0.73
Q92837	6.46
Q9H845	81.95
Q9Y6E2	3.9
Q9Y6E0	41.9
Q5TZA2	4.93
P01236	79.84
Q92598	79.5
Q2NKQ1	1.45
P09001	14.58
P53708	7.99
P60520	68.71
Q9UKZ4	0.62
Q14568	95.42
Q14562	2.7
Q14566	111.21
Q8NFQ8	7.33
Q6P1A2	23.46
Q9UHF1	19.02
Q9H115	5.6
P41219	469.1
Q9UHF7	1.33
Q86VY4	20.8
Q92526	71.46
Q92520	281.58
Q92523	2.14
Q92522	643.13
Q02878	556.66
P27449	71.61
P27448	15.56
O75165	46.51
O75167	2.69
Q96G23	33.48
P06865	86.63
Q96G25	12.92
Q9BWU0	2.11
Q13232	158.04
P04118	424.22
Q13237	15.04
P19075	129.81
P08123	482.2
Q00534	35.59
P10915	14.03
Q6UW02	46.57
Q76NI1	0.98
P23743	2.27
O95528	6.6
Q8WUF8	7.83
Q8WUF5	10.54
Q02297	2.67
O00712	19.79
P48147	193.17
Q99519	285.03
O15417	1.19
Q9BQG0	49.21
Q4VC31	203.41
Q96RU3	2.63
Q96RU2	3.07
Q9NYU1	7.52
Q9NYU2	135.68
P55145	154.25
P50395	830.41
Q13643	24.09
Q13642	445.42
Q13641	4.08
Q9Y5A9	36.16
P40306	58.42
Q6XQN6	179.41
P62380	17.98
Q6ZRV2	1.48
Q96KM6	1.93
Q96CN7	250.53
Q03188	1.76
Q5RKV6	59.87
Q9H6R4	1.47
P10644	78.65
P48556	118.54
P45877	49.51
O15067	50.61
O15066	2.21
P60891	231.85
Q9H6R3	5.02
P07093	25.61
P16422	360.24
Q9NZM1	122.43
E9PI22	18.15
Q8N5G0	40.82
Q9Y296	46.3
Q9Y294	16.35
Q9Y295	115.82
Q6IA17	16.45
Q5FYB1	14.67
P49790	2.44
P49792	9.44
P51116	10.12
P51114	24.24
Q9H7L9	9.85
Q587I9	17.24
O60814	13.52
O60547	174.61
O60812	315.54
Q6NUQ1	2.07
Q9Y2T3	213.58
Q9Y2T2	36.01
O60548	3.85
Q9BZ67	3.67
Q9P0L0	518.48
P31483	4.37
Q9P0L2	6.33
Q92665	16.58
P49788	16.93
Q08174	1.64
P35251	1.46
P35250	23.98
Q08170	159.06
O75427	2.56
Q8IY17	10.02
Q92733	3.58
Q92734	220.46
Q9H773	130.7
Q92736	1.33
Q00765	192.25
Q5T2D2	5.35
Q5T5P2	13.16
Q5BKT4	3.38
O00506	7.81
O00505	22.74
O00501	8.11
P01009	4026.66
P01008	274.93
Q01581	16.39
P02763	511.24
Q9BXB4	4.49
Q9BXB5	4.47
O75391	14.43
O75390	217.92
O75396	473.5
Q8IVD9	9.2
Q9Y4F1	64.91
Q8TE67	109.55
Q9Y4F4	0.99
Q96P09	6.93
P46013	1.05
Q8WVD3	6.66
P46019	4.07
Q9NPG3	1.55
Q9BSD7	136.01
O94979	187.8
O94973	196.92
Q5T3J3	2.22
Q8WXH0	6.6
Q8TC07	14.18
Q9NXE4	10.06
P28838	374.53
Q9UGC7	4.31
Q04609	113.58
Q9UI09	340.21
Q8N4X5	4.11
A2RUS2	2.76
P22760	57.49
P19440	159.04
Q2VIR3	102.66
Q16512	10.84
Q16513	3.35
Q14004	1.14
Q14005	2.65
Q9H3P7	43.4
Q5VVM6	2.06
Q8WY22	67.47
Q8NCW5	130.45
Q6Y288	9.96
Q9HA77	27.17
Q9UFC0	2.65
O14936	126.85
O43324	199.09
O14933	21.14
P49407	79.81
P49406	28.0
Q9NWR8	4.81
Q9Y2K2	2.68
Q9UHY1	34.52
Q96MT3	3.98
Q9UHY7	162.29
O14681	14.46
O14682	2.84
O14683	62.45
O14684	10.98
Q96MT8	2.31
Q9UNE7	16.17
Q00975	0.72
Q86SZ2	31.33
Q6P6B1	4.7
Q7Z2T5	2.3
Q9BYM8	6.52
P50895	103.1
P50897	87.89
Q63HM9	5.17
O75436	201.74
Q99811	6.94
Q13586	9.7
Q8WWC4	46.17
O95759	1.44
O95758	15.73
Q6UY14	1.61
Q9BWH2	45.42
Q6YP21	7.31
O75439	38.0
Q10589	28.5
Q10588	68.35
Q9C0J1	4.44
Q68DK2	0.66
P01920	18.79
O00268	1.71
O00267	12.42
O00264	528.68
P08865	686.01
P33947	76.91
P08861	57.76
Q9H2K8	8.91
Q9NQ50	15.34
P56556	115.61
O95340	105.39
O95347	13.85
Q9UJ98	21.61
Q8IWV8	0.94
Q9H0Q0	50.34
P60174	2665.6
Q14406	7.4
Q12981	21.56
Q8WVX9	6.33
Q12986	1.51
P29466	33.27
Q9Y606	3.96
Q93100	15.04
P28482	263.19
Q9Y6V0	0.34
Q53GS7	2.35
Q7RTU0	10.72
P28331	243.43
P62829	480.13
Q96CU9	3.49
P62820	853.04
Q5XPI4	1.26
P62826	738.26
P18615	13.03
P51858	771.24
Q9BZE9	21.85
P02747	153.03
Q9Y6G9	122.82
O43916	4.02
Q9Y6G5	16.36
P02749	186.36
P02748	26.76
Q9BZE4	30.47
P01210	24.4
O95967	41.82
Q9UKX7	7.49
P01215	14.36
Q96QS3	3.23
Q6PHW0	5.63
P43490	142.08
Q8TAL6	15.48
Q9NRV9	427.33
Q9UHD9	11.44
Q9UHD8	554.26
Q9UHD2	15.72
Q9UHD1	40.08
Q7Z5G4	23.74
Q92506	139.26
Q92504	52.47
P08195	196.12
Q969P0	5.78
P17483	6.8
P17480	79.83
Q96HC4	99.86
Q13217	71.76
Q99685	5.65
P11229	3.65
P14618	2178.47
P63010	185.03
Q09161	59.31
Q8N159	6.46
Q99436	219.38
Q6UW63	6.47
Q96BR5	7.31
Q6UW68	177.2
Q15746	257.6
Q15742	13.27
Q86X76	141.27
P23760	3.55
Q9BQE9	8.46
Q9NYK5	4.85
Q99538	250.88
Q99536	291.23
Q9BQE3	301.14
Q9BQE4	17.75
Q9BQE5	25.32
Q8NB25	1.41
P41091	44.1
Q96RS6	19.69
Q9NS69	229.9
Q9NX14	162.69
Q16891	406.26
P13489	229.26
Q14839	59.45
Q9HD33	25.51
Q8NI51	17.36
O14745	744.16
O14744	59.43
Q9P2D3	4.19
P16444	61.68
P22413	1.79
Q9P2D1	0.56
Q96L73	0.63
P50402	213.77
P55160	5.86
Q9P2D6	1.11
Q96IK5	3.2
Q9P2D7	0.38
P10599	1040.15
Q86TG7	2.34
Q96PE7	10.02
Q5JTH9	22.22
P55290	26.39
Q96C01	72.05
Q96C03	3.81
Q9P2P6	0.36
Q9P2P1	0.9
Q86VF2	2.73
Q3T906	1.31
Q6P5R6	12.86
O60830	10.28
O60831	78.02
O60832	84.67
Q00169	153.53
Q9Y2V2	118.18
Q04844	3.43
Q9P0J0	393.68
Q96NN9	2.81
P29144	93.67
Q8NBJ7	149.84
Q8NBJ5	76.03
Q8NBJ4	8.29
O75400	56.96
P01024	282.01
P01023	217.39
P17677	605.79
P17900	153.23
Q9Y4D1	1.52
Q8TCE6	23.18
Q13021	10.83
P18283	8.56
Q92974	35.36
Q92973	110.1
Q9H2P0	21.28
Q92979	35.15
Q02447	2.29
Q99943	47.37
Q9NPI6	5.93
Q5RI15	56.52
Q9Y3C6	308.96
Q66LE6	3.61
Q96JJ3	22.73
Q96JJ7	7.24
Q9UI26	10.01
P04179	326.68
Q7Z6J4	2.51
Q05397	26.78
Q14247	222.63
Q14244	8.94
Q5VTQ0	9.76
Q14240	178.1
Q14241	2.09
Q8IWX8	21.73
P24928	22.49
P07858	913.72
P52594	45.13
Q86YB7	48.27
Q14061	27.16
Q07283	2.96
P16298	6.36
Q68E01	20.68
O00168	53.97
Q96BI1	4.19
Q9GZR7	1.95
Q16795	238.58
O14910	72.25
P15085	549.83
P15086	27.76
Q16799	15.72
P62280	774.47
P25786	775.27
P25787	326.34
P25788	455.79
P25789	547.84
O60220	85.39
O60229	1.66
Q8IZH2	0.97
Q75T13	1.78
Q96MR6	2.59
P67936	1356.52
P11413	85.58
Q9BUT1	780.12
P63220	907.04
P11142	1033.16
Q86SX3	3.46
Q86SX6	90.36
Q5TB30	2.02
Q16134	60.33
Q8TBB1	2.33
P80404	56.57
Q15532	8.18
Q96GK7	54.29
Q7Z591	1.21
O95777	252.76
P25440	2.13
Q13564	74.82
Q8WWA0	247.12
Q13561	267.52
Q9BWJ5	203.85
Q8NE62	48.85
P78316	3.85
O00203	55.73
P01903	98.48
Q9H2M3	4.65
Q9H2M9	40.94
Q96G28	4.76
Q15800	5.33
Q96AQ6	16.3
O95363	3.59
Q6ZVN8	4.17
Q9Y625	56.88
Q9Y624	132.58
Q9Y620	1.82
Q9BV79	18.57
P24311	20.5
Q16625	9.53
Q9C040	18.43
Q00577	123.74
Q12965	8.87
Q9BRD0	5.33
Q9NXV6	30.73
Q12962	25.95
Q9UID3	17.46
Q9P253	23.86
P62841	562.13
P62847	755.02
Q9P258	294.7
Q9Y6Y1	1.02
Q70IA6	6.98
P00505	276.68
Q9UKV8	56.03
Q9GZM7	28.68
Q9UKV3	53.18
P01275	278.46
P35606	317.04
P46199	2.31
P35609	1.81
P42566	11.42
O76083	24.68
Q8NFU3	59.96
Q6P1M0	15.64
Q6P1M3	11.59
Q5QGS0	1.12
P39060	42.16
Q9NPY3	21.92
O60884	20.53
Q92569	3.45
Q05707	889.04
P52566	253.28
P52564	40.08
Q9HAT2	25.77
P42694	0.86
O60641	10.15
P57088	114.12
Q495W5	3.36
Q8WU76	2.5
Q96HE7	117.4
Q9Y3S1	0.77
P08311	19.54
Q8TDQ7	120.84
Q8TED1	78.65
A5PLN7	2.27
O43598	294.88
P07996	50.81
P07998	383.22
O43592	25.62
P40121	146.36
O95563	78.92
P40123	56.89
O95568	4.46
Q96BP3	25.53
Q86X53	3.83
Q86X55	51.34
Q71F23	7.9
Q52LJ0	50.5
Q9NYI0	1.62
Q96RQ3	32.68
Q8N3U4	11.96
P29350	25.02
P40879	2.22
P40692	2.22
P33778	15012.01
P21964	512.74
Q13177	213.57
P07339	733.53
Q8N3D4	9.28
P61764	58.37
P61769	671.02
P69891	16396.29
P69892	7011.45
P10606	973.65
Q9NZI8	142.02
P62072	163.59
P62070	96.32
Q96L14	5.75
Q9UJV9	8.07
Q9HBR0	3.14
Q9BQG2	7.21
Q8NCN5	39.69
Q5JTJ3	133.05
Q9ULD8	3.21
Q96TA1	95.99
Q96TA2	2.17
Q96C23	248.66
Q9ULD0	3.28
P51159	52.87
P51153	107.21
P51151	49.34
Q9BTU6	10.43
O60858	4.0
Q9UMX3	8.07
Q9UMX0	36.05
F5H626	2.51
Q9UMX5	59.76
Q8N8U2	3.32
Q13797	16.4
Q13796	3.19
P18846	25.7
Q9NVU0	2.35
P02462	45.61
Q6IQ55	1.37
Q9Y3L5	36.21
P78406	110.03
P23141	129.18
P23142	197.03
Q9Y3L3	64.5
P17655	176.09
P05204	2799.38
P14384	44.62
Q9UM54	188.21
O00548	2.41
P01042	148.78
Q15029	183.64
Q6PJ69	6.55
Q15025	5.23
Q15024	5.9
O00541	8.29
Q15021	4.78
Q15020	102.51
Q86V85	3.8
Q9BY32	140.12
Q86V81	244.48
Q96S90	7.51
O15173	260.22
Q86V88	18.68
Q149M9	2.15
Q9Y4J8	2.24
Q9BXN1	47.59
Q8TCG1	1.84
Q8N365	4.53
A8MY62	3.44
P62987	4170.06
P34741	42.38
Q9BVG4	180.2
P46059	14.3
Q92954	1.24
Q86U38	5.41
Q92959	2.68
Q99961	131.28
Q99962	32.9
P07203	467.68
P42224	90.32
P42226	5.99
Q9UI47	3.76
P22234	243.36
Q01459	42.92
Q8NDW8	1.24
P04155	20.53
P04156	13.58
P26927	4.68
Q96JH7	2.8
O75683	4.53
Q9H089	2.5
O75689	4.33
O75688	24.97
Q9H082	14.61
P27348	1312.37
P19404	171.42
Q6NUM9	11.24
Q68CQ1	1.29
Q8N6R0	2.38
O14972	17.07
Q9NUP9	51.61
O14976	23.61
O14974	68.43
O14975	21.37
Q9NUP1	8.04
O14979	287.16
A6NKQ9	9.18
Q9GZP9	47.69
Q9GZP8	103.41
P09848	20.62
Q9GZP4	124.29
Q9H9A6	24.77
O75027	20.45
Q8IZV5	4.93
Q05516	2.53
P49441	25.61
Q05519	49.11
Q86Y91	1.99
Q9HCU5	12.39
Q9HCU0	23.23
Q8IWZ8	2.59
Q08462	1.52
A6NIK2	11.48
Q13405	48.92
Q13404	398.52
Q13402	2.21
Q13409	155.08
P05787	2182.31
P05783	2227.65
P11168	52.27
P14406	179.9
P01861	125.42
P01860	50.04
Q96GE6	51.5
P50851	17.66
P25311	191.88
O95718	3.34
Q8NHR7	7.42
Q13541	44.79
Q13542	14.52
Q13546	9.89
Q13547	122.71
Q9NY93	3.05
O00221	3.55
Q96J01	29.07
Q96J02	7.31
Q9UBC2	11.96
Q9UBC5	198.29
P50148	142.62
Q9BYN0	13.17
Q96BM9	87.7
Q13895	18.93
P24557	3.1
P33908	25.74
Q8IY81	3.89
Q9NQ94	17.28
P18433	6.22
P33552	38.1
Q5VWZ2	149.88
P10412	515.39
O15061	108.71
P29317	1.73
Q12946	9.36
P35998	227.85
Q86XK7	4.49
Q9Y646	50.68
Q9BV57	69.89
Q86UE4	94.15
Q08722	16.0
Q9NXH9	2.6
P10643	26.11
Q5SZK8	5.88
Q9P270	9.01
P62861	254.27
Q92890	92.55
Q92896	124.23
Q969M3	6.71
P02787	1511.05
Q8TAF3	12.32
O60443	51.64
O60449	10.42
P02788	40.84
O14498	8.17
P07237	1239.71
O14493	8.51
O14495	26.74
O14494	5.84
O14497	9.31
Q6ZUB1	3.59
O95926	13.08
Q9UKT5	4.26
P07099	35.47
Q8NFW1	1.17
Q86TI2	5.73
Q8NFW8	116.47
Q9NRR3	20.36
Q9NRR5	5.88
P28370	16.85
Q92543	1.73
Q92542	40.72
Q92541	25.72
Q92547	1.1
Q92544	40.33
A1L390	1.4
Q9H4Z3	27.94
P20340	183.1
P05413	151.69
Q9HAV0	50.0
Q9HAV7	61.89
Q9HAV4	17.91
Q96SB4	7.58
Q96SB3	29.48
Q9H270	31.35
Q8TEB1	6.09
Q8TEB7	4.04
Q9Y3Q8	27.47
Q8NEU8	25.21
Q9Y3Q3	7.58
Q9Y3Q0	2.25
Q659C4	5.35
Q8N118	3.19
Q8N111	12.56
P26599	452.96
Q9H5X1	20.47
Q99571	25.98
Q9BQA9	90.41
Q99575	4.91
Q99574	4.05
Q9BQA1	25.57
P22061	480.3
P82650	40.95
Q5W0V3	8.68
Q9Y5G3	1.87
Q8NDI1	2.68
Q8IUW3	8.13
P36507	88.79
P81877	9.93
Q8IXI1	22.06
Q8IXI2	13.27
P19367	155.77
Q9ULU4	2.85
P05455	396.99
P07311	50.04
Q05DH4	1.61
Q9HC84	1.57
Q5TAQ9	2.81
P10620	277.47
Q9BRA2	242.5
P11766	690.3
Q5T6V5	105.87
Q96DX4	2.93
Q96DX5	5.9
P50443	2.3
P50440	11.63
Q9UJX3	2.81
Q9UJX2	5.46
Q9NR77	25.32
Q5BJH7	10.91
Q9NR71	10.98
P56470	1045.15
Q8IZD9	0.81
P84085	192.12
Q15477	17.72
Q9P2T1	84.3
Q96TC7	54.06
Q5VIR6	23.58
Q96KQ7	1.42
Q03167	4.02
Q03164	0.87
Q6ZRP7	2.42
Q9Y2R0	80.05
Q9Y2R5	51.8
Q9Y2R4	2.78
Q9Y2R9	46.73
P29762	193.05
O60879	16.45
P30049	257.73
P30048	793.51
Q9UPU7	5.13
Q8N8S7	87.54
P30041	1042.81
P30040	472.9
P30043	874.6
P30042	280.03
P30044	773.86
P30047	1084.54
P30046	147.75
Q96NR7	8.79
P55789	8.01
P55786	252.79
P13667	708.19
Q15007	16.98
Q15006	37.74
Q15005	232.87
O00567	216.11
O00560	46.31
Q15008	94.88
Q96S44	33.35
P51170	7.59
Q8NHM5	1.23
Q9BTW9	36.83
P51178	13.15
O15151	3.42
Q8TE02	5.39
P62753	641.76
Q8NBF6	5.22
Q9Y324	8.04
Q08117	25.65
Q8NBF2	47.28
Q5BKZ1	22.89
P21757	18.87
Q92930	127.42
Q14202	1.23
Q14203	165.69
Q14207	1.22
Q14204	357.36
Q5VTU8	97.03
P00338	1351.47
P47914	179.86
P68036	325.96
Q8WXI9	23.02
P68032	1193.45
P07814	183.86
O43169	264.5
P19174	17.7
Q6NUS8	28.58
Q9H0P0	14.85
Q8N6T3	33.64
Q6ZQQ6	1.13
Q6ZQQ2	4.28
Q9H3Z4	33.92
Q86YN1	6.95
O94992	13.87
O14950	9.5
Q6FI81	78.3
Q8IZT6	0.92
Q6NXS1	89.64
P36269	33.18
P27361	126.27
O60264	61.63
Q8IWT3	1.34
P61353	368.55
Q96MN2	3.31
P29475	15.17
Q15648	4.46
Q15646	3.17
Q15643	1.65
Q15642	21.98
Q8WYP5	4.46
Q13428	20.99
Q13427	10.6
Q7Z2Z1	1.78
Q13425	29.17
Q13423	186.34
O95487	4.1
O95486	32.94
Q53HC5	5.51
Q53HC9	8.61
P63267	26.91
Q7Z2Z2	5.99
Q96M96	2.17
O75420	1.64
Q63HK3	1.69
Q96GG9	56.11
Q13526	175.02
P48730	7.94
Q8NHP8	11.47
P48735	501.74
P48739	148.87
Q9NWX6	16.18
Q9NT62	57.61
Q7L2E3	12.62
P19827	37.05
Q14999	1.97
Q9BYW2	1.31
P19823	160.54
Q14993	1.63
P51784	1.71
P12104	1642.65
P12107	3.11
P12109	685.31
Q7L775	56.05
Q9UQ88	18.5
Q9UQ80	407.49
P12235	249.94
Q9BV38	3.96
P29373	35.9
Q12926	4.75
Q12929	34.75
Q9Y661	3.77
Q86XI2	1.43
Q9UBE0	210.04
Q9C000	1.13
Q9C002	58.59
Q9C005	534.24
P03905	14.56
Q969S2	5.1
Q9UPU5	1.91
Q6RW13	10.78
O60462	7.16
Q969G3	100.66
Q9H1K0	2.11
P0C842	13.86
Q9NRP0	22.32
P29590	36.58
Q9NRP2	19.85
Q309B1	4.66
Q09472	0.71
Q07837	42.87
Q9P2I0	31.84
P02750	59.03
P28356	5.15
P02751	640.78
Q8WW59	64.96
O75251	199.26
A9UHW6	7.39
P43652	48.95
Q8WW52	105.6
P02753	571.37
P08686	3.36
P08134	145.09
P08133	1180.78
Q8N755	8.32
Q8N752	14.42
Q9H4B7	85.84
P54725	9.48
Q9UKR5	23.68
P54252	4.5
P54253	2.16
Q9H299	413.86
P07355	2466.69
Q14432	9.02
Q14435	10.35
P05556	352.63
P14678	404.48
Q8NEW0	36.1
Q01085	27.1
Q01082	548.53
Q01081	175.2
Q75N03	3.45
Q8N9V7	0.98
P0CG38	3.1
Q14671	5.94
P0CG30	20.48
Q86X10	11.26
P59998	668.49
O15498	92.16
P19878	6.29
Q99598	73.74
Q02218	213.84
Q99594	19.29
Q8IV36	8.47
Q96HI0	4.33
P82675	23.47
P21926	125.63
P21291	1077.58
A7E2V4	6.66
P16615	180.03
O43447	146.67
Q9NX70	8.91
Q9NX76	9.2
P62308	66.32
P62304	139.07
P62306	328.32
Q9UEW8	18.95
Q8WUN7	7.17
Q9NSY1	2.91
Q9BRG1	171.99
Q8NC96	6.32
Q8NI37	11.51
Q8NI36	1.78
O14727	7.94
Q9UJZ1	185.22
Q6BCY4	17.91
Q96DZ5	28.38
R4GNH7	3.68
Q96DZ1	10.27
P55265	77.3
Q9NUI1	115.94
Q5BJF6	3.94
Q9NR56	17.97
Q5BJF2	27.03
Q9NR50	14.95
Q9P2E9	618.37
Q15459	179.61
P49711	34.03
Q5JYT7	1.44
O60895	19.16
P13645	581.08
P13646	3.79
Q04828	76.58
Q96ED9	2.26
P0DJJ0	3.51
Q07157	40.36
Q15061	10.03
Q15063	281.79
Q96S66	9.08
Q15067	63.09
P55854	16.14
P17612	277.63
O00584	44.6
Q9H7D7	5.21
Q9H7D0	4.36
Q8WWX9	11.57
O15131	3.11
Q9BTY2	52.11
Q7L014	56.01
Q9H2V7	6.63
P51991	1185.87
Q9Y303	30.05
P29120	4.46
Q9Y305	41.4
Q5T5X7	3.98
Q8IY95	12.15
Q9BVC6	164.82
Q8N4P3	36.96
P04114	178.86
P15927	224.76
P15924	172.66
Q01415	22.37
Q9UGK3	8.37
P53041	72.65
P00352	1235.87
P36543	395.1
Q5T1M5	18.27
Q9Y5K5	54.94
Q8WWY3	91.44
Q8TCC3	10.13
Q8IYL9	4.78
Q9BXJ8	23.12
Q9BXJ9	16.69
Q9BXJ4	41.75
Q9BXJ7	15.73
Q9BXJ0	14.85
O43149	5.11
O43148	17.12
O43639	13.13
O43638	10.6
O43143	237.53
Q6NUQ4	19.48
O43147	1.66
O43633	134.67
Q92667	3.86
Q32MZ4	23.15
Q96LR5	8.44
P53597	512.94
P62633	28.95
Q05086	44.77
Q8TAY7	6.54
Q86Z20	3.2
P42261	1.85
Q9GZT3	334.6
Q9GZT6	50.92
Q9GZT4	15.41
A6NLC5	6.76
Q9GZT9	28.57
Q9GZT8	49.23
Q9H330	16.75
Q8IWV7	2.81
O60245	3.24
O60244	5.85
Q9H9E3	8.43
O75063	4.05
O60248	7.44
O75064	2.29
Q13190	37.87
Q9HCY8	48.32
Q9NR31	369.47
Q9Y2Q3	655.6
Q9UHQ9	110.17
P26038	1046.82
Q9UHQ4	72.95
Q13449	40.18
P63241	1350.17
Q99797	4.66
P63244	851.36
Q13443	2.07
Q13442	318.64
Q13445	37.26
Q99439	195.08
Q96GA7	5.42
Q15596	1.18
Q15599	10.04
Q13509	953.37
Q4G176	20.5
Q13505	32.84
Q13506	3.45
Q13501	19.69
P12694	33.49
Q9NWZ5	3.07
Q96BI3	12.95
Q7Z3B4	23.72
Q695T7	92.44
Q7Z3B1	29.1
Q7L576	95.73
Q9UQE7	148.62
P48634	6.57
P48637	64.54
P29558	25.32
P19801	164.99
Q16626	9.44
P15311	733.27
P15313	23.13
Q16629	418.64
P34947	11.08
Q7Z422	22.1
Q9BS40	109.41
Q9BV19	25.76
Q9UL45	9.51
Q6S8J3	6.19
Q9NQP4	98.12
Q12907	196.09
Q12906	451.14
Q12905	335.84
Q12904	169.49
Q9UBG0	57.47
Q9UBG3	17.54
Q969Q0	60.25
P03923	30.26
Q5TBB1	5.35
O75521	81.88
Q7Z4G1	58.46
P27816	239.03
A2RTX5	2.03
P49902	37.58
P49903	39.39
P49908	4.35
Q8WYL5	1.63
Q86TM6	2.77
Q53EP0	5.65
Q07812	363.51
Q07817	7.21
Q5TFE4	10.87
P14209	99.65
Q14BN4	82.86
P05187	6.48
P14207	6.41
Q9P2K5	2.93
Q9P2K3	3.38
Q86VS8	18.08
Q53FT3	26.05
O75908	6.27
O75909	5.85
O75907	95.14
Q14008	41.65
Q495Y8	3.89
Q96QK1	182.27
P05452	91.67
Q1L5Z9	2.25
Q9H3P2	22.95
P06241	24.73
P54274	7.48
Q9Y3U8	291.22
P00167	281.79
Q8TB45	24.34
Q9Y4C2	7.36
P0CG12	14.62
P62750	859.75
P18031	22.55
P22392	206.3
Q96P16	15.77
O43822	6.63
P15559	24.34
P08648	49.19
Q8IV16	18.97
P02675	507.09
Q5RL73	4.49
O95816	79.01
O43280	5.64
Q14141	147.33
Q8WVY7	30.62
Q15878	0.72
P16118	6.87
O43464	15.38
P15121	240.97
P19320	18.49
P07359	2.72
P62328	1561.13
Q96JQ0	4.88
Q16819	231.38
P46821	117.28
Q16363	81.61
Q5VTL8	14.57
Q8WUH6	159.87
P04839	11.5
P58107	7.44
Q5U651	18.15
Q96A65	54.39
P36542	387.07
Q9Y5K6	42.06
Q8IXM3	12.21
Q8IXM2	199.36
Q8IXM6	19.18
Q9Y5K8	86.39
P30260	2.04
Q9NUG6	24.22
Q9NR30	55.91
Q5BJD5	11.55
O95870	20.79
P49736	158.52
P06400	1.77
O95674	40.18
Q1XH10	2.08
P34949	100.64
O95671	62.74
Q96C86	68.1
Q15436	241.96
Q15437	47.78
Q15435	72.3
P04233	61.64
Q06330	10.13
P12314	44.06
Q9NNX6	8.21
Q6NVY1	211.65
P30085	490.21
P30084	736.03
P30086	1543.08
P06746	19.68
P06744	600.81
Q4V9L6	64.31
Q685J3	0.42
P06748	668.82
Q29RF7	19.92
Q96EB1	4.03
Q9UN86	55.53
B1AK53	2.05
Q9HBX9	2.16
P08962	80.59
Q6DN03	17.49
Q63HR2	19.7
P57740	37.08
O95202	72.1
P31689	66.98
Q15043	20.79
Q15042	30.59
Q15041	104.51
Q15046	151.8
O95208	5.49
Q9H7B2	5.28
O15116	24.75
O15118	1.32
Q9HBA9	176.39
Q9Y2K7	1.41
Q01780	9.31
P18206	949.72
Q9H7B4	7.65
Q9BVA1	97.76
Q9H2X9	2.98
Q9BT09	79.41
P07437	1750.72
Q9Y490	678.12
Q9Y365	170.49
Q8N4V1	51.16
Q9UGI6	2.29
P28676	62.58
Q9UGI8	289.58
P10323	4.1
P15941	7.69
P09769	3.16
Q9BXT4	1.42
Q9BXT5	0.6
P00374	26.26
Q9Y520	5.33
P16949	1953.84
P08582	348.87
P08581	2.42
Q709C8	9.78
Q92643	8.3
P49137	32.97
Q4G0X9	2.89
Q9H074	17.54
P23258	44.05
O75592	0.74
Q4G0X4	6.34
Q9NPQ8	53.47
P20042	73.39
Q9GZZ9	29.31
Q9GZZ1	67.78
Q9H310	3.98
Q8IZP6	5.18
Q9H9G7	15.43
Q8IZP0	47.74
O75044	1.55
Q05209	8.53
P25705	1295.06
O43617	101.9
O43615	58.51
P61916	283.37
P61313	311.14
Q13464	67.68
Q13469	3.75
O95562	10.56
P11498	62.3
Q99417	47.08
P50748	0.75
Q96GC9	20.31
Q96GC5	39.24
P36955	170.33
P36954	12.93
P36957	254.25
Q9BY89	1.91
P19793	11.09
Q9NY33	86.42
Q9NT22	18.18
Q68EM7	55.1
Q3KPI0	11.6
Q9UHW9	1.47
Q06830	3516.82
Q06787	36.94
Q6ZN66	2.59
Q9NV88	2.54
Q8TBJ5	3.85
O14880	830.15
Q16602	3.55
Q96HP0	2.45
P09972	223.73
P15374	229.55
Q9H0G5	2.83
Q7Z404	14.23
Q7Z406	600.04
Q08378	17.96
Q9NQV5	3.25
P07602	74.33
Q75VX8	6.07
P50120	5141.78
Q4J6C6	2.24
Q969W1	8.61
P51659	337.05
P30740	320.78
Q9Y6Q9	1.21
Q8NAG6	5.62
Q9Y6Q5	7.81
Q5JRS4	5.14
P12956	715.31
Q5ZPR3	19.69
Q9UJC3	8.88
Q9UJC5	91.43
P23526	279.47
P49961	48.6
Q6UVK1	30.74
Q01433	54.1
P07225	60.0
P52294	24.95
P20674	425.79
P20671	652.38
P16455	86.77
P52298	41.74
O76003	75.26
O00425	215.22
P55957	93.93
Q15386	16.67
O00423	35.53
O00422	117.65
Q10471	43.52
Q10472	29.25
Q15388	46.1
Q9P2M7	66.1
Q9NTJ4	8.11
Q9NTJ5	81.33
P08174	9.07
Q9NTJ3	19.14
P00491	883.01
P00492	145.19
O75925	2.61
P27487	287.22
Q10713	29.02
Q9UKN7	3.33
Q9UKN5	2.14
Q9UKN8	20.42
O15305	113.7
P0C881	5.6
Q99627	113.21
Q99623	631.78
Q99622	28.5
P54920	265.62
P08397	9.55
Q9C0J8	6.44
Q96P31	2.32
Q8TB22	2.14
P28288	37.33
Q6PI78	44.2
P24752	195.3
Q86VU5	32.6
P43694	4.21
Q8WW12	267.96
Q02252	327.97
P42126	269.0
O43264	10.57
Q9NYA4	1.41
Q7L3B6	9.67
Q5T4S7	10.8
Q14166	83.3
Q14165	349.6
Q14161	48.87
Q14160	3.22
P19652	151.19
Q4LDE5	0.96
P62341	8.41
Q16836	854.37
Q9UGR2	8.42
P15144	1345.97
O43402	39.5
P49368	660.87
Q5R3I4	85.39
Q9NZA1	109.05
Q15493	401.02
Q9Y4L1	141.71
Q96A49	61.14
Q96A44	6.22
P63167	326.14
P63165	113.76
Q86YW9	1.56
Q9Y5M8	189.7
Q6ZQN7	11.9
P12081	114.5
P30536	9.98
P30530	1.91
P30533	40.77
P49750	11.1
P49753	10.59
Q15417	268.21
P49755	706.88
P49757	13.26
Q15413	0.34
P61106	573.74
Q15418	133.96
Q9ULL8	1.14
Q9HCB6	45.42
Q9BRK5	35.94
Q96C12	7.69
P11684	18.79
Q9H6F5	14.0
Q9BRK3	22.94
Q9ULG1	1.06
Q8TDB6	2.25
Q4G0F5	52.76
Q96NT0	9.5
P06727	612.28
O00634	3.06
O00635	10.55
P13688	3.26
Q6ZR52	2.49
Q6SPF0	46.91
P13686	5.13
Q9NR12	286.37
Q9NR19	14.34
Q8N2F6	20.01
Q9UPT8	8.03
P55899	33.08
O00429	107.81
O95260	22.25
Q9BW92	9.27
Q9BW91	9.6
Q8TDG4	1.51
Q9Y2X3	230.13
Q9Y2X7	40.08
P84243	502.38
P62906	892.54
P83731	454.25
P28074	349.52
Q93062	68.92
P28072	296.27
Q9BT22	14.31
Q08426	28.35
Q9Y342	9.4
O60551	6.59
Q96P20	1.59
P57764	39.13
Q8N4T8	29.69
O95881	205.36
Q9UQ26	1.17
P53004	129.23
Q2WGJ9	0.9
P60228	53.95
P10301	167.98
Q86XP3	43.77
Q9Y4R7	4.3
Q8IVP9	4.09
F8VTS6	5.82
Q9UIQ6	51.22
Q92629	64.42
Q05048	31.07
Q86UA1	7.18
Q92620	16.04
Q92621	30.49
Q92626	60.23
Q92625	7.63
Q9BSH5	301.85
Q9BSH4	52.05
O76021	85.41
P20023	1.66
P20020	92.04
O60284	3.26
O60282	22.3
O75718	28.24
Q86TV6	11.97
P32297	3.27
O43670	18.5
O43674	146.8
O43677	43.01
O43676	131.78
O43678	257.95
Q9Y608	6.86
Q15629	17.44
Q14624	36.34
Q8N5Y2	9.42
Q13488	2.02
Q13485	21.75
Q9H4A6	33.33
Q9H4A5	5.73
Q9H4A4	253.54
Q9H4A3	1.5
Q13480	4.9
P32121	28.52
Q99470	48.94
Q99471	97.55
Q53HI1	6.18
Q9GZX9	15.02
O95793	17.84
Q9BWD1	145.35
Q9BWD3	14.24
Q9NWF9	1.89
Q9NY12	33.62
Q8NBK3	13.89
Q9NP61	36.29
P62487	48.67
Q14978	25.52
Q5H9R7	25.0
P12004	456.99
Q9BQ67	3.8
Q9BQ61	254.92
Q969X5	132.54
P62158	925.82
Q96HR3	9.26
Q96HR9	534.48
Q16666	114.92
Q9H0E7	2.31
Q7Z392	2.91
Q9H0E3	11.92
Q9H0E2	55.82
Q9NQT5	25.4
Q9NQT4	29.75
B2RTY4	0.64
A6NHC0	2.37
Q6ZW49	1.55
Q96J88	5.1
P56378	56.38
P56377	50.45
P51671	17.5
Q9BZQ8	25.5
Q9NZZ3	114.66
Q08AG7	22.15
P17050	16.13
Q9NRZ7	43.3
P78346	19.22
P78347	172.09
P78344	64.22
P78345	5.9
P20618	602.69
P17661	3904.7
P52272	961.92
Q96T60	16.45
O00409	3.49
Q15369	481.86
Q15366	146.05
Q15365	1101.93
Q15363	222.8
O00401	23.98
Q969U7	19.17
P59046	1.56
Q13907	64.23
Q56P03	5.73
P02746	49.2
P02745	21.66
Q53FP2	50.93
P08621	207.65
A6NDG6	33.14
P01031	7.98
Q9BZE1	15.61
Q9UKL0	3.54
Q9UKL6	7.56
P06280	100.13
O15320	4.13
Q6UX71	9.46
P21695	909.9
O15327	3.59
Q99643	131.2
Q7Z6I8	9.33
Q96P50	2.03
P22352	110.26
P18077	404.46
P62714	15.84
O75940	28.13
O75947	639.91
Q86VW0	11.84
Q7Z5K2	2.83
Q96K21	10.93
Q16829	4.18
O43248	5.57
O43242	240.25
O43795	173.61
Q8WU90	38.64
Q9UPN4	1.54
Q9UPN7	9.71
Q9UPN6	6.68
P53634	126.77
Q14108	172.98
Q9Y3Y2	135.19
Q14103	1040.88
Q14106	5.13
O43426	1.09
O43427	8.97
P16152	655.43
Q75LS8	12.05
Q16851	161.63
Q16850	9.92
Q16853	84.34
P99999	1039.08
Q9UGP4	2.6
Q16854	17.58
Q9UGP8	32.02
A5YKK6	10.55
O75366	10.2
O75367	786.98
O75363	15.22
O75360	7.52
O75368	529.31
O75369	347.73
Q6P2I3	5.43
Q8TCT9	45.27
Q9UDT6	16.21
O14782	4.2
O14787	37.05
P41143	4.65
Q96F10	127.47
P67870	135.54
Q13347	257.27
Q8IXQ6	7.8
P23588	108.64
Q8NDA8	15.54
Q9P1Y6	2.1
P21980	672.78
Q9BYF1	144.22
P20585	1.47
Q16270	70.92
A6NKN8	25.12
P61129	1.43
Q9ULJ3	1.58
P49773	625.97
Q9ULJ8	4.57
P49770	9.63
O15523	25.67
O95633	6.79
O95630	3.91
P05937	6.26
Q9BZ29	2.38
A0MZ66	78.65
Q9BZ23	3.0
P06703	295.2
P06702	255.3
Q86SK9	19.98
P37235	109.43
Q9NW68	3.98
Q9NW64	4.0
P30519	67.76
Q8NCD3	4.5
Q96H79	62.68
Q96GX9	41.55
O95249	32.82
O95248	2.7
Q86V21	2.5
Q08623	44.63
P48426	36.57
Q01814	2.74
Q01813	59.24
Q9Y2Z0	105.3
Q8TDI0	0.84
Q93009	99.54
Q93008	25.06
Q01740	68.51
Q9BVM4	32.52
P09493	3313.19
P09496	173.41
P09497	111.84
Q96A59	4.18
Q9NVC6	5.15
Q9BT43	7.41
P07478	1028.15
P07477	247.52
Q9Y696	470.0
Q9UGM3	342.88
P01130	1.97
Q9UGM6	4.68
Q96AB3	134.53
P00846	45.41
Q86UR5	0.99
Q8IYV9	14.47
P16989	14.05
Q5JR98	8.04
Q9C0E2	15.88
Q9BXP2	1.95
Q9Y4P3	56.57
Q9C0E8	23.61
Q9BXP5	141.8
Q96IJ6	32.46
P32856	5.63
Q92604	39.23
Q92600	55.85
P81605	16.64
Q92609	21.1
Q9BZJ0	7.48
Q96JM3	29.51
O75884	107.32
P23219	2.73
O75880	55.54
Q9BSJ8	116.19
Q99986	4.13
Q99985	6.61
Q9BSJ2	25.64
Q8TAS1	4.04
Q9NPU4	9.84
P17858	406.49
Q9H425	31.01
Q147X3	4.78
Q99497	1595.76
Q9NRG7	5.41
P14174	90.33
Q9NRG1	14.63
P54886	191.47
Q13137	7.19
Q13136	2.77
Q13131	99.76
Q2UY09	22.54
P52735	31.52
P52732	1.58
Q9C0C9	10.63
O43657	20.44
P61956	310.99
O95400	4.99
O94804	6.7
P20309	2.84
Q14643	6.58
Q14644	1.96
Q6P4A8	11.88
P11182	42.14
Q9H4G0	20.97
Q9H4G4	294.52
Q8TD19	50.82
Q2TAZ0	1.76
Q6ZP01	3.18
P40938	37.05
P40939	610.98
P36915	41.03
P40937	14.64
Q02040	2.33
Q9BWF3	74.54
P31943	305.22
P31942	244.14
P31947	155.53
P31946	1050.05
Q8N1F7	98.44
Q8N1F8	4.64
P31949	399.95
P31948	386.8
P61601	59.1
P61604	1460.35
Q14914	445.07
Q14919	8.4
P60953	689.11
Q12774	1.06
P22570	17.44
O94759	3.29
Q16644	4.37
Q16647	52.62
Q16643	205.1
P78337	11.01
Q9UPQ0	4.62
Q9UPQ3	1.99
Q96M19	30.98
Q9UPQ7	1.57
Q9UPQ9	1.94
P09936	733.9
Q9H0C8	8.75
P47224	27.14
Q9BS26	207.93
Q9BPX3	3.29
Q9BPX1	33.16
Q9H0C5	3.56
Q9BPX5	166.3
Q9NQZ5	8.71
Q9NQZ2	3.44
Q3MIW9	6.67
O75533	177.73
Q7Z3D6	70.68
Q8IWL3	6.85
P38159	541.29
O75821	58.02
O75822	148.64
Q96IZ5	7.98
Q15208	17.33
Q06124	96.06
P78368	3.96
Q07654	347.77
Q6Y1H2	26.48
Q9NRX4	298.71
Q9NRX5	3.72
P78362	4.85
Q9NRX1	26.9
Q9NRX2	9.37
Q5SRD1	6.7
A8MUU1	149.6
O00469	26.61
Q15349	4.51
O95180	2.17
O95182	314.25
O00461	43.58
O00462	9.31
Q15345	2.12
Q7Z4I7	24.13
P45880	499.79
Q5T9S5	1.11
P08603	86.42
Q8N201	3.08
Q96SL4	107.35
O95989	77.17
P06733	2918.67
Q9UKJ3	3.43
O95980	12.35
O95983	11.44
P35398	2.98
P43304	67.37
O15347	359.62
P43307	46.61
Q8N9N7	84.24
P62736	5682.52
Q9UH62	70.71
Q9UH65	13.61
P15531	591.42
Q96P70	92.32
Q14344	127.91
Q9H7Y0	15.47
Q9BTD8	3.73
O75964	575.22
Q9BTD1	14.1
P68400	83.21
P00450	318.14
P68402	176.29
Q15836	49.82
P00739	4.81
Q15833	79.14
Q7KZI7	10.68
Q5THK1	0.79
P53611	5.09
P53618	313.78
Q14126	79.86
P10114	27.33
Q8TEX9	37.97
P49327	103.04
P49321	178.48
Q9UGV2	13.61
Q9UBY9	161.47
O75340	240.48
O75347	1241.9
O75348	273.03
Q05655	12.12
P25685	88.86
P25686	10.56
Q8NFH5	43.21
P42166	199.03
Q86X95	3.59
Q9UDR5	12.87
P82909	262.09
Q96DB5	52.45
Q9ULZ2	10.95
Q13155	74.39
Q13361	9.58
Q13362	3.08
Q13363	35.56
Q86YS7	3.4
Q86YS6	24.14
Q13367	1.58
P67812	118.38
Q8IXS6	4.45
Q9Y5Q9	9.27
Q9Y5Q8	22.07
P11532	3.96
Q0ZGT2	34.93
Q96KK5	243.11
Q05193	38.56
O95613	0.5
O95619	7.09
P48052	131.79
Q9H6B4	18.2
P48059	156.3
Q9BZ01	9.05
Q96EL3	31.03
Q96EL2	29.63
O60682	8.51
P55769	318.02
Q13751	7.25
Q13753	10.04
Q9HA82	20.24
P31629	0.7
P31150	297.05
P83881	196.26
P31153	116.15
P48444	469.46
Q86V48	10.93
P48449	15.78
Q8WWP7	38.25
Q9Y2D5	39.68
Q9Y2D4	25.92
P29218	111.99
Q6XD76	9.76
Q5UCC4	6.87
Q01831	12.41
Q7L099	10.64
P62942	660.06
Q9BVK6	302.97
Q92994	2.54
Q9BVK8	7.44
Q92997	2.41
Q92990	8.26
P51911	1007.89
P07451	6.35
Q8NBX0	47.8
Q9Y383	76.72
Q8TBQ9	46.61
Q9NVA1	21.71
P57721	95.18
Q2WGN9	3.01
P04198	3.79
P04196	9.46
Q8IYT3	4.57
Q9BXR0	8.53
Q8IYT4	6.13
Q9H8Y8	55.77
Q9C0G6	0.39
Q8IVT2	72.28
Q9P1F3	20.74
Q6UXB4	5.77
Q8IX04	3.59
Q8IX01	9.37
Q53FE4	4.74
Q9Y6H1	205.82
Q8TAQ2	113.08
P78559	11.07
O60716	250.03
A0PJW6	8.52
P01112	176.37
P01111	35.39
P01116	121.42
P54577	222.3
P68366	451.45
P68363	1329.47
P54578	130.64
Q8NFD2	2.22
P08473	226.22
P52758	181.42
P61970	285.4
P61978	1451.67
Q96LJ7	49.85
P54753	5.11
O94822	1.87
O95428	2.73
Q9H4E7	7.62
O94826	142.0
O95425	20.47
Q7Z2D5	2.26
Q5JSZ5	2.32
P48200	1.79
Q1EHB4	11.11
P52292	6.49
Q9NWB1	30.73
Q9NY59	18.5
O75828	6.09
Q16401	116.98
Q9UHI5	3.22
Q9UHI7	2.9
Q96PL1	147.87
O75795	21.52
Q9UNU6	3.23
Q03519	7.45
Q14669	4.26
Q9H910	112.34
C9J798	16.62
Q6WKZ4	4.11
P22897	9.05
Q12797	85.31
Q12792	111.9
O94776	80.11
Q96HV5	31.66
P09917	2.41
Q15382	54.98
P09914	3.39
P62191	187.11
P09919	8.42
P62195	119.38
P03886	36.87
P51589	6.52
Q9NQX3	30.62
Q9NQX0	2.91
Q8NA03	2.84
P51587	0.49
A6NHG4	132.31
P30499	13.75
Q96D21	6.19
Q9UQM7	59.03
P61088	745.22
P61086	192.79
P61081	89.87
Q7Z601	3.68
P13569	1.12
Q7Z3J2	25.71
Q07092	22.62
Q9NZV8	2.66
Q9Y6W5	58.82
Q9NZV5	8.56
Q9Y6W3	8.11
Q96IX5	145.42
A6NEC2	41.93
Q6UX04	3.49
O00193	120.08
O00192	3.59
P17014	2.31
Q9H0A0	51.93
O75962	1.62
Q9H0A8	51.78
O00443	0.98
P05109	173.34
Q15326	2.65
O00330	24.29
O00445	4.38
Q96T23	3.44
O00339	10.55
O00338	86.16
P05106	30.2
P05107	2.22
O95168	234.63
O95169	163.95
O95166	26.99
O95167	141.69
P06132	50.65
P23396	1034.52
Q13948	2.42
O95163	13.75
Q9BRP4	4.45
P51636	20.54
Q9BRP8	207.25
O75923	11.08
P02652	537.82
P02655	49.93
P02656	190.38
P15884	7.9
Q96SN8	0.87
P15880	677.55
Q96QC0	7.58
Q9H1E3	447.25
P53985	34.82
P29536	128.89
Q9Y241	37.03
Q9Y240	10.52
Q9Y243	3.37
Q99829	174.91
Q99828	51.92
P22314	661.39
P27797	1080.67
Q14320	23.34
P24043	4.92
O43809	343.74
Q15811	12.49
Q15813	15.82
Q15814	9.57
O43759	14.76
Q15819	436.17
O43752	6.44
P53367	13.5
P53365	9.92
Q14498	94.89
Q8TEV9	1.79
Q9UGT4	2.08
Q8N4C8	5.01
Q8N4C6	0.77
Q8N4C7	5.47
Q96JY6	25.07
Q6P2E9	30.96
O75323	228.21
Q8WUP2	4.62
O75325	2.38
Q496A3	5.57
P82921	17.48
P20810	105.47
P63104	3174.87
Q13308	198.3
Q9Y5S9	151.09
Q13303	4.58
Q9Y5S2	37.7
Q9ULV4	225.74
Q9ULV0	6.15
P61165	41.37
P61160	541.29
A6NKB5	1.58
P61163	79.33
P36896	3.31
Q9H9P8	3.73
Q9HCD6	1.71
Q9HCD5	40.12
Q8IWE5	1.67
Q8IWE2	30.92
Q6Y2X3	2.39
P05976	8.88
P55039	41.49
P55036	82.99
Q6NXE6	6.94
Q5T160	2.87
Q9BUI4	9.3
P62277	567.1
P62273	140.65
P37275	1.51
Q03701	4.66
Q8WWN8	2.21
P45985	21.2
O15197	1.7
O15195	17.63
P45983	3.89
Q8TDM6	0.88
P28289	4.63
P09104	75.49
P09455	1113.88
P16671	28.32
P56211	137.17
P21796	1086.4
Q9NVG8	20.17
O14579	206.98
P49841	16.07
P49840	18.42
Q687X5	3.61
P58546	291.3
P49848	245.54
Q86UV5	4.73
P59537	5.28
Q32Q12	115.08
Q9NQC3	75.17
Q9H8W4	20.27
Q10570	30.35
P20774	669.95
Q9UQR1	2.11
P78539	7.28
O60739	248.98
P78537	21.76
P17813	7.98
P17812	76.04
O95394	194.56
O95396	7.56
P06307	44.48
Q5T1N1	2.02
Q9UHC6	1.27
Q9NRC1	8.39
Q9NRC6	0.9
Q9P287	5.22
Q9P281	1.36
Q9P289	20.18
Q96LD8	7.79
K7EJG0	7.82
Q9UIW2	0.89
Q96LD4	10.8
Q9UL18	65.69
Q9HAY2	5.33
Q9H4K7	4.27
Q6P4E1	3.84
O94844	2.36
Q629K1	19.4
P32189	42.93
Q8IW70	3.05
Q99496	9.98
Q02880	53.29
Q9P0J1	18.46
Q86TX2	117.7
Q8N6L1	53.37
Q02083	14.06
Q8N1B4	20.56
P07947	6.18
Q96PN6	1.0
Q96PN7	1.42
P07942	162.18
Q6DKJ4	23.29
Q5JS37	4.91
P16070	39.16
P07948	19.24
Q9UNW1	3.41
Q14684	2.22
Q14683	154.73
Q8NB90	3.84
Q9BQ04	56.14
Q8N3X1	1.7
Q8N3X6	8.41
O14802	7.24
P50213	166.03
Q96B21	17.7
Q96B26	18.76
P50219	4.63
P36405	174.45
P36404	116.95
O60291	3.09
O60934	15.47
Q9BX10	2.86
Q9NXF1	17.77
Q2M1Z3	1.2
Q9UBQ7	389.66
Q9UBQ5	254.82
Q9UBQ0	348.05
Q15797	10.78
Q15796	14.36
P04350	689.37
Q7Z624	5.2
P12236	148.58
Q8N5N7	20.5
Q07075	60.17
Q9NZT2	40.98
O43665	92.81
P61201	29.12
P59796	7.52
P13727	394.92
Q8NA23	4.6
Q8NDX6	17.19
Q8IUF8	7.11
P05162	923.44
P05160	2.49
P05166	58.07
P05164	29.11
P05165	98.53
Q07617	1.81
Q9UL15	18.34
P55263	55.59
Q96I15	35.11
Q9UL12	18.59
P55268	75.71
Q96CG8	14.32
P61225	64.12
O95140	26.09
Q7L7V1	2.22
Q9NP66	9.36
P38117	890.39
P61221	122.77
Q9H6Y2	4.46
Q9H6Y5	5.33
Q6PJT7	4.53
Q7LBR1	93.45
C9JRZ8	9.52
Q96NC0	15.91
Q9UKF6	26.66
Q96QA6	13.83
A6NMZ7	8.36
O15382	63.61
P78324	3.42
Q9Y266	73.67
Q9Y265	220.62
Q9Y263	47.41
Q9Y262	208.29
Q6NW29	8.84
Q5KU26	46.08
Q01518	622.43
Q13496	2.69
P09661	178.46
Q5VWJ9	7.56
O95471	8.38
P09669	406.39
P09668	160.73
Q9GZN4	5.57
P50542	5.3
Q86VM9	15.89
P00414	31.35
P21589	121.52
P21580	2.1
P02671	225.45
O43823	4.94
Q8TDP1	52.64
O43826	36.46
P02679	601.61
Q5THJ4	0.38
Q8N3E9	2.1
O43772	159.63
O43776	328.23
P10155	130.02
Q92783	19.04
P46087	8.41
P46736	20.83
P46734	33.44
Q9Y3C4	38.21
P35579	1652.4
Q9Y3C1	8.86
Q9Y3C0	8.87
P35573	103.17
Q9Y3C8	144.79
Q99807	54.16
Q99805	19.83
P42345	7.15
Q96JG6	10.14
Q8N4A0	11.27
Q6YHU6	0.86
O75306	117.95
Q9Y5X3	136.4
O75309	2.09
Q13098	64.26
Q13099	1.99
Q9BQS7	69.11
Q9BQS8	3.37
Q13094	6.24
Q9NRW7	63.49
Q13325	13.45
P54652	568.65
Q96DN0	30.81
Q96DN2	1.88
Q00839	899.86
Q9NRW3	32.91
P98088	36.02
Q9Y5U2	5.47
P98082	41.0
Q8IUY3	4.67
P19388	84.15
O43488	251.44
P19387	23.89
Q9ULT8	3.25
Q9ULT0	1.95
O15540	12.61
O15541	14.53
P36873	15.24
P36871	504.32
Q9NU22	0.3
Q8IWG1	3.65
Q8NC51	192.14
Q9HCJ6	8.18
Q9HCJ1	3.46
Q8NC56	23.08
P43005	9.87
Q8WXF7	8.87
Q8WXF1	115.1
Q9HC35	236.25
P22692	6.72
Q9NR99	0.6
P22695	379.96
P22694	69.35
Q9NR97	1.57
Q5T4F7	5.28
Q5T4F4	8.19
Q16740	31.12
P62258	2246.82
P62256	63.65
A6NKD9	20.77
P62253	9.63
Q8WWL7	2.38
Q9HB71	415.62
Q9UDV6	6.77
P07148	3384.11
O14638	1.88
Q6NXG1	2.48
P55011	44.29
P55010	91.58
P50539	14.41
P09471	121.93
Q9NVE7	34.95
Q9NVE5	1.34
Q8NBT2	8.36
O14558	383.62
Q9Y320	11.04
P37837	545.34
Q9UP83	20.25
Q8IYX7	3.44
Q9Y697	18.71
P35749	2499.13
Q86UX7	66.77
Q86UX2	1.8
Q5T0B9	16.4
Q9C0C2	43.39
Q00587	4.66
Q9Y4Z0	61.18
P29966	517.83
Q9Y680	106.4
O00764	310.34
P39656	77.64
Q9BZL4	17.7
Q9BZL6	1.94
P08253	25.42
Q9BZL1	43.95
Q08209	67.21
P0C7P0	26.42
O75531	485.46
P0C7P4	195.04
O75534	63.39
Q00059	167.83
Q8TAU0	4.89
E7EU14	19.14
Q9C0B0	4.26
O95807	10.79
Q9NRA2	6.87
Q13158	8.07
Q8NFH8	2.63
Q13153	52.65
Q13151	578.54
P54826	10.52
Q8NFH3	17.82
P52799	10.17
Q9UII2	368.0
Q96Q11	33.72
P62899	350.63
Q96Q15	0.92
Q92843	9.05
Q92841	491.35
Q58FG1	7.87
P98160	171.06
P22102	101.08
P22105	8.09
P04040	311.17
P12821	95.34
Q9H444	165.61
Q9H446	20.17
Q9ULL4	0.91
O75792	16.87
P00750	2.99
P00751	81.25
Q14517	0.37
Q02750	64.86
P49756	80.61
P24855	23.9
Q53T59	26.34
Q6PID8	15.3
Q6PID6	6.39
Q9UNQ2	10.66
P09467	713.71
P60660	1719.54
P46940	287.8
A6NKL6	2.94
Q6PGP7	51.37
Q6ZMW3	0.86
O94868	2.23
P26232	10.7
O94788	3.31
O14828	49.06
P06681	9.02
P50238	176.09
Q5VZE5	2.25
Q96HZ4	15.57
O60315	4.13
Q13200	224.93
O60313	84.12
Q6IBS0	113.98
O60318	0.86
P30101	1931.7
Q9UBS9	1.35
Q9UBS4	60.27
P13521	18.53
Q06278	7.62
Q8NG27	2.65
P63313	1195.82
Q15262	12.75
O00159	236.16
O00154	103.35
Q15269	3.67
P61224	541.13
O00151	630.02
Q14CZ7	2.48
Q06187	12.31
Q13636	26.12
Q13637	75.14
Q8WTW3	8.62
Q13630	125.59
P62166	42.92
Q8IUD2	29.33
O00487	130.37
O00483	360.8
P05141	503.11
P52895	20.45
P55209	120.04
P55201	2.73
Q504U3	37.41
Q7Z4S6	9.03
Q9BRT2	37.88
Q9BRT3	15.14
O15014	1.24
Q9BRT8	4.26
O15013	1.24
Q9NZR2	0.36
Q9NZR1	18.97
Q9NSB2	55.03
Q567U6	28.22
Q9NP81	45.12
Q3ZAQ7	33.08
Q9UKD2	27.26
Q9BU23	23.57
A0M8Q6	365.57
Q86T96	5.5
Q12857	30.22
Q8N2U0	16.0
Q08J23	36.92
Q6ZMH5	3.33
P35080	549.25
Q5JNZ5	317.8
P68133	4.47
C9JI98	10.41
O43847	9.99
Q66K14	16.04
Q8WVM7	14.3
Q8WVM8	103.8
O75494	132.01
P35555	153.39
P35556	42.36
P35222	300.96
P35221	384.75
Q6ZXV5	25.28
P35558	32.57
P10176	173.47
Q8NEE8	3.82
Q9Y3A5	195.89
Q9Y3A3	50.5
Q9Y3A2	6.17
Q3KQU3	2.02
Q7L5N7	3.12
Q7L5N1	145.42
Q96JE9	23.88
O75674	10.63
O75676	4.39
Q16798	8.4
Q8IVM0	10.49
P52630	3.84
P23443	6.35
Q8IVM8	3.02
Q15853	5.08
O43719	39.38
Q8N5M4	18.77
Q14728	11.66
Q6GMV3	154.49
Q6GMV2	3.97
P35226	5.08
Q99757	20.43
Q99755	3.0
P49427	7.02
Q14185	25.29
Q9ULR0	11.39
Q9ULR3	9.98
Q9HCH5	1.79
Q8IWA4	2.23
Q8IWA5	21.1
Q5TAA0	2.96
Q8IZC6	2.01
Q9NZ71	9.83
Q9NZ72	53.62
P51884	1617.73
P33316	282.83
Q9BUM1	14.55
Q6DKK2	4.42
P22670	1.79
Q9Y3A6	21.67
P04844	414.76
Q96KA5	3.02
Q16762	533.75
Q6SZW1	16.56
Q0VF96	2.52
P23193	171.4
Q9Y2B1	3.67
Q9NWU5	55.61
Q9NWU2	14.04
P47895	53.56
Q9Y2B5	5.45
P47897	179.69
Q9BW30	286.9
Q5JVF3	20.4
O14618	45.27
O14617	43.29
P50552	212.2
Q9P0V9	74.99
Q9H2D6	12.22
O14530	14.16
O14531	30.35
Q9BYD6	40.71
Q9BYD3	21.51
Q9BYD2	12.42
Q9BYD1	99.85
P17174	190.87
Q2M3M2	5.07
Q9H3K2	35.34
Q7L0J3	2.27
Q9BXX3	1.18
Q9Y4X5	14.65
Q9Y4X1	43.88
Q9Y4X0	5.3
Q9H8S9	119.82
P14854	276.42
Q9NQG1	19.84
Q5SW79	1.07
Q9NQG5	208.69
Q04917	579.05
O00743	85.51
A6NGB9	3.8
O00746	45.46
O00748	316.03
P09417	444.24
P42892	10.77
Q9Y6N6	2.19
P08237	108.04
P08236	52.78
P08238	1170.71
Q9Y6N9	78.5
Q9Y546	3.87
Q9Y547	34.57
Q1KMD3	317.79
O95825	14.56
Q15119	8.14
O95822	6.83
Q3V6T2	1.74
Q15113	97.88
Q4L180	5.76
O15228	17.03
Q5EBM0	15.19
Q9H0V9	33.11
Q8TF72	0.87
Q5K4L6	23.88
Q9UK41	96.03
Q9UIK4	4.38
Q8N6D5	5.79
Q9UK45	113.32
Q92688	221.82
Q6P9B9	5.22
Q92685	3.75
Q6P9B6	18.42
P27144	208.13
Q8IW36	3.12
P28070	385.88
P04062	12.58
P26368	172.02
P04066	27.99
Q8NFJ5	9.33
P54803	53.64
P54802	36.53
Q9H936	27.24
Q9H939	9.67
Q9NWH2	12.73
Q9NWH9	22.45
P16035	23.09
P19022	16.94
F5GZZ2	14.84
P19021	1.73
O96028	2.47
Q9UHC9	8.84
P07902	12.99
O43520	7.84
P07900	1763.71
Q8N1N4	3.3
O43524	2.64
Q6PIF6	62.19
P49247	39.52
Q9UNS1	2.71
A7MBM2	1.24
O94888	10.27
O94886	2.04
Q15393	189.79
Q6VEQ5	14.93
O14841	1.37
Q9NYR9	17.46
Q9H902	8.44
Q15397	5.1
Q9UPY8	17.62
O75116	100.39
Q5VZK9	19.83
O75113	1.87
O75112	2.43
Q8NEZ2	4.24
Q8NEZ5	4.22
P33121	7.23
O60333	0.92
Q9UBU3	14.55
Q9UBU6	4.26
Q9UBU8	9.06
Q9UBU9	24.09
P61026	199.98
P61020	134.68
P17342	18.84
Q06210	202.58
Q08AM6	55.51
Q14CX7	23.42
O00170	69.87
P12270	108.91
P12277	1021.81
O00178	28.51
P55198	1.68
Q15287	49.41
Q15286	130.51
P55196	14.53
P61247	878.1
O95049	23.75
Q13619	32.13
Q13610	6.73
Q13614	2.56
Q13616	39.79
Q13617	49.66
P50613	4.81
Q96T88	4.18
Q96I59	3.47
O95104	4.48
A8MXV4	4.45
Q5XKE5	3.25
P53007	259.53
Q9HC36	3.99
P51690	40.04
P51692	12.54
Q5T440	59.07
Q9H6U8	2.69
O15031	36.62
Q7Z4Q2	2.52
Q9HC38	431.85
Q9NSD4	3.88
Q9NSD9	113.63
Q9NZP6	1.55
Q6PJP8	3.23
Q32P51	263.41
Q9P032	46.34
Q9P035	108.79
Q96ST3	24.58
Q96ST2	4.09
Q9Y222	8.89
Q9Y221	9.18
Q12874	150.0
Q12873	6.63
Q12872	8.96
Q9Y224	281.05
P46977	149.27
Q9HBI1	4.5
Q9BU02	29.39
Q00688	328.24
Q86UP2	118.98
P04217	65.77
P04216	240.86
P02741	22.5
P09622	228.81
O43865	121.07
Q6RI45	1.84
P46776	442.3
P46777	617.63
P46778	293.39
P46779	274.31
O75477	328.1
O75475	203.12
Q8NBM8	58.43
Q6P4R8	1.35
P28715	1.41
Q8N9F7	5.19
Q96JC1	3.69
P08574	270.42
P08575	11.48
P08572	62.77
Q9H8L6	1.8
P08571	37.49
Q8IYA8	2.83
Q13057	72.32
P23469	2.33
P01906	46.9
Q9Y4C8	1.75
P08579	95.8
Q6UB35	7.1
Q8N392	52.61
Q5JU85	2.32
P54619	99.96
Q9BSY4	30.31
Q9Y5Y7	16.0
Q9Y5Y6	7.93
Q9Y5Y2	39.09
Q99733	153.51
P32004	63.05
Q99735	316.4
Q7Z7K6	119.17
P05997	18.15
Q9HCN3	2.22
Q9HCN8	135.3
Q8IWC1	1.91
P82980	11.79
Q16566	10.85
Q16563	39.45
Q70UQ0	19.11
Q96C36	5.58
Q86SQ4	5.5
Q6DKI1	19.66
Q9NW82	2.57
Q6DKI7	5.47
Q8NCR9	74.17
Q9NUY8	9.59
Q9UFD9	1.04
O14981	0.91
O14980	184.19
P56962	5.62
Q9ULP9	32.84
Q16706	30.08
Q9BY77	52.98
P35475	2.58
Q9Y2L9	2.32
Q9NWW5	20.92
Q9Y2L5	2.33
P07108	504.89
Q9Y2L6	1.59
Q9Y2L1	22.4
O14678	8.21
P41743	22.01
O14672	46.88
Q8N8A2	1.75
P50579	81.67
P55058	116.66
Q9UNN8	42.25
Q9UNN5	17.78
P50570	128.32
Q9P0T7	9.13
Q9NVI7	76.32
Q8TBY0	3.13
P17152	61.03
Q15545	9.33
Q15542	4.33
Q6P587	181.45
Q03013	7.35
Q8WWH5	5.04
P23921	25.02
Q6P589	9.14
Q07954	54.34
Q07955	859.72
Q5T0N5	18.79
Q9NQE9	9.22
Q4KMP7	6.46
P20719	19.2
P30039	632.27
P11802	11.14
P20711	271.67
Q6R327	0.98
Q7Z5H3	2.45
P48995	2.06
Q4KWH8	3.97
Q13868	28.64
Q13867	78.61
P57105	235.83
P17568	217.57
Q15139	1.85
Q9H159	2.16
O95848	23.36
Q96AX1	11.11
Q9H0T7	15.99
Q86W56	6.76
P43246	57.38
P43243	410.88
Q86W50	2.95
C9JLR9	2.57
O75882	36.73
O15294	22.49
Q9UK22	180.33
Q9UK23	3.35
P83111	27.85
Q330K2	4.92
Q9Y566	1.67
P07686	476.16
Q33E94	2.25
Q92800	2.2
Q969F2	3.75
Q92806	12.8
Q4G0J3	22.46
Q92804	69.87
Q02539	1917.57
Q8WYA6	34.58
A6NM62	1.33
Q86TB3	0.79
Q14558	33.37
Q6ZUM4	1.91
P04004	352.77
Q9H488	111.09
P54868	119.39
P22676	11.91
P41240	22.23
O96008	39.65
O96000	397.75
Q9UHA4	165.44
O96005	7.4
Q96CW1	68.08
P0C1Z6	6.64
Q9H4M9	470.89
Q53FA7	137.42
Q9NVT9	6.0
Q13263	545.11
P54289	36.19
O75132	1.44
O75131	146.8
P04843	487.56
Q02790	195.78
Q8TEM1	10.07
P61006	142.84
P53621	338.04
Q9UBW8	105.46
P61009	64.72
P40197	3.08
Q15738	31.38
O15444	22.62
P54136	229.23
Q9NYP7	5.32
P14550	611.12
Q6UVY6	10.79
P61266	5.65
O00116	77.28
A7E2Y1	2.55
P21246	59.49
Q9NS39	6.99
Q9Y2B0	572.95
P30414	1.13
P55809	96.99
P30419	42.98
P47974	3.68
A2VDF0	11.2
Q96CM8	110.28
Q9NWU1	7.69
P48507	36.67
P48506	69.69
O15050	0.56
Q9H6W3	5.28
Q06495	2.72
Q03468	1.12
Q8WXS5	4.34
Q6ZRI6	1.7
Q06945	3.97
P48509	39.83
Q9BRX8	335.34
Q9BRX9	5.47
Q9NZN4	417.64
Q9NZN3	49.36
Q7Z4W1	188.45
Q9BRX2	17.33
Q9NZN8	22.01
P37198	21.16
P12259	0.75
Q2TBE0	1.81
Q9P013	56.44
Q9P016	36.54
Q9P015	22.48
P56192	98.45
P56199	87.56
Q12816	2.61
Q9BU61	46.15
P07738	125.19
Q5JTC6	1.51
P07737	6138.34
P04271	52.6
P09601	85.84
P04275	9.72
P04278	8.58
P00966	472.27
O60518	4.52
P07384	240.82
Q9NTX5	33.44
P55072	752.77
P24593	6.14
Q9UNL2	71.28
P53814	125.14
P46020	1.37
P35268	596.97
Q9NVR5	2.06
Q9Y3E7	44.95
Q8IYI6	16.07
Q9Y3E5	39.14
O60635	7.14
Q5T5W8	27.31
P14317	38.25
P14314	486.73
Q7Z6M4	4.27
P00387	658.34
Q92499	205.06
Q8WUX9	3.69
Q05329	2.87
O75638	17.84
Q9Y4A5	2.15
P08559	112.79
Q5TF21	1.82
Q5CZC0	0.24
Q5SNV9	1.16
P20290	144.03
P20292	20.69
Q7KZF4	311.2
Q9P1U1	27.62
O94925	94.6
O94921	14.16
P51970	37.37
Q14764	128.58
Q14767	0.96
Q14766	3.02
Q99715	259.9
Q99714	934.8
P14784	3.07
Q9NPD3	42.71
Q99719	35.13
Q8TC59	1.71
Q04637	81.34
O75431	82.04
Q8N668	26.61
P26992	46.22
P26447	64.05
A6NMT0	5.04
P26440	117.59
Q9NZ32	4.06
Q16543	228.08
Q16540	42.25
Q9H3S7	11.54
P26196	186.38
P11441	52.83
Q92963	22.41
Q9BUQ8	51.09
O43310	2.78
O43318	11.18
Q53H82	177.48
P04808	26.65
Q96KE9	3.52
Q96FV2	84.64
Q96FV9	24.82
Q8NE18	2.32
Q9BW72	16.29
O14653	90.97
Q9NWQ8	4.0
Q6IAN0	69.52
P49593	82.92
P49591	223.68
P49590	9.9
Q9P0R6	24.01
Q96MW5	5.49
Q96MW1	7.44
Q7Z745	1.04
Q9UNH7	185.21
Q5T035	9.07
P39905	7.92
Q9NPJ6	6.31
P30622	6.95
Q3SYC2	14.75
P30626	805.83
Q8NHY5	6.06
Q8WWF6	11.34
Q9C0I3	1.89
Q9C0I1	2.18
Q9C0I4	1.05
Q86XF7	7.02
Q07973	3.19
O00257	3.06
O00255	2.76
A6NHR9	26.55
A6NHR8	4.02
O00258	9.5
Q7Z3U7	6.9
Q6UXH1	4.92
Q9H2H8	82.76
P08833	424.05
P02771	1392.0
P02774	492.92
P02775	27.04
P52565	817.41
Q15155	81.1
Q15154	0.82
O95319	3.46
Q03692	2.84
Q9UJ41	11.83
O95861	208.11
O95865	405.49
O15269	14.24
Q9H0R8	13.37
P35900	201.43
O15260	358.41
O15263	26.69
P35908	404.73
O15264	17.85
Q9H0R4	111.89
Q7RTV0	105.98
Q7LGA3	4.48
P39019	900.5
Q9P206	1.75
Q8N6H7	16.56
Q9H3N1	135.88
P56385	47.35
Q92820	125.34
Q92828	15.71
P00558	1894.39
Q9Y6B6	142.48
Q53GG5	86.17
Q9BZF1	18.56
Q9Y586	9.18
Q9Y587	22.09
Q9Y584	18.75
Q9BZF9	20.8
Q9Y580	18.47
O75844	20.56
O75694	31.46
P09017	6.3
P09012	156.12
Q9Y230	223.96
Q9H8M1	6.94
Q5VTR2	23.13
Q93084	23.07
P00734	32.18
Q5J8M3	9.35
Q8WZ73	4.64
Q14576	14.25
P00738	99.72
Q14571	1.22
Q9H1P3	3.4
Q14573	3.71
P42025	48.85
Q9BQ69	52.9
A1L0T0	177.11
Q9UHG2	247.02
Q9UHG3	139.27
P41223	66.29
P41222	375.12
Q99848	5.39
P41227	70.98
P41226	20.18
Q9Y239	5.23
P49207	339.1
P46926	459.93
Q92530	125.98
Q9HBH1	13.91
Q92538	16.38
Q14974	297.66
P20336	7.52
P27105	438.01
Q70J99	6.09
P20338	69.31
P20339	285.79
Q96RT1	4.75
Q8N3P4	1.16
P11277	15.24
Q13247	132.84
O75150	14.87
O75153	23.05
O75152	16.86
Q13243	48.06
Q13242	257.37
P11279	108.8
Q75N90	4.38
Q8TEK3	3.05
P17301	26.15
Q15714	3.42
Q12756	3.93
P10909	161.0
Q96BW9	5.23
Q96BW5	28.88
Q96BW1	5.56
Q99504	3.0
Q9Y6N5	150.37
P15586	190.6
O15460	24.67
Q53TN4	41.55
Q9UJS0	131.67
O00139	9.4
P61289	89.12
P55157	708.92
Q8IXB1	37.12
Q16663	15.33
A4D1S5	7.7
S4R435	74.91
Q9BX93	26.01
Q9BX97	22.27
P21266	707.15
P84103	1253.42
P84101	136.1
Q460N5	1.85
Q96I99	456.31
P00441	1155.01
P31749	13.49
Q96N66	64.07
Q96N67	1.55
P60880	8.06
Q86WA6	121.2
O15075	22.84
Q9NZL4	4.76
P16435	78.37
Q9NZL9	130.04
Q01970	105.55
Q7Z460	9.98
Q96NK8	4.85
Q9BU40	3.67
Q9BR39	12.65
P07711	40.0
P02545	1406.0
P02549	5.37
Q12830	1.67
P29084	11.37
O00391	47.76
P40222	15.17
O00399	36.21
P49789	111.41
Q9BTP7	70.74
Q9NTZ6	42.43
P16885	6.35
Q9Y2U8	3.76
Q9Y2U9	4.07
Q9NQT8	6.48
Q9ULL0	4.02
Q8TDX7	38.05
O60575	39.73
A6NDU8	33.52
Q9UMS0	6.6
Q9UMS6	231.75
Q9BYE2	59.91
Q9UMS4	258.68
P35244	179.94
P35247	4.98
P35240	2.7
P35241	219.15
Q8IY22	2.18
Q9H788	3.56
P35249	4.73
P43034	161.09
Q9NVP1	39.85
P16284	79.65
O60610	83.71
O60613	31.67
P17931	1271.18
P17936	88.95
Q99880	134.62
Q9GZQ3	60.91
P01019	441.68
Q8N2S1	115.87
P01011	536.05
Q13011	550.62
Q9H8H0	2.32
Q71DI3	732.33
Q9H8H3	119.38
Q0VD83	6.54
Q8WUZ0	24.01
O75380	369.83
O75381	27.33
O75382	4.65
Q9Y4G8	2.24
P52657	30.15
Q8IVG5	2.04
Q5MNZ6	14.78
P30990	85.39
Q9Y4G6	39.42
Q5SNT2	2.6
P53384	5.44
Q66K74	21.76
Q9NPF4	61.87
Q9NPF5	10.63
Q9BSE5	139.64
Q9NPF2	4.52
O94906	66.75
O94905	332.55
Q86YG4	11.51
O94903	204.26
O94901	14.6
Q8TC71	12.29
Q8N684	90.21
P15428	84.26
P49454	2.55
P19474	10.4
P26640	108.3
P26641	393.48
Q16527	224.08
Q8IWJ2	5.75
Q9H3Q1	54.4
Q9H3Q3	4.07
Q14746	4.51
P60709	17226.17
Q9NUU7	93.95
Q6FI13	719.56
Q96KG9	18.86
P49411	561.08
P49418	7.39
P49419	314.71
Q9H9Z2	8.26
Q7Z7G8	0.42
Q7Z7G0	42.74
Q9Y2H0	6.96
Q9Y2H5	3.21
Q9NWS1	2.89
Q9Y2H6	1.42
Q9Y2H9	1.1
Q9NWS8	7.28
P25205	90.83
Q9P0P8	20.17
Q3LXA3	751.95
Q9P0P0	10.49
P25208	8.23
Q96MU7	11.09
Q9NVM9	4.68
Q9BYN8	46.54
Q9NVM1	10.22
Q9NVM6	27.07
J3QLJ4	1.95
Q92686	24.65
O95747	48.56
P01833	24.81
P01834	16518.44
P69905	27437.88
P05067	6.48
P05062	380.65
O00273	41.14
Q9UBL3	10.93
Q6UXN9	85.67
Q13822	1.9
Q13825	26.37
Q5T013	18.53
Q5T011	1.99
P56545	15.35
A6H8Y1	3.83
O95336	477.27
Q9UQ13	8.68
Q15173	26.18
Q15172	16.71
Q9UJ68	107.81
O15240	8.38
O15247	125.85
Q12996	18.12
Q9Y618	0.68
Q9Y619	22.95
Q9Y617	60.4
Q08752	32.25
P32929	16.88
Q01105	386.98
Q9UIA9	46.99
P18669	1101.98
Q9P225	0.37
P00533	15.39
Q4G0N4	30.4
Q4G0N8	2.78
O43924	32.35
Q9Y6D5	4.65
O43920	120.03
Q9Y6D6	12.6
Q9Y6D9	6.78
P08708	760.94
P29692	337.95
Q9BZD3	4.5
P10071	1.11
P10074	2.44
Q8NFP7	50.76
Q6EMK4	18.33
P35659	127.64
P35658	8.79
Q9H993	7.34
P27694	165.39
P27695	792.37
P41208	19.03
Q8TD55	24.64
Q86VX2	25.0
Q86VX9	3.02
P23368	114.8
O76024	18.73
Q9HAS0	4.21
Q9UEE9	16.77
Q76KP1	1.61
Q5SY16	7.1
Q9H223	184.21
O75175	9.18
Q9H227	34.98
P06870	6.5
Q13228	283.21
Q9BWT3	9.07
P11217	1.93
P11216	250.56
Q13224	1.13
Q99698	0.88
Q8N142	7.48
Q15773	13.35
Q15772	0.53
Q8WUA2	45.95
Q8WUA7	19.06
Q8WUA4	1.87
Q99523	6.12
O15400	157.48
Q8NB37	56.43
Q5F1R6	3.03
Q8N3V7	24.55
Q4VC05	16.47
Q7L4I2	7.43
Q9UJU6	315.58
P50416	59.51
Q9Y5B6	3.58
Q9Y5B9	111.21
Q9NX08	8.91
Q9NX02	1.56
P38606	247.48
Q16881	103.3
Q7L7X3	6.47
Q8WZA9	38.93
Q8WZA0	131.07
P62424	776.42
Q13573	15.27
Q9HD20	18.36
Q9H6S3	58.24
Q01955	1.16
Q9NZJ9	64.75
Q07507	179.96
P16452	2.44
Q9NZJ7	36.17
Q9NZJ5	1.5
Q86YZ3	2.66
P10586	5.29
A1A5C7	2.55
P13164	80.7
Q9Y281	180.43
Q9Y283	1.59
Q9Y282	4.35
Q9Y285	94.62
Q9Y287	6.19
Q9Y289	8.21
P52815	184.76
Q96N46	2.13
P83436	4.35
P55287	42.7
A2VDJ0	2.09
Q96C19	196.99
P56730	1.93
Q9Y2W1	93.33
Q9Y2W2	40.25
Q8TDZ2	70.11
Q96SZ5	12.63
Q9P0M9	46.74
Q9P0M6	140.66
Q9Y3I0	312.97
O75417	0.65
Q9NVV0	11.55
Q9NVV4	2.84
Q9NVV5	13.31
O00515	92.05
Q6DN90	6.94
Q96S19	24.96
O95292	144.86
O95294	4.17
O95295	88.39
O95297	25.83
O95298	145.62
O95299	202.79
P01033	32.42
P01034	190.21
Q9Y4E5	1.55
Q9Y4E6	1.15
Q8TCD5	112.45
Q9Y4E1	1.3
Q6YHK3	37.17
Q9Y4E8	13.37
P08519	0.75
Q13033	12.92
Q8IVE3	1.12
Q8TE77	10.29
Q8TE73	0.36
Q8N335	151.55
Q8N442	2.53
Q86U06	3.85
P46063	122.73
P46060	82.76
P42765	443.52
P42766	425.95
Q9NPH2	107.64
Q9NPH3	17.23
Q8TC12	106.15
Q96JM7	6.38
P18124	681.2
Q9UI15	25.07
Q9UI14	9.1
Q9UI10	45.68
Q9UI12	36.97
P24666	364.35
Q6UWR7	3.74
Q9HCP0	3.87
O43681	96.83
O43684	171.87
O43687	81.91
Q14019	412.27
P60763	8.79
Q14012	13.63
Q14011	221.58
Q9HA65	7.75
Q9HA64	38.21
O14929	15.17
Q9GZS3	89.49
O14925	8.56
O14924	1.2
O14920	4.34
Q9ULZ3	112.9
P34925	2.78
Q96FJ2	254.05
O60237	10.21
O60234	55.89
O60232	8.75
O60231	1.57
Q60I27	1.74
Q9NT99	2.46
Q9Y2J8	12.43
Q9Y2J2	52.92
P47813	319.5
Q9Y2J4	2.19
Q8N1Q1	25.52
Q9UHX1	200.76
Q15691	381.91
Q15696	9.71
Q15697	4.04
Q8TBC3	17.22
Q8TBC4	21.73
Q8TBC5	3.43
Q63HN8	2.86
Q15526	5.63
P25325	418.91
P49888	315.47
P01859	962.61
Q13596	146.26
Q13595	109.17
P13807	40.35
P13804	610.36
P01857	4405.98
Q9UBN7	15.72
Q9UBN6	4.49
O00217	229.77
Q96BN8	4.66
P48681	115.38
Q7Z3Y7	3.71
Q9NV35	10.09
Q9NV31	42.98
Q9NQ48	16.29
O95352	16.86
O95359	1.82
Q9BV44	3.29
Q9UQ35	3.13
Q9UJ83	2.95
Q6EEV4	24.83
Q9Y639	126.94
Q12979	25.02
Q86XN6	4.28
Q12972	39.05
P29323	9.59
P62837	67.34
P62834	510.11
P25815	72.24
Q04446	28.01
Q9UIC8	24.47
Q56VL3	99.7
P09234	53.99
Q96CT7	79.97
Q969H8	419.71
Q9BZZ5	175.07
P00519	6.11
Q7Z4P5	4.0
P08729	3.66
P02008	624.58
P08727	310.86
Q9UKY7	123.68
Q96QR8	101.7
Q9GZN8	29.21
Q96QR1	223.15
P43487	257.84
Q07866	97.78
Q07864	0.72
Q9NRW1	8.01
Q6P1L8	47.11
P35637	189.84
P42574	71.31
Q92572	86.42
Q92574	1.45
Q92575	59.54
Q9HAU0	7.37
P42685	3.22
P08185	29.12
P02461	115.21
P08183	2.66
Q5JSH3	5.56
Q96HD9	138.57
Q9UPA5	0.9
Q9P260	4.19
Q96HD1	4.13
Q9UPN3	5.38
Q9Y3R5	1.45
Q13207	2.5
O75191	45.04
Q86WV6	8.9
P11233	294.87
Q9BWV7	2.79
P63000	604.17
P11234	264.77
Q8N163	167.92
P07988	4.46
Q15758	6.64
Q15751	0.35
Q15750	6.87
Q99549	1.93
Q9NYJ1	18.53
Q99547	9.87
Q9UG01	0.95
Q53TJ8	9.47
Q96RP9	18.0
P10745	1.39
P21953	4.36
Q8N5B7	4.11
P07327	103.67
Q9NX20	19.81
Q02153	47.94
Q9NX24	120.11
Q5TEZ5	4.87
Q5SZQ8	3.72
Q96CW5	10.88
P13498	44.69
Q03154	302.9
P10619	300.01
Q03403	39.45
Q9NZH5	8.42
Q9NZH0	4.19
Q8NI60	10.44
Q14802	101.38
O14772	8.46
O14773	177.86
O14776	62.15
Q9UJW0	32.3
P50479	63.67
Q13618	65.47
P56134	172.03
P16157	5.46
Q9NUN7	5.95
Q9BR77	6.53
Q9BR76	214.71
Q658Y4	10.0
Q9ULE6	19.41
P04626	5.45
Q9P2Q2	1.63
Q9BTT0	134.63
Q9BTT6	9.51
Q71U36	4506.65
O60828	18.49
P30038	73.03
B2RPK0	302.21
Q9Y2Q0	2.86
Q9Y2Q5	41.71
Q59GN2	118.82
Q8N8V4	28.21
Q9P0K9	10.08
Q9P0K8	6.02
P13637	20.17
Q96EY8	13.72
P18859	432.69
Q96EY4	15.74
Q96EY5	6.53
Q96EY7	23.91
P13639	1030.32
Q96EY1	10.73
Q9P0K7	37.55
Q6IQ23	1.48
Q6IQ22	55.14
P78417	735.85
Q8IY63	1.76
P78413	3.45
Q8IY67	23.52
Q9UM47	0.77
P28799	5.91
Q2M389	20.65
P35612	11.61
Q15036	7.1
Q6PDB4	2.81
O00534	49.95
Q15031	16.58
O15164	8.04
O15162	21.43
O15160	28.71
O15169	1.96
Q8TCF1	6.1
Q9Y4K4	3.95
Q6P087	14.65
Q9Y4K3	6.31
Q8TE59	1.4
Q9Y4K1	1.99
Q5JPE7	10.78
Q96I51	3.76
P62993	178.83
P62995	167.37
Q92747	194.28
Q86U28	34.2
Q6P1N9	55.89
Q9NPJ3	87.88
Q99959	40.49
Q9BSA4	15.98
Q9UI36	33.42
Q04656	1.15
Q9UI30	185.19
Q6UWP7	11.52
Q7L5D6	15.44
Q6UWP2	471.07
O75691	0.59
Q14258	113.79
Q7Z6K5	90.36
O75695	42.64
Q14254	91.79
Q14257	25.47
Q02388	0.64
P27338	415.51
Q8IU81	27.4
Q8IU80	2.09
Q8IU85	4.38
Q8N6S5	15.22
Q68CP9	0.95
Q9H3U5	3.67
Q9H3U1	61.95
P49189	380.51
Q6UUV9	8.37
O14786	16.39
Q14789	15.48
O14907	54.7
Q8N7U6	2.0
Q9NUQ8	2.36
Q9NUQ9	219.77
Q9NUQ6	24.34
Q9NUQ7	7.05
Q9NUQ2	17.86
O14908	26.05
Q5T447	42.55
Q16787	6.66
P15090	89.32
O75037	1.03
P49458	315.75
P49459	10.85
O75038	1.21
Q86Y82	89.04
O60216	68.12
O60218	52.14
Q8N1S5	10.61
P42229	22.79
Q9UNF1	57.83
Q9UNF0	124.68
Q13416	2.85
Q13415	3.86
Q7Z2W4	14.81
Q7Z2W9	16.46
Q13418	200.9
P14410	411.59
P11171	19.36
P11172	32.37
P11177	268.09
P63218	128.33
P20962	1335.74
A8MT19	2.85
P01876	179.56
P01877	25.71
Q68J44	7.41
Q13574	1.51
Q6AZY7	181.66
Q13576	69.69
Q6TFL3	1.23
Q13572	20.58
Q8NE71	74.4
Q9BWM7	401.96
O00231	162.24
O00232	60.35
O00233	220.68
P05023	595.58
P05026	235.7
P55327	208.46
Q9BSW2	8.24
Q8TBA6	13.57
Q9BYJ9	21.6
Q96AP7	9.12
P31040	333.3
P18440	27.7
O95379	48.99
Q6ZVM7	6.76
O95373	106.86
O95372	174.63
Q9BV40	131.36
Q6XE24	11.78
Q9Y657	88.83
Q86UD0	4.41
Q86UD1	6.12
Q12959	43.0
Q9NXW2	4.49
Q5TEA6	4.82
Q12955	3.52
P62851	437.36
P18621	465.22
P62854	72.15
P62857	910.23
Q14966	5.96
Q96CV9	56.98
Q8N6N7	19.18
Q92882	86.85
Q969N2	37.16
Q92887	6.47
P09210	146.37
P09211	2122.97
Q92888	16.5
P51808	14.38
P51809	7.53
Q9Y6X5	10.91
Q8TAA3	52.67
Q9Y6X9	1.59
Q5JRX3	33.59
P02790	156.29
Q3SXM5	5.08
P02792	131.34
P02794	256.61
P04083	664.65
P04080	927.29
Q9UKW4	3.84
O95954	28.69
Q9GZL7	3.94
Q9P2R3	55.59
P46459	150.08
P35613	53.41
Q8N766	40.33
P35611	276.08
P35346	9.58
P35348	7.3
O76094	85.59
Q96FZ7	79.97
Q6P1N0	18.05
Q9NRU3	1.8
P32969	515.44
Q5JTV8	36.86
Q7LBC6	1.96
Q92556	2.24
O00754	14.86
Q92551	3.74
Q92552	19.72
P23327	4.68
O75208	84.63
P30838	3.73
P30837	567.99
P28161	386.65
Q6PJG6	2.13
Q96SC8	3.52
Q09666	328.11
Q9UMD9	3.75
Q9H267	10.64
Q14444	93.47
Q9P2R7	93.32
Q8WU68	7.3
P25490	4.2
Q9H269	35.7
P63027	400.47
P14625	1440.08
Q8NET4	2.6
Q9Y3P9	16.97
O43583	187.04
Q8N103	4.65
O95571	269.53
O95573	37.37
Q9H5Y7	1.97
Q8WUM4	385.33
Q8WUM0	23.3
Q99567	38.22
Q9BQB6	20.6
Q99569	2.85
Q96RN5	6.49
Q8N3J3	5.38
P22059	98.72
Q5K651	2.04
Q9UG63	7.9
P08754	143.65
Q8IXH7	11.34
P29622	42.56
Q9NX40	163.17
Q9NX46	67.51
Q9NX47	18.04
Q8IUH3	3.51
P07305	702.19
Q49A26	68.23
P60827	6.78
P10636	26.18
Q6P996	119.14
Q9HC98	10.52
Q9UI08	105.23
P15289	24.53
Q01995	4917.45
P62081	882.77
Q96F85	151.08
Q96F86	6.7
P50454	1484.23
Q96A35	22.62
Q96L21	168.52
P50452	13.17
P50453	208.18
Q9NR63	3.27
Q8NF37	9.53
Q9UH99	119.27
Q9NUL5	17.02
Q6ZRQ5	1.32
Q9ULC3	119.77
P34931	88.07
Q96C57	13.33
Q9ULC4	301.53
Q9ULC5	427.58
P51149	983.47
P51148	447.89
Q9Y2S6	425.29
Q9Y2S7	31.28
Q9Y2S2	493.16
O60841	50.06
P30050	632.42
P11940	279.05
Q9UMY1	12.77
Q9P0I2	31.35
P55795	57.19
O15212	141.67
P13611	67.51
Q5JXM2	4.54
Q6IQ49	3.78
Q9Y462	2.18
Q9NVZ3	13.26
Q96BQ5	12.18
Q9BUE0	23.81
P20160	6.99
Q5SQ80	2.0
Q15018	32.04
Q15019	597.59
Q96S52	36.55
A5D8V7	2.72
A7MCY6	11.1
Q7L0Y3	11.9
Q96S55	18.23
Q9BTV4	217.63
Q9BTV5	3.36
O15143	192.63
O15144	541.58
O15145	265.09
P45973	261.97
P09681	10.98
Q9Y4I1	1.74
Q8N370	20.95
A6NGQ2	32.82
P21741	60.26
Q92769	162.84
Q86U42	28.68
Q92945	508.62
Q9H898	7.27
Q92766	1.04
Q86U44	11.65
P13591	280.02
Q99798	631.01
Q99973	0.65
Q99795	110.69
Q9H9A5	4.56
Q01469	891.78
Q6UWV6	87.54
Q6PCE3	2.67
P10398	30.57
Q96JI7	1.35
Q9H098	24.14
P16930	133.65
O43172	38.56
Q7Z4H8	105.82
O43175	560.3
Q8IWZ3	0.7
Q14050	2.95
Q86Z14	3.14
P11387	118.0
Q4G0W2	10.25
O14964	15.25
O43399	304.05
O43396	192.18
O43395	29.07
O43390	420.95
Q2TAA2	61.25
Q2TAA5	6.75
P09874	350.44
Q2TAA8	2.45
P09871	14.7
P11388	6.46
Q7Z7A4	2.89
Q7Z7A1	0.7
Q96FN4	12.28
Q53SF7	2.85
O60271	35.97
Q8IWU2	1.14
Q9GZU7	6.43
P26006	16.11
A6NIH7	20.03
Q96PQ1	2.89
Q96PQ0	1.47
Q8WXX5	113.03
Q15654	7.47
Q15651	105.65
Q7Z2Y8	1.35
Q13438	2.49
Q13439	7.91
O95490	12.65
O95497	3.29
P63279	469.36
Q6DD88	99.27
P11117	34.97
Q92879	54.11
P0C7W6	12.1
Q13557	116.62
Q13555	9.0
Q13554	15.51
O95721	149.11
D6RIA3	1.98
Q96GD0	53.33
P36980	6.13
Q9NWY4	19.05
Q3SY69	3.69
P37059	52.68
Q6PD62	8.44
P50151	26.07
Q96BJ8	2.31
Q13882	3.62
Q13885	1678.46
Q13884	35.58
P33240	27.73
P33241	35.35
Q96BJ3	10.73
Q9NQ84	23.38
P29279	9.86
P48643	547.68
P51790	4.13
P51793	4.42
Q9NV70	25.78
P18428	7.04
Q9NQS7	1.78
Q12931	150.05
Q9Y678	338.28
Q12934	2.52
Q9BV23	9.8
Q9Y676	12.78
Q9Y673	20.33
Q9UBB6	4.76
Q9UBB5	8.68
Q9UBB4	21.07
A8K7I4	1828.97
P23467	0.84
Q9UBB9	1.94
P62879	196.22
Q8IYA6	2.25
P62873	527.62
Q9Y4C1	1.27
P62877	15.3
Q96CX2	394.57
Q969L2	19.64
P02042	362.65
Q8TAG9	2.0
Q8NGU9	4.05
Q6AHZ1	1.13
P46439	36.58
P63208	322.12
Q9H1H9	3.71
P09093	318.45
Q9BRR6	6.94
Q8NFV4	173.25
Q8WYK0	3.03
Q5VV41	2.34
O76038	123.1
P27986	11.23
P27987	3.67
P27635	679.39
Q9P2H5	1.66
O75223	357.61
Q7Z5B4	9.14
Q9NTM9	6.4
Q5JSL3	0.79
Q9UKU7	50.01
Q8N0Z3	1.95
P06213	2.4
Q9UKU0	4.83
Q8NI08	7.08
Q9UKU9	3.29
Q8TB72	3.29
P14649	354.78
Q8N126	4.34
Q8N122	1.26
P32322	45.04
P32321	197.05
Q8N9U0	13.59
P05546	19.75
O43731	7.5
P26583	1328.5
Q7L8C5	4.01
P0CG29	20.48
O95551	18.36
Q86X29	18.4
Q99584	196.48
P61513	164.51
P03973	13.11
Q96HH4	5.59
P60468	169.48
P82663	93.37
P11586	258.91
Q9Y5H7	1.84
Q8NDH3	13.45
Q8IXJ6	8.7
P38919	172.31
P21912	219.71
Q9NX61	3.5
Q9NX62	4.86
Q9NX63	308.82
Q16352	345.86
P62318	202.45
P62316	458.2
P62314	381.8
P62312	329.22
P62310	63.43
P61758	124.34
Q9HD45	35.97
Q9BRF8	73.97
Q8NI28	8.42
Q9HD42	51.92
Q86WI1	0.4
Q14847	657.3
P23528	3593.54
Q8NI22	22.92
Q9NZD8	5.37
O14735	87.77
O14737	236.66
O14732	23.99
P22466	14.12
O95716	100.62
A6NEQ2	4.4
Q96DY2	3.59
Q66GS9	4.22
Q9NR45	167.74
Q9NR46	29.9
Q8NF50	0.79
Q8NCM8	0.76
P84098	512.25
Q6IA69	18.95
Q5BVD1	15.46
Q9UGM5	22.33
Q9NUJ1	83.02
P84090	275.78
P84095	317.31
Q9UJY5	5.34
Q9ULA0	82.4
Q96KP4	639.35
Q96KP1	21.66
Q15468	1.31
Q96A33	73.95
P13987	225.22
P13984	33.09
P29803	17.5
O60869	195.06
Q96EE3	61.58
Q04837	402.62
P13671	14.34
P13674	184.59
Q13459	2.31
P52306	76.47
P02458	6.62
P02452	350.11
Q15070	15.47
Q8N2K0	16.66
Q15075	116.76
P17600	5.07
O95239	4.03
Q9UM00	53.22
O95232	25.55
Q9H7E9	15.03
P51161	143.76
Q6L8Q7	22.31
O15120	30.38
O15121	24.8
O15126	74.3
O15127	87.12
Q9BTX1	2.46
Q8N350	2.48
Q8N357	9.34
Q8WVC6	49.52
P24539	487.27
Q9Y446	66.86
Q9Y333	416.03
Q9H2U1	1.64
Q9H2U2	302.13
Q92925	22.31
Q8N4Q0	28.07
Q8N4Q1	11.74
Q04695	46.85
Q9P121	4.95
Q9UGJ1	2.47
P00326	56.53
P00325	160.23
P35790	3.59
Q9BXI3	4.58
Q9BXI6	3.29
P43155	92.77
O43159	3.7
O43156	1.54
Q709F0	6.46
P46379	26.74
P42704	216.48
O60783	12.41
O60784	69.8
Q9BSM1	6.19
O14949	322.32
Q9UFH2	0.37
O60256	100.96
Q13183	2.92
Q13185	406.12
Q13188	10.01
Q9H9B4	168.74
Q8IZU3	6.77
Q6P158	1.21
Q9H9B1	9.29
Q4LE39	1.27
P34932	221.01
Q8IWW6	1.95
P26022	40.27
Q96MM6	69.48
Q9UHR4	9.91
O75886	9.69
Q15672	8.96
P98196	1.45
Q13451	44.01
Q5VT25	4.76
Q15582	430.06
Q96M86	0.35
Q96GF1	9.18
Q13530	3.57
Q13536	10.9
P13866	71.55
P13861	189.81
P48729	19.31
P48728	12.82
P48723	7.23
P31937	164.8
P31930	360.32
Q3SY84	3.28
P31939	491.23
Q6UXV4	173.91
P33260	6.74
A6NHL2	7.53
P19835	454.62
Q9BYV7	2.86
Q9BYV1	16.43
Q9NV56	16.76
Q14980	363.4
P19838	17.83
Q8TBM8	13.25
P12111	947.1
P12110	477.42
Q96AT9	45.21
Q86UE8	6.43
Q96AT1	43.02
Q05C16	5.66
Q9UQ90	8.51
Q86W92	13.18
Q7Z5J1	5.48
Q9UMY4	380.78
Q9C037	3.27
Q12912	6.05
Q12913	1.29
Q9BTC0	1.54
P03915	14.01
Q969R2	1.85
P09525	2339.68
Q9NXH8	4.0
O75083	658.28
Q86WR0	15.35
Q8TAE8	7.4
P07585	1412.88
Q8TAE6	21.05
Q6PKC3	1.7
Q6P1J9	24.8
Q6P1J6	3.46
P20645	12.12
Q562E7	1.77
Q6NZI2	419.04
Q9P2J5	86.6
Q5TA45	11.1
P28340	13.67
P28347	11.75
A8TX70	0.65
Q92599	60.63
Q7Z5L9	30.78
O14983	23.85
Q86VP6	309.87
Q6ZMG9	4.18
Q86VP3	7.69
Q92597	232.39
P08697	27.54
P30876	63.12
P30872	4.4
Q9NRG9	9.46
P20393	5.62
Q9UKS6	58.1
Q8N0X7	7.74
Q8N0X4	25.14
Q8NEH6	15.5
Q9NP55	21.09
Q9Y3T9	22.12
P67775	306.05
Q8TEA8	24.05
Q99614	5.6
Q99615	39.93
Q8TEA7	1.87
Q99613	162.24
Q6PI48	45.96
P51812	76.26
Q6PI47	4.02
P0CG01	9.29
P0CG05	4689.64
O15480	4.79
O15484	33.37
Q8WVV4	107.62
P46782	484.41
Q8IV08	168.23
Q9NYL2	2.06
Q9NYL4	135.49
Q9NYL9	175.51
A6NM28	4.1
Q14156	12.13
Q14157	27.88
Q14154	3.36
Q14155	27.13
Q14152	180.41
Q14151	48.93
Q14409	74.39
P21281	236.02
Q9Y5J9	20.1
P21283	51.29
P02786	95.16
Q9Y5J1	9.09
Q9Y5J3	11.52
Q9Y5J7	90.49
P19338	980.6
O43451	2.69
P19623	94.4
P16104	111.61
Q96JP5	5.92
Q96JP0	5.47
Q96JP2	35.96
P62330	261.87
P62333	178.58
Q96JP9	2.01
P13796	342.03
Q9UD71	24.54
P13797	143.23
Q9NZB2	57.01
Q9UDY2	60.29
Q9UDY8	8.14
Q8N5P1	5.59
Q96A72	347.89
Q96A73	11.3
P45974	213.73
P36537	3.09
Q8IXL7	18.14
Q13608	3.61
Q9NR28	214.6
Q53EL6	152.48
Q96KR6	9.2
Q96KR1	35.31
Q9UFW8	39.92
Q9HAU5	8.89
Q9P2W9	24.28
A3KMH1	1.75
P13473	33.42
P49720	425.58
P49721	477.03
B7ZAQ6	3.55
Q96C90	70.83
P60866	449.43
Q9BV20	28.78
Q9H6K4	9.39
Q03135	623.86
Q06323	778.14
O60888	88.43
Q8TDB8	3.33
O60885	13.57
P11908	48.62
Q3MJ16	1.92
P50583	55.8
P06753	324.91
P06756	118.16
Q99459	59.04
Q9BUB7	12.97
Q86SF2	19.93
Q96H20	65.07
Q15059	16.53
Q15054	10.96
Q96S97	154.41
Q15056	390.93
Q15057	17.07
Q15052	12.88
O00592	16.02
O95218	15.06
O95219	57.89
O95210	4.81
Q05BV3	0.86
Q9H7C9	154.97
Q9BTZ2	63.59
Q5T280	4.47
Q93052	388.51
Q2M2Z5	2.5
Q93050	44.81
P31327	1292.44
P62937	3806.0
P31323	73.01
Q05D32	10.63
Q9H857	3.09
Q92900	102.71
Q9H2W6	47.39
Q92905	124.95
Q6P2H8	5.94
Q86U86	5.84
Q92908	3.13
Q70EK9	2.35
Q9Y316	11.14
Q9Y315	218.57
P43897	79.6
P15954	155.52
Q9H583	4.65
Q8IYS2	5.43
Q8IYS1	3.93
Q14232	111.43
Q6P2Q9	133.86
P08590	8.56
Q9BXK5	10.69
P53582	30.42
Q15942	413.78
O43602	7.62
Q68CZ2	16.94
Q5EG05	58.11
Q5EB52	67.72
Q8IY42	5.57
P35442	1.44
A1L020	10.4
P20073	156.7
P49821	151.53
O75054	1.39
Q92947	27.32
Q6P179	20.4
P19105	1119.66
A6NFI3	1.73
P54727	100.06
Q13477	28.06
O95456	34.3
O95455	4.67
O95453	5.11
O95450	1.39
Q99424	17.11
Q99426	302.42
P61457	78.26
P42858	2.16
Q9HAN9	17.65
Q9UHK6	35.45
Q02410	2.02
Q13510	433.17
P48745	4.8
Q9UHP6	4.87
Q96PU5	11.75
Q96PU4	2.09
Q96PU8	64.81
P80217	5.95
P34896	24.77
P34897	100.63
Q6XZF7	1.06
Q9BYT8	4.66
Q16143	118.31
Q16637	5.9
Q16630	107.85
P09960	300.9
P47985	145.61
P47989	156.49
Q9NQW8	2.04
Q9NQW7	171.92
O00291	33.94
Q9UQF2	2.42
Q08380	333.49
Q9UBF2	38.48
O00299	1304.54
Q9UBF6	14.81
P56182	10.66
Q969P6	10.75
P51648	20.55
P51649	105.05
O60437	21.1
P25092	1.52
P34096	11.15
P49918	5.84
P25098	11.8
P49916	28.28
P49915	119.96
P49914	56.53
P49910	3.37
Q8NFZ4	2.07
P0C0L5	0.97
P0C0L4	34.1
Q00653	5.82
P05198	213.24
Q8N807	14.09
Q01658	28.98
P08107	863.32
P00488	106.01
P23381	247.29
Q66PJ3	24.46
Q15907	99.7
O75915	112.96
P16562	13.78
P00480	315.11
O75264	313.78
P61421	69.86
Q9NTI5	71.86
P01286	30.18
P01282	9.8
Q96SI9	25.5
P43405	39.09
O60826	47.78
Q13283	140.42
Q9Y3Z3	244.52
Q69YQ0	1.51
Q99633	4.71
Q8TB36	18.17
Q8TB37	27.55
O60825	6.42
P62745	33.96
Q9UH36	4.87
Q8WX93	113.52
Q8WX92	22.87
Q14392	2.61
Q8WX94	1.68
P22033	83.59
O43292	5.55
O43291	6.65
O43290	39.54
O43295	1.51
O43294	37.7
Q9NYB0	25.46
P00156	4.4
Q8IUR0	54.22
Q8IUR7	2.49
P15153	61.35
P15151	45.6
P49354	25.38
Q7L5Y1	18.86
Q16822	525.77
Q6UWM9	37.41
Q9UDW3	18.81
Q9UDW1	51.4
Q96DE0	150.09
Q96A57	14.24
P36551	63.66
Q9Y5L0	30.64
Q86YV5	1.26
Q9Y5L4	268.31
Q8NDL9	1.93
Q8N7H5	12.53
Q9BPX6	20.73
P30520	37.49
P49746	1.8
P49747	4.53
P49748	306.85
Q15428	57.2
Q9ULM0	1.24
Q9ULM3	1.25
Q15424	113.45
Q15427	8.46
Q8ND71	5.02
Q8ND76	19.1
Q9HCC0	131.68
Q9BRJ6	59.54
Q9BRJ7	80.48
Q9BRJ2	26.56
P60842	614.48
Q9HCC9	1.95
Q8N8N7	24.39
Q8TDD1	1.9
P06732	13.07
P55081	46.99
P06730	149.67
P55083	52.45
P55084	347.85
P06737	50.27
P55735	179.67
O14966	73.0
Q96NW4	1.61
Q8NCA5	16.95
Q9NR09	0.35
Q8NF91	1.67
P57772	51.77
Q8N2G8	3.27
O95274	5.22
Q96H40	3.5
P55884	188.87
Q8NHH9	31.19
Q86V15	0.99
Q7Z5J4	0.92
Q93075	4.42
Q93077	1837.57
P28066	355.57
P28065	64.59
P28062	247.5
P62910	461.85
P62913	296.77
Q03518	15.07
P62917	428.92
Q9Y487	3.83
Q9BT17	5.04
Q9H832	39.32
Q9H2Y9	2.04
P10253	99.86
A8K0Z3	14.93
Q00796	441.06
Q9Y371	41.43
Q9Y376	127.19
Q8IYL3	7.23
Q96AM1	39.36
Q6NT89	8.0
Q8N4U5	6.47
Q9BXU1	1.62
Q8IYQ7	9.04
P00367	697.46
Q9Y3D6	166.33
Q8IVS8	10.2
Q9Y3D2	28.84
Q6ZWB6	7.16
O60749	260.19
P23246	641.28
P51610	42.29
Q9GZY8	9.77
Q6ZUX7	7.67
Q8WZ82	15.38
P82094	4.59
Q8IZQ5	111.69
Q9H307	64.44
Q9H3H3	54.93
O60299	7.85
P52701	50.4
Q5TA31	21.51
Q8IWS0	4.55
O43660	16.42
P61923	316.16
P61927	16.95
P10809	2242.56
P40818	7.36
Q15637	96.2
Q15631	444.74
O95479	179.59
O95470	76.87
P54709	309.92
Q13492	74.33
O95476	6.62
P32119	1990.4
O95782	169.4
Q6ZNB6	1.85
O95786	3.52
P50281	8.55
P36969	211.75
P48764	2.02
O60493	480.51
Q9NY27	32.04
P19784	72.92
Q9UHV9	518.96
Q68EN5	3.51
Q96MI9	1.56
P33992	82.17
P33993	106.26
P33991	79.75
Q06828	147.89
Q96IZ0	10.27
Q9NV96	9.23
P00395	9.88
Q9NX58	4.31
P60981	690.14
P60983	236.0
Q9BQ70	2.45
P41567	14.75
O14896	10.61
Q7Z6L0	5.37
P22830	58.86
P61586	871.45
P50750	8.78
Q8WUY8	8.68
Q16610	12.38
Q9H0D6	29.41
Q9NQU5	7.53
Q2KHR3	0.99
Q13435	168.65
Q9UBX5	93.57
Q14C86	6.83
Q9UBX3	126.08
P50135	73.33
Q6UXZ4	5.32
P23634	102.13
P51888	12.86
P51665	182.62
P51668	79.19
Q969V3	68.6
P03952	5.26
Q9NSK0	120.4
Q9NSK7	11.53
Q96IU4	344.61
Q08AF3	7.43
P27824	672.69
O75607	19.42
Q6PKG0	12.17
Q5VYS8	1.1
P83916	333.23
Q8IZ21	2.4
Q00325	379.43
O00410	170.15
O00411	5.42
Q96T51	14.12
Q14554	88.25
Q9P2N2	4.58
Q96T58	0.47
Q5XKP0	43.05
Q9NTK5	125.93
Q5T0D9	6.22
P60510	42.83
P06276	8.24
Q96SK2	2.98
P46109	94.53
P46108	210.96
P09486	103.04
Q99653	50.18
A6NJT0	10.49
Q99873	199.06
O00468	50.15
Q9Y3X0	6.29
P42330	5.1
Q8N183	104.05
Q96P44	5.67
Q9UL54	2.72
Q96P48	24.32
P09382	2973.75
P0CG43	12.98
O75937	258.04
O75935	115.61
O75934	93.44
Q14376	279.65
P43686	194.3
Q9BTA9	7.97
Q02241	1.71
P27216	1543.28
Q5SYE7	1.1
O43278	22.51
Q8N983	8.02
Q9UNS2	58.85
Q96RF0	27.26
O43272	127.05
Q9UEY8	111.52
O43504	58.61
Q96HN2	2.81
Q14118	17.35
Q14112	83.2
Q14116	16.83
Q14117	3.32
P16144	5.57
P02100	127.51
Q16849	1.77
P15170	50.53
O43414	30.26
Q6NW34	2.91
Q6PML9	8.87
P82970	17.87
P20849	2.04
P82979	214.23
Q96DG6	341.51
Q96F07	26.58
P36578	397.71
P63173	571.36
P63172	75.42
Q9BST9	3.0
Q86YP4	16.56
Q5PRF9	2.49
P49768	14.26
Q9ULK4	6.0
Q15404	250.11
Q96A26	108.3
P13929	75.95
P13928	5.09
O00629	61.65
P40227	459.64
P13693	373.82
Q13724	167.55
P59665	73.65
P84077	1116.18
Q9NUD5	17.22
P84074	83.75
Q9BUF5	165.75
Q9BUF7	73.06
Q69YN2	12.39
Q69YN4	2.79
Q06587	4.43
O95255	1.14
Q96GY0	37.47
Q9HB07	61.94
Q9BW83	18.34
Q9HB09	5.1
Q00403	16.18
P18583	30.61
P38571	74.43
P62979	167.27
Q04323	45.09
A0AVT1	106.67
Q6WCQ1	8.06
Q9BVL2	15.42
Q9H814	4.23
Q96AC6	2.08
Q96AC1	332.89
Q86UQ4	1.96
Q9UFN0	171.54
A0AV96	23.44
Q9BXW7	72.98
Q9BXW6	3.46
P43146	1.19
P51797	3.86
O75891	140.63
P78563	2.33
P78560	16.52
Q92633	9.14
Q9NQ88	18.74
P23229	29.67
Q5TDH0	50.62
Q8IWB7	8.11
O60762	95.07
O60763	165.37
Q9BSK1	3.42
Q9BSK2	5.31
Q15185	341.54
Q15181	299.04
P13994	4.19
P17844	146.67
P20036	31.96
Q86TU7	13.96
P25774	45.08
Q2TAY7	32.64
Q5TA50	7.71
Q8NFC6	2.84
Q13126	222.48
O75093	4.47
Q32M45	5.06
Q13123	45.81
Q9NRF8	45.75
Q9NRF9	22.28
Q53GL7	1.71
Q562R1	236.99
Q17RS7	1.83
Q641Q2	5.1
Q9UNX3	522.44
Q9UNX4	1.77
P54098	1.35
P54760	8.67
Q9HAB8	110.47
Q03426	8.85
Q99460	156.17
P26885	216.03
Q5VXU9	1.14
P40763	130.09
Q70E73	1.39
P24821	101.37
Q6UN15	22.59
P16083	7.25
P62491	546.66
P61619	194.05
P62495	42.14
Q9BUR5	50.57
P36639	16.68
Q9BQ52	8.15
Q16186	22.28
P62140	212.13
Q16181	537.37
P12429	573.14
Q9UPR5	1.87
Q9UPR6	1.85
Q96B97	5.14
Q9UPR0	4.48
Q96M27	40.22
P09923	39.67
Q96HS1	23.47
Q7Z478	14.52
Q9BX40	8.93
Q9H0B6	5.45
Q6YN16	119.99
Q9BV29	9.09
Q9NXA8	22.17
Q2KHT4	4.79
Q7Z3E5	6.14
Q7L523	20.55
Q7Z3E1	2.46
Q7Z3E2	3.62
Q96J92	4.18
Q6UXX5	1.31
Q96D71	17.34
Q96J94	1.9
Q9Y6R7	396.97
P51608	53.72
Q9BZV1	7.55
Q7Z4H3	40.15
P51606	69.23
P22087	289.09
Q08AD1	1.12
P17066	5.29
P49959	37.29
Q00341	228.37
Q00610	906.67
P78358	10.44
O76031	13.57
P35813	26.55
P78356	11.89
Q5T1V6	2.73
P78352	2.33
Q5SRE5	2.87
Q5SRE7	11.59
O00479	118.14
Q15375	1.68
Q96T76	29.84
O00471	20.65
Q15370	343.23
O15085	1.12
O15084	3.33
O15083	5.1
P09543	102.64
P08631	6.3
Q96SM3	9.2
P32455	99.53
P32456	33.53
Q9UKM9	445.49
Q9UKM7	2.36
Q4V328	7.83
O15217	36.53
Q4L235	1.53
Q86T03	6.37
Q8N9M5	6.93
Q9UIG0	7.69
Q99856	20.91
Q6NYC8	24.88
P28906	23.06
P62701	786.86
P15502	10.97
P18065	64.74
P68431	1316.83
Q7Z5J8	2.32
O75955	79.32
O75954	7.01
Q9BTC8	2.78
Q08379	14.95
Q14353	49.96
Q9H171	4.05
Q9H7Z7	76.13
Q9H7Z6	3.58
O43252	50.38
O43251	4.54
Q09028	82.76
Q9NYF8	86.72
P53602	34.62
P53609	8.87
Q96RD6	2.52
Q96RD7	3.91
Q8WVV9	103.16
P10109	58.11
Q3B8N2	4.74
P17096	546.92
P46783	228.59
Q14139	38.31
P46781	673.42
O43432	2.13
P04632	378.08
Q16864	126.43
Q8WUW1	85.91
Q7Z6Z7	44.82
Q8TCU5	2.99
Q8TCU4	0.81
P20823	2.79
P82912	63.77
P82914	18.88
Q9Y5P6	70.73
Q9Y5P4	13.26
Q13356	6.39
E2RYF6	1.08
Q96DA6	45.08
P63151	65.4
P38646	474.13
Q9P0U4	7.44
P06454	1662.25
Q9ULI4	0.97
Q9ULI0	1.14
O15155	42.4
O15535	12.26
P48047	766.54
O15530	5.95
Q5TAH2	1.46
O95622	1.35
Q9HCG8	5.34
Q9H6Q4	7.08
Q8NHW5	300.61
Q13740	80.78
Q96EM0	4.92
Q5VST9	0.22
P21333	2107.39
Q5VST6	5.83
Q9NUB1	120.43
P30566	61.59
P80511	17.76
Q9NW13	4.38
Q9NW15	9.84
Q5FBB7	2.93
Q8WWQ0	0.91
Q9HB21	8.25
Q6P3W7	7.24
Q8TDH9	8.69
Q07343	2.25
Q6NY19	4.25
P13010	631.32
P09488	489.41
Q9BVJ6	2.13
Q9BVJ7	79.26
Q8NBS9	161.68
Q2PPJ7	2.67
P57739	22.95
P52926	460.34
P57735	103.92
P57737	61.61
Q8TBR7	6.39
Q96AA8	1.98
Q96AA3	3.11
P35716	4.02
Q8IYU8	3.78
Q9C0D5	0.93
Q9C0D3	2.24
Q9Y4W2	18.09
Q8IVW8	3.24
P29992	218.48
Q9Y4W6	99.65
Q8TCJ2	56.14
Q93034	39.23
P24462	3.26
Q92616	69.93
Q92615	2.33
Q92614	28.2
O75569	65.51
Q9BZK7	30.4
O60701	467.63
O60706	1.08
Q9Y6I3	59.19
P78549	5.46
Q9Y6I9	5.49
Q99996	2.07
Q99999	11.55
P42785	100.98
Q01484	19.05
Q9Y450	7.47
O75746	75.37
Q9H9J2	25.02
P68371	561.6
Q9NRD9	1.06
P33151	21.46
Q13107	1.73
P61964	112.93
P61966	60.16
P61960	164.79
P61962	14.48
P52740	2.33
O94817	24.86
O94811	47.56
Q14651	139.02
Q14653	7.96
O94819	45.73
Q14657	25.37
O95433	63.79
Q99442	32.76
Q8TD06	636.81
Q99447	12.85
Q9HAD4	3.63
Q0JRZ9	2.11
A6NL88	3.34
P40925	819.83
P40926	1375.45
Q9NY64	7.39
Q9UHJ6	7.3
Q16473	5.57
P80723	728.33
Q96PK6	227.03
Q8N1G4	183.46
Q8N1G2	5.91
Q8N1G0	1.45
Q9UNZ2	134.25
Q9UNZ5	71.03
Q96ME7	43.56
P11712	3.38
P11717	32.17
Q9BQ39	6.82
Q12765	85.04
P19525	36.3
Q12768	54.55
Q16651	10.31
Q16656	10.52
Q2LD37	0.34
Q16658	675.09
Q96B77	15.09
Q96B70	3.53
Q9NS87	1.17
Q9NS86	18.47
Q9BX66	115.98
Q9BX68	153.21
Q9BX69	1.61
Q5T0Z8	1.51
P80188	108.09
Q9NQY0	18.99
O60942	2.74
Q7L2J0	5.05
P23786	140.02
Q9H5N1	17.73
Q96D15	55.1
Q7Z3K3	8.46
Q53GQ0	290.01
O60494	8.01
P30711	151.16
Q8N5K1	172.11
P01243	52.55
Q15233	838.1
Q96IY1	5.84
O00186	41.57
Q06136	46.71
P13716	98.32
Q12888	30.78
P14927	527.5
Q07889	3.7
Q07666	268.72
P14923	257.33
Q12882	59.01
Q96QV6	5858.6
Q9NRY6	5.93
Q9NRY5	23.7
Q9NRY4	9.91
O00451	3.64
Q2VWA4	1.8
O00459	2.3
O95197	20.01
Q9UL46	795.09
Q9P2B2	110.53
Q9P2B4	10.71
Q9P2B7	3.16
Q9BRS2	5.73
Q969Z0	15.93
Q969Z3	148.19
Q13976	31.97
P02649	223.38
P57058	2.36
P02647	1928.34
Q8N239	5.32
P01591	10.38
Q12769	32.44
Q32P28	119.37
Q9UKK9	262.49
Q9H1B5	1.94
P53999	1174.27
Q9H2G2	39.49
Q9UKK3	3.9
P53990	61.42
O95996	0.77
P53992	88.89
O95994	1316.11
P78371	663.22
Q9HBB8	42.58
Q86T65	1.52
O15357	10.84
Q9Y259	33.19
Q99832	597.94
Q99836	28.26
Q99835	2.17
P15529	17.17
Q14332	2.96
Q86VH4	2.79
Q14331	6.44
P16870	24.74
Q6KC79	1.19
Q9BTE1	65.32
Q9BTE0	8.04
Q9BTE3	5.15
O75976	15.97
Q9BTE7	13.66
Q8N490	4.38
P22090	121.15
Q8N3F0	12.58
O43237	118.04
Q9Y6C9	360.64
Q8N3F8	8.04
Q9NYD6	4.93
P53370	5.26
Q9UEU0	7.04
Q5VU92	3.67
O95071	1.82
O75356	11.86
O75352	21.15
O75351	118.1
Q8IVH2	5.11
Q8IVH4	4.04
Q02930	3.3
Q86X83	82.58
P05543	60.82
P82930	65.9
P82933	28.68
Q14CB8	3.37
P20807	1.99
Q9NXC5	5.72
Q8N129	86.25
Q96F45	9.01
Q96DC8	11.51
P67809	339.83
Q9Y5R8	22.32
Q13371	21.91
Q8IXT5	22.26
P14735	15.92
Q9BV86	22.19
A6NLW8	7.89
Q16222	35.15
P61158	392.52
O95602	0.96
Q9H9Q4	5.63
Q9H9Q2	82.43
Q9HCE5	7.2
Q9HCE6	4.01
Q9HCE7	2.18
Q9HCE1	62.79
Q9BZ11	4.28
Q6ECI4	2.27
O15511	402.8
Q2KJY2	0.84
Q96NY7	41.16
P50053	91.81
Q96EK6	81.47
Q96EK7	1.81
Q96K19	25.2
Q96K17	87.0
P50502	363.53
Q13769	19.14
Q13765	248.99
Q53H12	7.97
P51452	192.61
P16278	153.07
Q9BUJ2	156.94
P62266	451.49
P62263	1338.84
P62269	667.79
P31146	176.68
Q7L311	2.86
Q8NE86	103.64
P10720	32.51
Q9Y2G8	6.22
Q9HB40	288.21
Q08945	85.71
P07195	1153.42
P07197	60.48
P07196	54.96
P09132	104.63
Q9BT73	28.67
Q9Y394	313.86
Q5T5C0	1.47
Q92982	11.49
Q08499	2.06
Q9Y399	22.6
P37840	233.8
Q8TBP0	2.17
Q8TBP6	4.93
P52907	530.54
Q96RL1	7.07
P04183	7.37
P04181	886.17
Q9BXS0	8.7
Q9BXS5	57.98
Q86UU1	3.73
Q86UU0	2.39
Q9BXS9	2.26
Q86UU5	2.82
Q8WZ75	1.75
Q5H9F3	1.03
Q9Y3E1	149.46
Q9C0F0	0.78
Q6UXC1	169.97
Q9NVR2	2.28
O75503	13.58
Q5VT52	1.2
Q8IX12	62.22
Q8IX18	2.12
Q9H3G5	336.36
Q00005	3.63
Q8TAV3	258.13
Q9Y6K5	13.95
Q9BZI7	16.26
Q9Y6K9	3.9
P08263	901.32
A2RRP1	4.9
P05362	64.96
Q96AG3	4.07
P06312	449.19
Q96AG4	252.72
Q13162	375.14
Q9H9L3	4.8
Q9H410	4.69
Q6VY07	21.49
Q3ZCW2	39.57
Q7RTY1	23.56
P61981	729.96
Q96LK0	9.8
E7EW31	1.76
Q9UIV1	17.21
Q6P4F2	9.62
Q17RW2	2.14
O94832	132.54
Q8IW45	56.49
Q8TD26	0.61
Q9HAF1	8.68
Q02543	470.41
Q8TD20	2.8
P12814	882.07
Q04724	2.26
Q04725	2.35
Q04726	4.5
Q2TB90	155.68
Q9H1Y0	5.79
P21810	135.27
Q9HDC9	153.55
P33176	315.07
O43572	2.54
Q9NWM8	15.54
Q9NY47	2.89
Q6PII3	3.48
Q71UM5	158.55
Q14677	82.55
Q14678	3.83
Q14929	2.74
O94763	3.14
O94762	1.73
O94760	724.19
Q12789	1.57
Q12788	6.33
Q96B54	9.17
Q96HW7	6.95
P04406	4375.99
Q9H019	5.88
P30154	2.84
P30153	454.38
O60927	26.92
O60925	39.65
P47902	33.37
P34810	5.02
Q15785	10.87
Q7L2H7	123.73
Q9UQN3	70.71
P07360	42.16
Q9NP59	3.0
Q9NP58	6.0
Q53GS9	74.69
P80303	22.45
Q5T6F2	1.6
Q07065	739.64
Q9Y6V7	27.71
P37108	373.83
Q8N5M9	44.45
P17026	72.47
P17021	2.43
Q8N5M1	17.19
P17028	4.46
A6NNT2	1.5
O76054	16.28
Q6ZTZ1	5.94
P50991	590.13
P50990	582.79
P50993	5.02
P50995	227.91
Q15257	92.37
Q5GLZ8	12.67
Q9H0N5	13.07
Q9H0N0	13.25
Q14541	4.09
P05114	264.31
Q5JTD0	6.08
O76071	34.74
O76070	112.71
O76074	22.54
Q96I25	8.35
Q96I24	131.02
O00303	170.0
Q96T37	31.54
Q15334	13.02
P55259	104.2
Q969X6	2.44
Q13951	69.86
Q969X2	4.93
Q969X1	37.99
Q9UL25	231.42
O95170	2.2
Q9UL26	128.91
Q9H6X2	2.99
Q9BRQ6	21.3
Q5JTZ9	31.5
Q2V2M9	1.18
P52597	127.48
P57076	5.65
Q96SQ9	53.84
Q96NB2	36.29
Q96EV2	5.78
Q96EV8	19.02
O15372	164.63
O15371	152.67
A1X283	14.79
P60033	218.32
P43378	13.81
P78310	9.38
Q9Y275	6.02
Q9Y277	275.67
P78318	33.52
Q8NI27	10.28
P22307	270.61
Q8N9I5	4.64
Q8ND30	1.91
Q01523	55.95
Q01524	68.45
P00403	352.64
Q14318	29.5
Q6ZMM2	3.61
Q13523	27.29
Q14315	331.72
P21579	7.9
O43815	13.08
P08670	4309.33
O43813	99.54
P01889	55.7
O43819	18.9
O43818	28.98
O43745	33.46
O43747	100.74
O43741	6.2
Q9NVA2	254.74
Q92797	17.3
Q92794	0.83
Q92793	1.42
Q92791	11.18
O96013	26.38
Q9UL40	5.7
P04792	2052.7
Q9NZD2	31.5
P11166	38.2
Q9Y3B7	63.57
Q9Y3B4	141.65
Q9Y3B2	8.76
Q9Y3B3	283.53
Q9Y3B8	56.0
Q9Y3B9	5.97
Q99814	1.95
Q8NEB9	3.7
Q99816	47.01
Q8TEW8	2.84
P42356	11.37
Q99819	7.48
Q9H061	122.15
P46527	8.51
Q6UWE0	4.49
P23434	79.56
Q9BQT9	1.77
Q8IVN8	6.34
Q02952	259.93
Q8IXV7	4.99
Q99766	22.66
P98095	10.39
Q13310	47.76
Q13315	0.54
Q9Y5T5	4.01
Q8N612	3.56
P04899	589.67
P06493	77.12
P17252	29.37
Q8IZD4	2.77
P13942	2.19
Q9BZ72	2.52
Q8NC44	3.25
Q9HCK4	2.48
P55008	157.42
Q8WXI7	0.16
Q8WXI4	32.91
Q96K30	6.56
Q96EI5	30.48
Q9UN36	27.62
Q9UN37	38.41
Q9BUH6	60.75
P19971	11.28
P22681	1.89
Q08828	3.04
Q8NCY6	4.56
Q16204	70.49
P62241	853.54
P62244	759.37
P62249	559.63
Q9H1B7	9.09
Q8WWM7	18.22
Q8WWM9	228.14
O95999	28.62
Q9Y2A7	142.92
Q9BVV7	13.32
Q9H2A2	3.52
P09110	114.49
Q03591	9.98
Q5T2W1	85.48
Q9NVD7	124.49
Q9BYG3	10.98
Q8NBU5	23.05
Q9BT92	3.08
Q99081	5.15
O14562	67.52
Q9NNW7	16.62
Q86UW7	1.27
P35754	79.75
P34913	464.93
Q10567	206.42
O15355	66.54
A6NGG8	1.34
P78504	1.4
Q08211	342.44
O75528	3.84
Q9Y512	79.5
O75525	4.84
O75832	253.73
P78509	0.48
O75830	4.07
Q9Y6M9	490.39
P11310	157.23
P08240	29.59
Q6V0I7	1.04
Q8TAT6	35.84
Q9Y6M1	275.53
P08246	32.93
Q9Y6M5	3.4
P62136	405.56
P17538	94.35
P17535	5.34
O95819	6.61
Q96AE4	319.7
O95817	6.1
O95810	191.11
Q9H479	400.51
Q13148	83.96
Q13144	9.35
O75781	49.1
Q8NFI4	4.54
O75783	3.89
Q9H477	143.02
O75787	4.81
P52788	118.33
P52789	1.83
Q9P291	3.82
Q8N6C5	22.7
Q8N573	3.83
Q9P299	7.98
P62888	940.27
Q8TBN0	8.81
P43121	251.8
Q58FF6	6.45
Q58FF7	118.2
Q58FF3	77.82
Q99487	17.06
Q9BZH6	8.24
P08294	108.98
O94855	76.45
P42658	1.92
P05771	4.89
P12830	52.03
P26358	4.1
Q02747	15.16
P24844	729.41
P07954	285.32
P12955	251.35
P07951	863.31
O43556	3.77
Q6QNY0	8.84
P46952	28.85
Q9UHN6	1.22
Q14699	80.31
Q14694	36.64
Q14697	567.63
Q14696	86.43
Q14690	7.2
Q14692	1.29
Q9BYZ8	298.78
Q16695	3596.99
O14818	451.24
Q16698	437.42
Q9NTG7	12.93
Q9UPT5	47.3
Q96HY7	1.82
Q96HY6	36.92
P04424	130.89
Q3MHD2	77.89
O60306	32.89
Q9NQR4	478.63
Q9NXG2	47.77
Q9NXG0	1.16
O60902	53.73
Q27J81	41.55
Q9UBP6	5.97
Q9UBP0	5.59
P13533	0.84
P06576	1922.68
P29376	8.19
P60900	664.93
P60903	938.84
P63302	39.76
P11021	1672.2
Q63ZY3	107.12
Q9NSC7	5.48
Q15274	328.8
Q15276	11.35
O00148	359.35
Q7Z494	4.98
P13284	188.06
Q5VYK3	36.77
Q8WTV0	40.11
Q5U4P2	13.7
A7E2F4	2.68
Q8IUE6	13.42
Q9BPU6	70.33
Q9H0L4	11.66
P51553	57.06
P51003	11.34
P52209	303.96
Q15828	22.75
O00499	49.35
O95155	2.57
P31268	7.41
P31267	14.26
Q15311	17.28
Q9H6Z4	65.51
Q7Z4R8	18.08
Q9NP72	261.57
Q9NZU5	4.6
Q9NP77	66.56
Q9NZU0	5.15
Q9NP79	105.33
Q9UKG9	2.68
P18887	27.03
Q9UKG1	108.45
O15394	16.15
O15397	15.66
O15393	3.49
P43354	16.92
Q12846	71.43
P78330	262.86
Q9Y216	2.48
Q9Y217	2.61
Q12840	12.8
Q12841	42.95
P18085	320.49
P18084	12.8
P35527	396.43
P09651	1429.95
P04229	100.46
Q7Z5P9	0.31
Q6PFW1	1.18
P68104	2846.81
P68106	15.94
O00571	164.12
A8K2U0	2.33
O43837	80.14
P08651	20.24
Q4ZHG4	7.31
Q14192	35.0
Q14191	1.16
Q14197	39.74
Q14194	335.26
Q14195	788.1
P60484	11.95
Q8TEU7	1.05
P35568	1.43
O60684	18.77
Q8TB96	2.76
A6NMS7	1.0
O75312	3.69
Q5VW32	24.25
O75643	112.15
Q96PY5	9.14
Q8IVL6	27.54
Q8TCS8	28.41
Q13085	0.71
Q13084	37.37
Q13087	3.23
O43765	88.22
Q02978	281.21
Q2M2I3	3.63
O43760	52.99
Q2M2I8	9.04
O43768	294.58
Q14738	112.7
Q14739	74.38
Q5TCZ1	1.5
Q13330	51.15
P54317	7.23
Q5TC82	1.49
Q9Y5V3	4.36
Q99747	21.62
Q8IUX7	38.73
O43491	345.32
O43493	29.4
Q6IN85	19.69
Q7Z7N9	7.98
Q9ULS5	6.98
Q8IWF6	2.7
O15551	48.33
Q86Y56	6.02
P45954	106.79
Q9HCI6	6.28
Q16595	32.47
O60573	19.87
Q712K3	6.91
Q8WXG9	0.27
Q9H1K1	10.43
P51532	17.29
Q9BUN8	39.13
P21359	1.18
P16234	12.25
P09884	1.13
Q16773	3.92
Q16774	190.19
Q16775	105.56
Q16777	26.85
Q96KN9	4.68
P10768	471.59
Q9BW04	32.3
Q9Y2C9	2.04
O14602	11.42
O14607	1.26
Q8TDN6	13.61
Q9UNM6	231.79
P55060	178.6
P55061	7.08
Q9BVT8	21.46
P51948	15.73
Q9H2C1	4.23
O14545	11.59
P37802	931.08
Q9BYE9	43.79
Q9NVJ2	122.08
P47712	17.63
O14548	134.0
P52948	19.01
P52943	342.35
Q96GQ7	10.45
Q96GQ5	7.36
P49815	1.87
P29972	26.34
Q9C0B2	2.16
Q9C0B1	19.34
P14866	784.86
P20742	2.29
P14868	318.86
Q93096	18.96
P05090	414.9
P05091	486.36
Q7LFX5	2.89
P13073	671.57
P09466	3223.8
P59190	7.7
Q6UXG2	5.06
Q9BZM6	13.42
Q9Y530	44.13
Q15102	299.24
P20908	36.84
O15234	7.39
O15235	12.38
O15230	73.3
O15231	2.55
O95831	272.32
O95832	16.52
O95833	35.24
O95834	21.26
P54819	985.98
Q8TF05	3.51
Q8TF01	2.03
Q9NRN7	10.5
Q9NRN5	126.55
C9JLW8	51.6
Q96Q07	2.71
Q96Q06	2.79
Q96Q05	4.38
Q9NSY2	7.89
Q92922	36.69
Q9UIJ7	337.95
P24534	318.54
Q9UK76	105.55
Q6P9A3	2.52
Q9H3K6	185.65
Q92859	1.17
P24158	40.53
Q9NWB6	50.89
P98179	295.35
P42677	774.22
P98172	4.94
Q02509	3.51
P98175	23.58
Q04760	424.85
Q8N0W3	20.76
Q5SSJ5	401.98
P26378	4.5
P26373	557.39
P00747	74.66
Q14508	14.46
P00742	30.88
P00748	13.85
P12931	59.64
Q9UHL4	72.58
P60673	12.87
P46976	19.08
P49257	182.76
Q9UNP9	22.47
Q71UI9	820.29
O94876	5.21
O94875	4.54
O94874	115.3
O14832	9.75
Q9BYX2	1.78
Q9BYX7	232.45
P04440	38.65
O75106	15.71
Q96B18	8.68
P50225	164.92
P50224	395.45
P63096	125.64
Q8NEY1	0.93
Q8NEY8	3.56
P63098	58.39
Q6GPI1	53.81
Q9UBR2	133.09
P30443	82.77
P84157	35.0
P49662	13.02
Q06265	19.19
P54105	35.82
P61626	227.15
O14734	5.23
Q6UX53	216.39
Q8WTT2	6.09
O00161	233.22
Q15293	111.08
P61254	304.72
Q15291	25.4
P59768	430.67
Q9H0J4	1.04
Q13625	1.5
Q13627	2.19
Q13621	1.55
Q13620	21.68
Q9BPW8	422.89
Q14934	1.97
P51570	222.15
P51571	405.31
P51572	436.13
Q9BZV2	6.75
Q5T653	11.28
P52888	23.82
Q9P2X3	10.3
Q9P2X0	93.03
P05156	51.42
P05155	146.43
O95139	24.25
P55210	10.96
P55212	202.99
P51687	3.12
P48539	221.26
P51688	19.88
P51689	14.48
Q9H6T3	12.4
Q07020	399.35
Q07021	281.47
Q9NSE4	105.63
Q9NP97	326.73
Q9NP92	7.46
Q96QF0	3.54
Q9UKE5	3.64
Q32P41	3.22
Q96SU4	6.77
Q96ER9	20.5
Q6ZU35	2.75
Q03252	829.64
A8MZ36	11.06
Q08043	5.46
Q9Y237	40.8
Q6P1X6	141.52
Q9HBH5	20.38
P10515	73.5
Q8IZ81	123.56
Q8IZ83	77.22
P07741	450.2
Q12860	6.63
Q12864	252.55
P02511	177.02
P18754	29.24
Q9BTK6	6.78
Q86VN1	60.01
P09327	782.11
P00918	301.83
Q5RHP9	4.46
Q6ZMI0	21.27
P00915	58.55
Q8TB61	7.91
O43852	35.43
P53680	77.26
P49069	11.4
P35237	268.8
O75487	48.15
P35232	724.71
O75489	366.42
P14324	147.84
O60664	598.47
Q3KQV9	32.93
Q9Y3F4	200.34
O60662	2.76
P17980	160.32
P17987	613.15
Q6UWY5	40.87
Q96JB2	3.99
Q96JB1	0.36
Q96JB6	4.45
Q96JB5	75.89
Q8IYB5	33.55
Q5VZ89	1.01
Q8IYB7	5.68
Q8IYB3	36.71
Q8N137	1.85
O75663	137.38
Q8IYB8	6.4
Q8NGT1	4.88
P14060	13.34
Q15843	766.01
Q15847	47.82
O43704	419.78
O43707	1726.75
Q8N436	2.19
O43708	38.79
P61803	135.26
Q14714	42.34
Q96DI7	157.67
P42285	57.4
Q9NPA0	21.29
P68871	10495.66
Q9Y5X2	21.44
Q9NPA8	65.16
Q9Y5X1	62.05
Q99729	248.87
Q99720	104.64
Q96EK5	7.85
P51580	39.99
Q68D91	11.97
Q8N655	1.37
Q7Z7L7	2.13
Q96FS4	5.02
Q8TAX9	8.03
Q02338	59.07
P10645	274.2
Q9NZ43	6.39
Q9NZ45	461.89
O43895	183.78
Q16576	31.42
Q5UIP0	1.37
P26639	110.3
Q5VSL9	7.86
Q9BUL8	205.29
Q6B0K9	84.18
P16219	199.28
Q9BUL5	21.43
Q16718	460.51
Q9BW27	20.03
Q06520	622.73
Q03001	1.31
P10746	6.56
Q9H0R3	8.09
Q9Y2M5	2.76
Q9Y5U8	15.21
O14662	5.07
P41732	13.62
Q96E52	6.25
Q96K78	21.12
Q7L1Q6	93.83
Q96K76	31.04
Q8IV38	3.81
Q8NBQ5	285.13
P56537	176.53
P51965	17.55
Q9NQ39	242.71
O14521	22.04
Q8TBZ3	2.99
Q9BYC9	43.07
O14525	1.3
Q9NVH0	5.34
Q9NVH1	26.71
Q9NVH2	3.52
Q9NVH6	18.96
Q9BYC5	8.47
Q8WWI5	17.94
P85037	14.93
Q8WWI1	4.87
Q86XE0	12.14
Q9BXY0	5.31
Q4KMQ2	51.3
Q4KMQ1	2.49
Q9UBI6	609.95
Q9UBI1	118.71
P11831	7.28
O00757	158.46
Q6UXE8	3.59
P39687	427.08
Q6I9Y2	31.64
P02724	23.0
P08758	2733.37
Q9Y6A9	20.53
Q9Y6A4	90.72
Q53GD3	33.18
P23284	1732.39
P52434	98.6
P52435	42.39
Q3B7T1	4.07
Q96AY3	160.79
Q96AY4	0.69
Q15120	40.01
Q15121	187.32
Q15124	335.04
Q15125	21.38
Q15126	298.87
Q9H0W5	25.31
Q86W42	25.02
P24390	45.92
Q5EBL8	116.43
O60488	2.37
Q9H0W9	262.07
P43251	3.07
Q8TF61	1.99
Q92824	2.72
Q8TF65	164.01
Q8TF64	5.53
P17029	8.86
Q9NRL2	2.1
Q9NRL3	16.31
Q7RTS9	9.89
Q7RTS7	3.25
Q3ZCQ8	66.32
Q9UK59	12.2
Q9UIL1	10.41
Q08257	453.45
O75874	603.8
Q92878	85.43
Q92692	35.78
O75879	3.04
Q92696	43.29
Q969G5	74.58
P12872	14.54
Q8N0U8	75.75
Q5HYI8	56.87
Q8WZ42	0.64
Q14526	7.36
Q14520	5.99
P04075	1253.08
O43516	7.33
Q96PC2	4.05
Q3YEC7	28.33
P07919	314.81
O75843	8.62
Q9UHB9	92.94
P41250	79.04
P07910	1282.99
P41252	106.58
Q9UHB6	198.34
Q7Z2K6	7.5
Q96RY7	1.14
Q96RY5	2.79
Q9NYQ6	0.57
O00194	15.26
Q14289	3.24
Q13277	16.99
O75122	10.65
O60343	6.41
O60341	42.45
O60346	1.02
Q6GYQ0	0.82
Q9UBT2	116.03
Q9UBT6	9.5
P61018	7.96
P61019	789.69
P11137	0.94
Q96D96	17.78
P61011	23.6
Q96BX8	7.38
Q06203	16.36
Q01844	57.6
P14543	196.94
Q8NG11	36.72
P12268	154.82
P61278	191.71
O95070	29.34
P40616	156.38
Q96L91	1.09
P13798	120.24
Q96L92	27.59
Q96L96	0.93
P51511	2.48
A0FGR8	45.87
Q9H0H0	1.4
Q9H0H3	2.85
Q9H974	4.02
Q6NZY4	14.34
Q96I45	15.82
Q6NZY7	12.35
P00736	7.03
O15027	7.24
O15020	1.38
Q0VDF9	6.86
Q9H6V9	25.16
Q8NAT2	5.13
O00442	52.52
Q14896	2.67
Q86WB0	6.8
Q7Z4V5	65.71
Q8N5C6	11.76
P80365	4.26
Q9NZQ3	2.38
Q07002	3.47
Q96QD9	5.24
Q96ND0	18.31
Q96EP5	51.95
Q9P000	94.69
Q04206	37.43
Q9P003	58.35
P56181	188.75
Q5TYW2	2.0
Q12802	0.61
Q12800	22.96
Q9BT78	52.77
Q12805	58.43
Q9BU76	19.16
P02538	87.58
P02533	18.21
P04264	821.93
Q9NRK6	2.37
Q7KZ85	16.04
P09619	28.79
P00973	12.24
O60502	16.42
O60504	42.38
O60506	361.59
O60508	8.6
P39748	74.96
P49006	96.17
P53801	9.24
O60645	30.28
Q9Y3D7	40.76
Q9Y3D0	63.8
P35219	11.39
Q9Y3D3	24.48
O75467	3.07
Q9Y3D9	34.51
P27701	19.02
P27707	24.62
P27708	80.39
Q8TEQ6	22.28
Q8WUY3	1.65
Q8WUY1	39.35
Q9H553	3.99
P00390	223.68
Q92484	14.66
Q92485	7.39
Q9H008	180.32
Q9Y4B5	0.9
O75608	220.78
P08567	4.68
Q9BXF3	1.14
Q13049	2.61
Q13045	37.63
Q13043	16.88
Q13042	5.24
Q8N414	61.83
Q99707	9.36
Q99700	8.03
Q99250	0.82
Q9Y5Z4	82.11
Q99259	2.81
Q9H9Y6	5.86
P57060	5.17
P19484	3.55
Q9NZ20	3.29
Q9HCM4	4.59
Q8IWB1	6.05
Q02318	37.42
P24941	33.21
Q8IWB6	7.83
Q9HCM2	0.88
A6NK44	20.5
O43181	37.36
Q16555	1127.62
A1Z1Q3	3.75
P21397	317.85
P21399	353.12
P22626	2393.52
Q53H96	32.78
Q9UFG5	14.58
P20337	7.59
P12074	61.81
Q8N7Z5	2.67
Q96FQ6	445.63
Q8NHZ8	19.21
Q9BY67	30.97
Q8NE09	1.28
Q53LP3	6.75
O14641	9.52
Q9NWV8	15.41
Q9NWV4	176.91
B9A064	1131.98
P49585	36.01
Q96MX0	28.58
Q96MX6	4.73
P49588	167.05
P49589	39.55
Q96E39	66.85
Q02809	98.91
Q9UNI6	4.98
Q9NQ11	1.46
P47756	1036.45
P47755	285.01
Q8TBX8	7.94
Q676U5	16.51
Q15555	20.29
Q15554	6.76
P25391	0.56
Q96GM5	6.45
P83876	22.38
P25398	789.32
Q96GM8	3.32
Q6P597	13.57
Q06546	3.66
Q86Y38	1.75
P20701	1.46
P20700	1162.41
P02730	116.24
Q04941	22.51
Q49B96	18.07
P09429	2542.57
Q9BVP2	9.09
Q13813	542.59
P08779	18.32
B7ZAP0	6.47
Q9Y6C2	588.1
Q15147	1.4
Q15149	265.59
Q5JRA6	8.79
O95302	47.64
P06396	420.79
P35914	142.12
Q9H0U6	9.13
O15270	2.98
Q9H0U4	398.15
Q9H0U3	69.13
Q86W25	3.16
Q8TF44	4.21
Q01130	294.89
Q969E4	108.51
Q9Y6K0	4.03
Q969E2	29.2
Q9Y6K1	12.91
Q969E8	8.99
Q9Y570	17.75
P00568	373.29
P0C7U2	10.93
P0C7U1	19.74
Q92817	12.16
Q02818	264.93
O75155	11.11
Q02817	78.21
Q9Y6K8	11.86
O75157	7.11
O60725	5.88
Q5HYK3	50.57
Q9H497	24.39
Q86TA1	7.38
Q9H492	184.24
Q9H490	7.5
Q9H1Q7	7.25
P78527	213.01
Q9NRJ7	2.21
P54855	40.0
Q9H944	8.09
P54852	30.57
Q96PE1	9.22
Q96PE3	1.71
Q96PE2	0.85
P41236	16.32
O96011	99.09
P41235	14.23
O96019	27.7
P46937	13.79
P46939	9.52
Q6ZMP0	8.35
Q5T9A4	12.94
Q15717	390.29
Q8N3S3	2.12
O14874	12.15
Q96G03	266.81
Q7L3T8	10.58
O60361	895.01
Q13257	15.98
O75146	12.59
Q9BWS9	104.48
P19013	26.23
P19012	3.82
Q9UBV8	111.28
Q6NTF9	9.58
Q9UBV2	42.32
P13647	6.02
Q8WUD1	77.57
Q15700	1.93
P40189	1.81
Q6P4Q7	2.17
P11047	205.16
P48163	5.86
Q9NUV9	80.06
Q5T8P6	6.61
P55001	315.65
P50914	352.68
Q8WTX9	3.43
Q5T619	3.01
P51531	33.15
Q02108	16.97
P30405	332.35
P31751	16.84
O15042	47.63
O15047	1.01
Q0VDD7	2.7
Q06481	2.16
Q8NI99	3.63
Q8NAV1	25.06
P16401	2245.84
P16403	1661.49
P16402	647.07
Q9HC07	32.28
P12532	23.96
Q9UKA9	6.53
P18825	3.79
P18827	11.57
Q96NJ3	2.75
Q9UKA4	0.89
Q9HBL0	29.33
Q9HBL7	76.43
P51397	100.93
P51398	16.49
Q12824	8.51
P52848	1.86
Q9Y6Y8	37.2
Q86VB7	26.95
P35052	15.23
O60568	55.38
Q8TDY8	1.4
Q6Y7W6	16.27
Q8TDY2	1.03
P55851	11.3
Q9UMR2	6.97
Q8IY37	2.9
Q8IY33	3.85
P35580	647.94
P49023	34.94
Q9NVS2	8.47
Q8NBN7	57.5
P35270	107.14
Q9NVS9	181.63
Q99895	82.81
P17948	4.98
Q15084	827.45
Q9BW60	23.0
O75629	15.6
Q05682	1144.26
Q8IVF2	0.91
Q8IVF7	9.61
Q8IVF4	0.36
Q8IYF3	1.74
Q66K66	14.27
P53396	278.22
Q8WVJ2	53.13
Q13393	3.02
O94913	1.09
Q13394	32.1
O94919	10.24
Q02487	20.67
O75446	8.06
Q9NPE3	48.75
P0DJ93	54.43
Q96JN8	1.13
Q6PCB7	10.57
Q8IZL8	40.8
Q9HCS7	16.9
P39059	29.16
Q9HCS5	2.38
Q9NY15	5.45
Q86Y39	227.63
P36776	130.52
A6NFT4	5.23
Q9NZ08	232.94
Q9NZ01	281.46
Q16531	177.51
Q16537	10.3
Q6NUK4	6.42
Q16539	90.97
Q6NUK1	91.53
Q9H3R2	430.64
Q9BUP3	20.83
Q9BUP0	41.85
O43304	9.52
O43301	35.07
Q96FW1	330.2
B4DQ47	4.67
Q7Z7H5	260.63
Q7Z7H8	19.24
Q9Y2I2	3.1
Q9BY49	63.48
Q9BW62	3.39
Q9BY44	52.02
Q9BY43	22.45
Q9BY42	5.54
Q96PZ0	5.01
Q96PZ2	2.68
Q6IAA8	169.35
Q9P0S3	10.81
Q9UNK0	13.96
Q96E11	32.08
Q9P0S9	48.72
Q8WXA9	3.16
Q7Z736	4.4
Q6ZSZ5	1.44
Q7Z739	8.82
5SrRNA	1870
58SrRNA	1870
25SrRNA	1870
18SrRNA	1870
5SMrRNA	680
23SMrRNA	680
16SMrRNA	680
