P30613	674.12
P20930	0.39
P20933	9.22
P20936	4.42
Q8TBF2	8.08
P23919	64.81
Q9C0H9	3.05
Q00534	4.64
Q07960	74.82
Q9NXR7	11.82
Q6UXI7	2.32
O00712	3.62
O00716	3.49
Q9UBM1	100.74
Q9UBM7	207.76
P38398	0.83
P40429	334.66
Q7Z3T8	4.06
Q13838	203.07
Q9H2I8	7.6
P08842	7.86
P03891	17.61
P48960	3.73
P03897	65.04
P02768	8043.83
P05386	312.84
P05387	573.47
P02760	175.93
P02763	1787.34
P02765	56.7
P02766	583.02
Q9UJ70	201.93
Q15165	291.7
Q15166	879.14
O15254	57.45
O15258	156.9
P29401	770.73
Q86XA9	0.77
P39023	535.68
A4D2Q0	1.58
Q8N7S6	5.64
Q96CS3	32.6
Q5W111	15.83
P62807	382.38
P62805	4949.48
Q92834	1.51
Q8IY95	38.83
Q9Y6E2	10.68
Q9Y6E0	13.91
O43933	6.0
Q9NZL9	169.01
Q9BZG8	3.51
Q5TZA2	0.75
Q9Y592	2.09
Q09161	11.21
P09001	13.32
P04035	10.56
P60520	12.55
Q9UKZ1	6.21
P53701	5.61
Q14568	17.43
Q14562	2.46
Q86TG7	2.14
Q8NFQ8	80.3
Q6P1A2	214.27
Q9UHF1	5.79
P41218	37.42
P41219	12.79
P41214	5.3
Q92526	2.97
Q92520	111.2
Q92522	137.3
Q02878	712.77
P27449	32.7
Q6PII3	3.18
Q9HAP2	1.7
Q96HA9	57.96
O75165	12.81
Q96G23	137.6
Q96G21	5.08
P06865	59.34
Q9BWU0	3.86
Q13239	5.51
Q8TEH3	4.65
Q13232	126.29
Q5TBA9	0.51
Q71UM5	488.68
Q00535	20.6
P19075	13.17
Q9NXR1	4.42
P10916	109.55
Q6UW02	71.97
O95528	9.04
Q8WUF5	1.93
O00244	69.52
P48147	108.4
P48145	33.26
Q99519	26.41
Q9BQG0	32.26
Q4VC31	61.92
Q96RU3	2.41
Q96RU2	2.8
Q6VMQ6	1.26
Q9NYU1	0.98
Q9NYU2	203.29
A4D1P6	8.23
Q96DR7	1.76
Q96L58	4.62
P55145	339.74
P50395	839.64
Q9Y5A7	12.16
Q13642	94.6
Q8NDW8	1.14
Q9Y5A9	2.75
P40306	35.57
Q6XQN6	285.99
Q02127	32.01
Q5XXA6	4.51
Q96CN9	3.91
Q6ZRV2	9.45
Q96CN7	361.81
Q96CN5	2.26
Q96N76	387.38
Q5RKV6	30.37
P10645	3.38
P10644	131.69
O15061	1.99
O15067	18.96
P60891	118.18
P48553	2.41
P43365	4.92
Q9NZM6	2.32
Q9NZM5	9.46
Q9NZM3	1.77
P07099	2410.17
Q5T6X4	48.49
Q8N5G2	4.5
Q8N5G0	65.24
Q9Y291	27.16
Q9Y296	21.14
Q9Y297	2.49
Q9Y295	97.31
P49796	1.3
P49790	13.37
P49792	13.89
Q5JTN6	5.0
P51116	11.55
P51114	17.22
Q86VD7	33.91
Q587I9	23.62
O60547	77.69
Q9Y2T1	11.0
Q5T7V8	3.81
Q9Y2T3	215.24
Q9Y2T2	36.54
Q9P0L0	344.37
P31483	7.98
Q9P0L2	3.85
Q32MZ4	82.64
O75420	1.5
P35251	2.67
P35250	8.76
Q08170	48.42
O75427	2.34
Q8IY17	16.01
Q92734	122.38
Q92736	0.3
P43026	3.1
Q00765	351.15
O60603	7.64
Q5T5P2	11.22
Q8TEA1	6.63
O00506	3.57
O00505	11.87
P20132	322.0
Q8N9C0	1.71
P01009	2473.61
P01008	355.43
Q01581	464.04
P05388	655.6
Q9BXB4	4.1
Q9BXB5	2.04
Q9BXB7	2.63
O75390	252.09
O75396	550.99
O75394	45.03
Q8TE68	2.14
Q9Y4F1	59.28
Q9Y4F4	0.91
P46013	0.48
Q32P51	65.15
P0DJJ0	3.21
Q9NPG3	4.23
Q9BSD7	33.12
O94979	223.09
P98077	2.77
O94973	117.15
P55039	25.26
Q8TC07	45.31
P28838	1123.84
Q9UI08	26.91
Q9UI09	240.54
A2RUS2	1.26
P22760	513.82
P19440	39.1
P19447	1.92
Q96LZ7	133.89
Q2VIR3	6.7
Q16512	3.3
Q16513	6.12
Q14005	13.31
Q14008	9.89
Q8WY22	24.65
P19224	248.46
Q8NCW5	124.55
Q9NUT2	30.02
Q9HA77	41.35
Q9UFC0	2.42
O14936	27.74
O43325	12.01
O43324	138.53
O14933	19.31
P04839	70.88
P49406	35.8
Q7Z7F7	11.34
P56937	71.83
Q96MT7	3.07
Q9UHY1	5.73
Q9UHY7	29.64
O14681	61.63
O14686	0.29
Q96MT8	2.11
Q9UNE7	29.53
Q9H0S4	6.77
Q6P6B7	4.37
Q86SZ2	9.54
P50895	76.34
P50897	105.34
P49895	5.93
P35240	4.92
Q63HM1	131.2
Q13586	48.74
Q8WWC4	68.52
O95758	5.75
Q6UY14	1.47
Q9BWH2	116.14
Q6YP21	23.36
Q8NHV1	9.94
Q9C0J9	3.4
Q9C0J8	2.35
O60242	1.0
Q10589	43.38
Q10588	14.4
P01920	5.72
O00267	26.93
O00264	1100.19
Q01118	0.89
P33947	210.7
Q7Z3Z4	1.78
Q96CS2	5.38
Q9H2K8	13.02
Q9NQ55	12.9
Q9NQ50	14.01
P56556	249.55
O95342	65.61
O95340	212.25
Q9UJ98	18.51
Q8IWV8	1.71
Q9H0Q0	9.19
P60174	2846.62
Q14157	20.97
Q9NQH7	24.06
Q12981	19.69
Q12986	1.38
P29466	7.6
Q9Y606	14.45
Q93100	54.94
Q8N6M3	5.75
P28482	91.17
Q7RTU3	11.69
Q9Y6V7	3.16
P28335	3.31
P28332	1908.83
P28330	86.38
P28331	386.36
P62829	1015.43
Q96CU9	19.13
P62820	461.38
Q5XPI4	4.62
P62826	547.81
Q5BKZ1	23.51
P51858	557.07
P51857	513.98
Q969I3	151.49
Q969I6	33.87
P02743	641.87
Q9BZE9	14.25
P02747	139.76
Q9Y6G9	51.54
O43916	11.02
Q9Y6G5	7.47
Q9BZE1	21.39
P02748	190.06
Q9Y6G3	10.3
Q9UKX7	30.79
Q9UKX2	133.81
Q9UKX3	3.07
Q96QS3	8.85
P43490	1106.01
Q9NRV9	211.39
Q9UHD9	44.39
Q9UHD8	107.53
Q96I25	7.63
Q9UHD2	14.36
Q9UHD1	27.45
Q9UHD4	20.85
Q7Z5G4	10.84
Q92508	0.6
Q92506	356.1
Q92504	3.42
P08195	58.02
P23378	1010.32
P17483	12.43
P17480	26.86
Q5W0Z9	4.06
Q96HC4	150.21
Q8WU58	2.88
Q6KCM7	13.03
Q13217	92.35
Q9H8H0	2.11
Q71DI3	33.44
Q99685	134.08
Q9BWW8	9.0
P14618	396.72
P14616	1.19
P11226	203.39
P63010	155.85
Q8N159	41.29
Q6UW63	2.96
P04920	2.5
Q6VVB1	4.06
Q6UW68	671.61
Q15746	39.07
Q86X76	143.35
O15431	56.93
O15438	49.63
Q9NYK5	35.45
Q99538	55.54
Q99536	220.96
Q9BQE3	13.75
Q9BQE4	32.42
Q9BQE5	97.11
P41091	157.74
Q96RS6	10.28
P40855	31.37
Q9UJT0	3.24
Q9Y5C1	9.59
Q9NS69	176.81
Q9NX14	158.48
Q16891	350.52
Q16890	30.56
P13489	315.78
Q9HD34	47.83
Q14839	14.16
Q9HD33	17.47
Q8ND83	2.83
O14745	282.44
O14744	25.96
O14746	1.35
Q5SRI9	3.2
Q9NZK5	2.91
Q8N5Y8	4.71
P22413	63.76
P15259	5.96
Q96L73	0.58
P50402	76.91
P55160	4.02
A6NEL2	2.0
A1A5D9	9.05
P10599	803.78
Q5JTH9	22.68
P55290	4.38
Q96C01	10.97
Q9P2P5	0.98
Q969X6	4.46
Q3T906	2.39
Q6P5R6	23.49
O60830	9.39
O60831	44.53
O60832	65.43
Q00169	64.71
Q9Y2V7	4.68
Q9Y2V2	226.66
Q9P0J0	338.99
Q9P0J7	4.09
P29144	131.42
Q8NBJ7	81.09
Q8NBJ5	21.55
Q8NBJ4	18.92
O75400	11.04
Q9NVW2	2.5
Q96S06	2.64
P01023	711.15
P17676	14.25
Q9Y4D1	4.17
Q8TCE6	33.87
Q8IYJ1	2.77
Q8TE49	5.11
P18283	109.38
Q92974	1.54
P43007	12.31
Q92973	75.41
Q9H2P0	2.78
Q92979	12.84
Q99943	27.04
Q9BSF4	5.87
Q5RI15	77.43
Q66LE6	3.3
Q96JJ3	10.38
Q9UI26	1.52
P04179	2442.25
Q7Z6J4	4.58
Q7Z6J6	2.64
Q05397	10.07
Q14249	26.29
Q14247	89.13
Q14244	18.37
Q14242	3.97
Q7Z6J9	2.92
Q14240	288.33
Q14241	9.54
Q8IWX8	1.65
P24928	7.9
P19429	7.14
Q8IWX7	3.31
P15735	55.4
P07858	621.31
O94956	33.54
Q86YB7	479.43
Q14790	9.29
Q86XZ4	2.88
O00168	131.43
Q9GZR7	7.12
P15088	14.1
Q16795	225.96
O14910	13.2
P15086	3.62
O43345	1.28
P25786	562.93
P25787	377.51
P25788	349.89
P25789	366.51
O60220	124.77
O60229	0.5
Q8IZH2	6.19
P67936	258.6
Q7Z2V1	7.42
P11413	57.89
Q9BUT1	256.74
P63220	376.53
P11142	1427.41
Q86SX6	82.52
Q16134	746.26
P80404	2151.72
Q96GK7	233.03
Q2M3D2	3.74
Q7Z591	1.11
O95777	82.44
Q13564	39.86
O95772	6.44
Q13561	135.73
Q9BWJ5	67.7
Q8NE62	162.71
P78316	5.27
Q9Y279	19.5
O00203	16.97
P01903	113.92
Q9H2M3	454.81
Q9H2M9	28.59
Q9NV06	3.34
Q9BYK8	3.49
Q96AQ8	4.32
Q7Z333	0.57
Q96AQ1	4.12
Q96AQ6	17.02
O95363	13.1
Q9Y625	2.73
Q9Y624	121.08
Q9BV73	0.61
Q9Y620	1.67
Q9BV79	21.2
P24311	56.17
P07686	122.3
Q00577	103.18
Q12965	22.95
Q9NXV6	16.84
Q9UID3	15.95
Q9P253	9.34
P62841	392.58
Q96CW1	138.17
Q9P258	6.12
Q9Y6Y0	4.78
Q9Y6Y1	0.93
Q70IA6	6.37
P00505	1711.01
Q9UKV8	12.35
Q9GZM5	8.97
Q9GZM7	55.66
Q9UKV3	21.46
P35606	364.85
P46199	2.11
P35609	107.35
P42566	41.73
Q6P1M9	2.75
Q6P1M0	21.42
Q6P1M3	10.58
P39060	97.22
P11908	133.2
Q92569	3.15
Q6ZMZ3	3.06
Q05707	228.68
P52566	156.69
P52565	487.82
P42695	1.02
P42696	3.53
Q53FZ2	124.46
P57088	251.36
P52569	21.54
Q8WU76	2.28
Q8WU79	43.99
Q96HE7	182.9
Q9Y3S1	0.71
P08311	309.3
Q9H254	0.59
P08319	5590.76
A5PLN7	4.15
O43598	197.49
P07996	41.1
O43592	20.28
O95562	9.65
O95563	1849.93
P40123	19.48
Q9BQC6	13.98
Q86X55	18.23
Q52LJ0	23.06
Q96RQ3	257.91
Q96RQ1	8.06
Q8N3U4	2.43
Q9NQP4	22.4
P33778	4242.06
Q9Y5E8	1.99
P21964	382.6
Q13177	100.48
P07332	3.67
P07339	1478.41
P61769	200.1
Q8NI77	1.68
P69891	658.9
P10606	325.62
Q6ZRR7	1.03
Q9HD15	6.68
Q9NZI8	2.7
P62070	43.98
Q96II8	1.99
Q9UJV9	7.37
Q9HBR0	28.64
Q9BQG2	9.88
Q9NUM4	5.51
B1ALY0	14.41
Q8NCN5	8.63
Q5JTJ3	24.3
Q96TA1	22.42
Q9P2R3	42.75
Q96C23	118.09
Q9ULD2	3.64
Q9P2R7	98.86
P51159	124.15
P51153	82.85
P35030	42.18
Q9BTU6	6.35
Q9Y2P8	4.2
Q9Y2P5	1080.79
Q9UMX3	14.74
Q9UMX0	35.67
Q04864	2.5
P17735	85.08
Q9UMX5	27.29
Q9UMX9	2.94
Q13797	3.0
Q96EX1	31.77
P18847	16.67
Q9Y478	16.94
P02462	42.72
Q00722	2.56
P02461	17.33
Q9Y3L5	24.81
P78406	20.93
P23141	6071.38
P23142	48.87
Q9Y3L3	4.53
P17655	79.34
P05204	127.83
P14384	3.4
Q9UM54	30.94
P01042	102.5
Q15029	78.37
Q6PJ69	2.99
Q15025	4.77
Q15024	21.56
O00541	20.18
Q15020	28.08
Q9BY32	31.99
Q86V81	127.59
O15173	338.47
Q14D04	1.81
Q9Y4J8	2.04
Q8NGJ2	9.64
Q9BXN1	63.21
P52179	2.74
P62987	4017.97
P34741	23.22
Q9BVG4	26.33
Q92953	5.02
Q92954	4.54
Q86U38	4.94
P42229	11.35
P42224	139.44
P42226	18.22
P22234	251.39
Q01459	3.92
P04150	2.0
Q6UWW8	2.75
Q96JH7	5.11
O75683	8.28
Q9UJA5	3.07
Q9H089	11.4
O75688	19.55
Q9H082	33.35
P27348	556.02
P19404	131.5
Q6NUM9	159.15
Q68CQ7	4.09
Q8N6R0	2.18
Q96E09	5.62
O14972	10.39
Q9NUP9	39.28
O14976	16.77
O14974	22.32
O43364	4.18
Q9NUP1	7.35
O14979	73.87
Q9NUP7	3.16
O95302	5.44
Q9GZP9	37.33
Q9GZP4	14.19
Q9H9A6	22.62
P49448	25.13
O75027	56.04
Q9H9A5	2.08
O75023	5.35
O75022	2.47
P49441	31.19
Q05519	12.81
Q8IWZ3	5.73
Q9HCU5	75.45
P11387	41.59
Q02880	16.85
A8MW99	3.88
Q13405	53.61
Q13404	51.99
Q13402	4.05
Q13409	50.41
P05787	3021.46
P05783	3440.67
P11168	366.98
P11166	38.06
P01861	66.81
P01860	432.07
P50851	27.41
P61513	383.95
P21757	10.34
O95718	21.36
Q13546	18.07
Q13547	65.37
Q9NY93	5.57
Q494R4	21.57
P55317	3.49
Q96J01	8.85
Q96J02	11.68
Q9UBC2	18.2
Q6UXS9	17.65
Q9UBC5	4.35
P50148	28.49
Q96BM9	104.12
Q13895	17.29
Q96BM1	5.0
P24557	28.34
P33908	28.21
Q8IY81	12.43
Q9BVX2	6.15
Q9NQ90	6.02
Q9NQ94	160.47
P18433	1.89
Q2M3G4	17.0
Q5QJ74	10.68
Q9H6R4	2.69
Q6K0P9	3.11
Q5VWZ2	130.36
P10412	368.71
P48556	103.92
P35998	215.14
Q9Y646	148.76
Q9BV57	87.77
Q86UE4	249.89
Q9NXH8	3.66
Q9NXH9	4.75
B5MBW5	7.66
P10643	22.01
Q9H6R3	284.43
Q9UIF9	0.81
Q9P273	1.14
Q9P270	13.71
P62861	928.85
Q92890	84.52
Q92896	15.3
Q969M1	5.06
Q969M3	42.9
P02787	1435.62
P02786	18.19
O60447	1.85
O60449	0.86
P02788	324.7
O14495	34.19
O14497	3.54
Q6ZUB1	1.09
Q9UKT5	3.89
Q9H1I8	3.97
P16422	9.82
Q9NZM1	8.04
P0C860	3.36
Q86TI2	24.44
Q8NFW8	109.91
Q8NFW9	1.79
Q9NRR4	1.08
P28370	5.6
P39086	1.65
Q92542	30.63
Q92546	4.04
Q92544	20.72
Q9H4Z3	2.13
P12544	5.91
P20340	152.67
P05413	103.9
Q9HAV7	219.01
Q9HAV4	6.29
A6NCI8	1.71
Q96SB3	3.85
Q6A163	3.08
Q9H270	3.18
Q14457	3.31
Q8TEB1	30.6
Q8NEU8	13.82
Q8TEB9	9.58
Q659C4	3.26
Q8N9T8	8.31
P26599	245.8
Q9H5X1	84.1
O95544	3.48
H7C350	4.29
Q00G26	16.89
Q02985	9.19
Q9BQA9	107.34
Q99575	2.99
A1L4K1	2.01
Q99578	6.95
Q9BQA1	18.68
P22061	257.61
P82650	33.24
Q5W0V3	17.83
P40818	1.35
P36507	54.06
Q8IXI1	35.25
Q8IXI2	29.08
P19367	20.08
Q9NX57	13.06
Q9NX58	11.8
Q05DH4	2.94
Q5TAQ9	23.09
P10620	2875.19
Q9BRA2	221.47
P22459	2.34
Q5T447	5.3
Q9BQ04	4.27
Q5T6V5	39.55
P15291	23.43
Q96A29	30.16
Q96A26	217.6
Q9UJX3	2.57
Q5T4T6	1.83
Q5BJH7	9.96
Q5BJH2	9.11
P56470	615.65
P84085	150.39
Q15477	21.17
Q9P2T1	22.64
Q96TC7	102.02
Q5VIR6	2.15
Q03167	1.83
Q75V66	1.6
P13995	9.05
A4D263	3.45
Q96C45	1.2
Q03169	4.72
Q9Y2R0	190.08
Q9Y2R5	35.48
Q9UPU5	6.41
Q9Y2R9	36.58
O60879	19.12
P30049	137.3
P30048	1926.29
Q8N8S7	5.16
P30041	3227.05
P30040	562.03
P30043	1170.96
P30042	840.28
P30044	854.29
P30047	742.85
P30046	1241.38
Q96EF6	5.45
Q96NR2	11.93
P55786	84.7
Q9UMZ2	3.66
P08922	0.65
P13667	1439.35
P13196	12.15
Q15007	7.75
Q15006	29.54
Q15005	404.75
O00567	148.02
O00560	5.29
O00562	1.27
Q15008	252.41
Q8N2H4	9.74
Q8WWZ8	11.43
Q9BTW9	10.35
P51178	12.01
Q9H7F0	4.97
Q8TE04	13.33
Q8TCA0	8.36
A6NGR9	2.22
P62753	502.36
Q8NBF6	7.15
Q9Y450	20.45
Q8NBF2	41.02
Q9Y320	40.31
Q9H869	1.95
Q92932	1.54
Q92930	29.09
P15907	198.74
Q96AJ1	3.56
Q14202	1.13
Q14203	76.26
Q14204	143.37
Q5VTU8	383.99
P00338	2276.8
Q16625	14.5
P68036	201.66
Q8WXI9	5.26
P68032	1085.84
P07814	161.88
O43167	2.19
O43166	0.86
O43169	378.09
P19174	1.15
P79483	22.9
Q96LP2	13.19
Q8N6T0	2.3
Q8N6T3	30.72
Q6ZQQ2	1.95
Q9H3Z4	23.23
Q9BSB4	6.86
Q86YN1	44.42
O94992	16.89
Q6FI81	45.97
Q9H9C1	3.01
Q8IZT6	0.84
P36269	118.46
P27361	23.86
O60262	45.61
Q8IWT0	8.8
Q8IWT3	0.61
P61353	749.17
P29474	5.15
Q15643	8.29
Q15642	5.02
Q8WYP5	2.72
Q13428	13.53
Q13427	3.87
Q7Z2Z1	1.63
Q13425	26.64
Q13423	793.66
O95487	19.97
O95486	58.73
Q5JSP0	2.16
Q53HC9	3.93
Q7Z2Z2	8.21
Q96M96	25.74
Q8NI51	4.53
Q08174	2.99
Q13523	10.26
P01889	97.51
Q15413	0.31
P48730	3.62
Q8NHP8	2.62
P48735	1816.04
P48739	179.47
Q8NHP6	5.74
Q9NWX6	14.77
Q9NT62	23.91
Q0P6H9	2.35
Q7L590	1.75
Q7L591	3.22
Q7L592	20.9
Q7L2E3	10.25
Q6ZS30	0.56
P48651	43.25
P19827	82.9
P19823	54.78
Q14997	3.25
P62136	224.06
P12107	1.89
P12109	594.26
Q7L775	9.75
Q9UQ88	9.39
Q96GW9	5.15
Q9UQ80	376.06
P12235	326.83
Q9NQR4	1216.06
Q12923	0.62
P29372	5.22
Q9NXJ5	14.83
P29376	1.87
Q12929	13.07
Q9Y666	8.64
Q9P225	0.68
Q9UBE0	40.15
Q14410	5.66
Q9C002	17.84
P03905	86.46
Q969S3	3.16
P00533	63.87
Q969S9	9.9
Q86WU2	212.57
Q6RW13	19.69
O60469	0.77
Q8TAD4	6.12
O14966	22.22
Q96IR2	1.52
Q5QJE6	8.12
Q9H1K1	19.06
Q8N9N7	12.82
Q9NRP4	23.41
P29597	1.28
Q9NRP0	254.81
P29590	8.79
Q9NRP2	18.13
Q9P2I0	3.88
P02750	134.78
Q01668	0.7
P02751	274.97
Q8WW59	637.78
O75251	138.3
A9UHW6	6.75
P43652	14.9
Q8WW52	2.68
Q9Y6D6	1.64
Q86VQ3	2.84
Q86VQ0	2.13
Q86VQ1	2.96
Q9NTN3	30.6
P08684	586.28
A6PVS8	9.31
P08134	15.59
Q53FV1	29.64
P08133	1256.95
Q9H4B7	54.53
Q9UKR5	140.56
O43464	24.58
P54252	4.11
P54253	3.95
Q9H299	115.03
P07355	973.07
Q14432	1.37
P05556	248.32
P08034	58.92
Q8TB61	25.27
Q8NEW0	41.21
Q01085	37.12
Q01082	717.07
Q01081	49.23
Q8N9V2	3.24
Q8N138	9.8
Q765P7	6.44
P26572	50.57
P0CG30	37.41
Q86X10	5.14
P59998	627.95
O15498	38.26
Q99598	20.72
Q02218	227.84
Q99590	3.13
Q8IUF8	3.25
P82673	9.31
P82675	10.72
P21926	60.74
P21291	316.92
A7E2V4	0.87
Q9Y385	9.75
O43447	26.79
Q9NX74	3.12
Q16342	4.44
P62304	206.39
P62306	88.19
D3DNK7	21.43
Q9BRG1	115.74
Q8ND24	2.21
Q8NI36	14.66
Q9NZE8	7.97
O14727	1.21
Q9UJZ1	195.86
Q96A00	10.28
Q5T2W1	108.09
P58166	44.48
P16662	1088.03
Q8IXK0	1.89
Q96DZ1	12.51
P55265	34.04
P30203	2.39
Q9UL12	988.04
Q9NR56	8.2
Q5BJF2	238.6
Q9NR50	27.31
P55268	46.39
Q15459	79.12
P49716	12.05
P13645	804.76
P13646	17.3
P13647	52.25
Q8IY26	5.33
P46019	74.36
Q07157	31.59
Q15061	6.87
Q15063	33.09
Q96S66	52.55
Q15067	313.44
P17612	173.26
O00584	23.27
Q9BV36	5.2
Q9H7D7	4.76
Q9H7D0	1.59
O15131	11.37
Q9BTY7	20.36
Q9BTY2	15.86
Q7L014	16.08
Q92917	6.57
P51991	337.9
Q9Y303	3.92
Q9Y305	96.24
P29122	3.22
P21730	4.36
Q9H845	99.78
Q9BVC6	143.98
Q8N4P6	2.77
Q8N4P3	84.38
P04114	208.92
P15927	64.51
P15924	99.26
Q01415	57.88
P53041	39.2
P00352	3955.04
P36543	137.77
Q8IXM3	66.9
Q8TCC3	18.5
Q86YU6	8.22
Q9BXJ8	46.46
Q9BXJ9	25.41
Q8IYL3	6.6
O43149	2.59
O43148	6.26
O43639	4.0
O43638	4.84
O43143	103.75
Q6NUQ4	57.8
O43633	61.49
Q92667	22.91
Q92665	22.71
Q96LR1	10.15
P53597	378.54
Q14088	6.45
Q86YH6	3.89
P62633	17.63
Q05086	17.04
Q8TAY7	5.97
Q9BSL1	3.78
Q9GZT3	444.48
Q9GZT6	29.07
Q9GZT9	26.09
Q9GZT8	36.78
Q9H330	20.39
Q8IWV7	0.86
Q6P161	21.69
O60240	33.7
Q9H9E3	7.7
O75063	3.69
Q13190	30.26
Q9UHQ9	171.05
Q15661	78.69
P26038	440.07
Q9UHQ4	24.23
Q5BJD5	21.1
O43920	164.43
Q99436	80.14
P63241	1049.62
P63244	987.78
Q13442	66.52
Q13445	47.63
Q99439	35.63
Q96GA3	6.25
Q96GA7	207.77
Q15599	114.61
Q13509	3.4
Q4G176	112.34
Q13505	63.31
Q13501	17.98
Q494V2	2.41
P12694	237.9
A6ND36	9.44
Q9NWZ3	9.99
Q9NWZ5	5.61
Q7Z3B4	24.75
Q96BI1	45.9
Q7L576	59.07
Q9UQE7	32.72
P48634	6.0
P48637	222.66
Q9Y266	201.83
P15311	390.43
P15313	24.14
Q16629	188.03
P34947	2.53
Q5VYV7	3.77
Q9BV10	21.97
Q9BS40	33.31
Q6S8J3	1.41
P29353	10.92
P29350	60.93
Q12907	409.32
Q12906	185.31
Q12905	215.1
Q12904	154.78
O75525	8.84
Q969Q0	192.59
Q969Q5	29.67
P03928	42.92
O75521	291.22
Q7Z4G1	17.8
P27816	99.23
A2RTX5	9.26
P49902	15.84
P49903	43.97
P49908	7.95
Q8IZ73	2.8
Q9H1M3	8.45
Q86TM6	25.34
Q53EP0	15.49
Q07812	80.97
Q6P1K8	3.86
Q07817	6.58
P78383	4.8
P78386	79.92
P78385	47.47
P14209	27.3
P05181	881.03
Q14BN4	3.6
P05186	56.87
P14207	11.72
Q9P2K8	0.92
Q86VS8	20.63
Q53FT3	23.79
O75909	2.67
O75907	24.82
Q9H3P7	33.97
Q96QK1	205.74
P05452	15.22
P17405	9.84
P05455	164.8
P06744	1132.7
Q5TBK1	5.92
Q9Y3U8	559.9
P00167	1823.8
Q8TB40	8.84
P0CG12	3.34
P62750	697.93
P18031	27.46
P22392	118.99
Q96P16	14.41
P15559	16.67
O43824	6.03
P13797	508.69
P02675	1729.74
O95816	43.29
Q5T8D3	71.36
P53674	6.12
P53677	3.65
P53671	2.37
Q14145	4.92
Q14146	1.01
Q14141	31.05
Q14142	3.45
Q8WVY7	13.98
Q96IV0	2.31
P16118	47.05
P07357	23.69
P15121	23.92
P07358	33.26
Q96JQ2	32.26
P46821	1.9
Q16363	5.08
Q8IZY2	1.46
O60264	9.85
Q9NZC7	3.67
P49407	14.58
Q5T6R2	11.04
Q9UDX3	18.39
P58107	0.31
Q9UDX5	57.14
Q96A65	26.39
P36542	649.8
Q9Y5K6	48.01
Q9Y5K5	104.9
Q8IXM2	86.24
Q8IXM6	5.84
Q92781	4.9
Q9Y5K8	36.41
Q9NR31	314.42
Q9NR30	56.95
Q9NR34	2.42
P49736	1.68
A6NC57	1.61
P06400	1.62
O95674	70.05
O95672	1.95
P34949	69.85
O95671	69.75
Q96C86	48.87
Q15436	380.24
Q15437	33.72
O95678	5.76
Q15435	82.54
Q9H6D5	9.31
P12314	4.02
Q6NVY1	717.95
P30085	555.75
P30084	3677.88
P30086	3225.75
P12318	19.6
P06746	4.49
Q9Y3C6	75.24
Q9P0B6	14.97
Q9UK97	3.28
P51649	680.53
Q96NU7	557.77
P06748	326.47
Q29RF7	7.96
Q9UN86	25.35
B1AK53	5.61
P08962	113.74
Q6DN03	7.99
Q63HR2	32.6
P57740	9.67
O95202	100.83
P31689	126.16
Q15043	221.48
Q15042	18.62
Q15041	161.52
Q15046	148.72
O95208	2.5
Q9H7B2	24.1
O15117	6.03
O15118	2.41
Q8WWV3	15.74
P29728	4.16
Q01780	5.1
P18206	396.26
Q8NDV1	4.85
Q9BVA1	3.43
Q9H2X3	37.82
Q9BT09	39.05
P07437	2151.38
Q9Y490	468.61
Q9Y493	0.56
Q9Y365	83.04
Q8N4V1	23.36
Q9H4H8	2.66
P28676	78.58
P15498	1.74
Q96AN5	3.32
P00374	15.99
Q9Y520	7.58
Q7Z6B7	1.38
P16949	19.83
Q86XR8	3.0
Q9Y4L1	582.36
Q86XR2	2.22
O94854	3.81
P25098	4.31
Q709C8	8.53
Q92643	3.79
P49137	18.82
Q9H074	41.66
P23258	36.87
Q86YJ6	3.17
Q4G0X4	11.57
Q9NPQ8	11.49
P20042	151.92
Q9GZZ9	42.06
Q9GZZ1	88.42
Q9H9G7	1.76
Q8IZP0	18.68
Q05209	5.84
P25705	2109.96
Q86TP1	17.08
P36222	96.58
O43617	25.38
O43615	120.24
P61916	10.35
P61313	610.92
Q17RN3	13.78
Q13464	19.52
O95447	2.24
P11498	1669.83
Q99417	14.33
P50749	9.08
Q96GC9	3.71
Q96GC5	21.5
P50747	8.5
P48775	35.83
P36959	9.17
P36955	33.33
Q8WZA9	43.76
P36957	309.6
Q9BY89	3.49
P19793	13.5
Q9NY35	6.0
Q9NY33	139.15
Q68EM7	3.59
Q96PV4	3.44
Q96PV0	1.16
Q06830	3382.44
Q06787	7.23
Q14956	18.78
P36537	191.92
Q9NV88	4.65
O14880	1412.43
Q96HP4	19.69
P09972	265.18
P15374	72.06
Q86UK7	5.22
Q7Z401	1.64
Q7Z406	123.45
Q86UK0	0.58
Q9NXN4	3.05
Q9UBY8	5.23
P07602	162.34
Q96D46	8.93
Q4J6C6	2.04
O14756	1297.2
P51659	1801.67
O95757	21.78
O60427	2.96
P30740	401.31
P07954	888.45
Q5ZPR3	5.99
Q9UJC3	26.34
Q9UJC5	97.41
P54652	51.44
P49961	8.88
Q01433	42.59
O43556	3.44
Q15544	7.36
P52294	34.18
P20674	143.26
P52292	8.89
O76009	7.47
P52298	19.06
O76003	96.23
P55957	163.77
Q15386	6.92
O00421	4.34
Q15382	41.84
O00422	68.37
Q10471	180.18
Q10472	2.67
Q15388	21.05
Q05932	5.31
Q9P2M7	91.81
Q9NTJ4	8.88
Q9NTJ5	115.26
P23396	1452.53
P00491	678.25
P00492	286.12
Q05925	17.1
P27487	97.15
Q9UGI8	21.44
Q10713	61.83
Q9UKN7	0.43
O15305	177.13
Q99627	36.93
Q99624	43.06
Q99623	1143.65
P54920	449.04
P08397	21.81
P54922	4.34
Q6PI73	3.27
Q8TB22	1.95
P28288	281.8
P28289	59.19
P24752	2121.32
Q86VU5	17.86
Q8WW12	45.32
Q02252	1705.18
P42126	695.18
Q5SWX8	30.21
O43264	13.52
Q9NYA4	2.57
Q7L3B6	8.83
Q96J42	4.3
Q14166	99.13
Q14165	420.38
Q14692	5.88
Q6P0Q8	0.87
Q14161	4.06
Q14160	26.48
P19652	327.02
P62341	46.1
Q16836	850.28
Q9UGR2	4.61
Q6NW29	16.14
O43402	7.22
O43405	2.88
P49368	405.2
Q5R3I4	194.96
P08865	694.38
P41162	3.01
Q96A49	21.48
Q96A46	4.37
P63167	380.58
Q5TC12	14.12
P63165	44.53
Q9BSU1	3.61
Q9Y5M8	352.27
P12081	104.57
P30536	36.44
P30530	1.74
P30533	103.41
P49750	1.56
P49753	6.45
Q15417	65.95
P49755	535.68
P49754	1.74
P49757	14.54
P61457	757.58
P61106	595.75
Q15418	10.37
Q8ND61	1.69
Q9BRK5	12.31
P83436	5.96
Q8TDB6	30.79
P06727	90.68
Q96NT3	6.3
O00634	2.79
O00635	3.21
P45381	4.8
P13688	50.66
P13682	2.9
P13686	9.37
Q9NR12	17.21
Q9NR16	1.08
Q9NR19	144.07
Q8N2F6	27.42
Q9UPT8	4.89
A6NJB7	4.43
P55899	51.79
Q8NC56	30.11
O95260	23.22
Q9BW92	76.2
Q8NHG8	14.23
Q9BW91	21.92
Q8TDG4	1.38
Q9Y2X0	1.77
Q9Y2X3	132.44
P84243	470.0
Q9Y2X9	1.77
P62906	614.79
P83731	627.1
P28074	313.18
Q93062	47.2
P28072	114.99
Q9BT22	3.27
Q08426	1525.5
Q9Y2W2	17.15
P57764	35.73
Q8N4T8	298.3
A8MXV4	16.25
P53007	847.22
P53004	61.57
Q8N4T0	3.36
O75594	7.89
Q86UP2	170.13
P10301	94.97
Q86XP3	14.99
Q14397	64.93
Q8IVP5	29.96
Q9UH92	5.15
Q9UIQ6	2.92
Q92629	16.05
Q05048	21.28
Q92622	1.58
Q92620	2.44
Q92621	15.8
Q92626	5.19
Q92625	2.79
Q9BSH5	434.94
Q9BSH4	95.07
O76021	78.0
P20020	7.42
O75718	7.37
O75715	6.81
Q86TV6	7.29
Q12983	7.96
Q8IWR0	1.55
O43670	13.52
O43674	63.09
O43677	39.28
O43676	180.52
O43678	392.62
Q9Y608	12.52
O95466	2.82
Q15629	91.59
Q15628	25.04
Q14624	180.89
Q9UNY4	1.32
Q13488	9.23
Q9H4A6	65.95
Q9H4A4	191.38
Q9H4A3	6.16
P32121	7.44
Q99470	7.45
Q9HAC7	10.62
O95793	70.58
P62256	16.61
P85299	4.01
Q9BWD1	526.8
Q9NY12	61.4
Q9Y3I0	189.52
Q9NY15	17.43
P62487	8.89
Q8N6M9	10.41
Q14978	27.97
Q5H9R7	22.83
P12004	29.81
Q9BQ67	6.94
Q14973	4.5
Q14974	155.34
P62158	967.75
P09958	5.94
Q96HR9	1249.24
Q16666	9.72
Q9UPS8	1.75
Q7Z460	7.09
Q9H0E2	90.63
Q9NQT5	5.8
B2RTY4	0.59
Q5T2E6	6.54
Q9BZQ6	13.11
P56378	360.46
Q9BZQ2	2.13
Q9BZQ8	3.33
Q9NZZ3	55.85
P17050	29.47
Q400G9	3.12
P13747	8.54
Q9NRZ7	51.4
P78348	2.86
P78346	5.85
P78347	47.3
P78344	50.27
P78345	10.78
P20618	414.43
Q96S19	53.18
O76024	15.39
O76027	26.83
Q96T60	15.03
O00408	3.25
Q15366	248.98
Q15365	791.35
Q15363	248.69
O00401	6.26
O00400	33.79
Q969U7	23.34
Q13907	208.55
P02746	102.7
P08621	103.13
A6NDG6	40.35
O95299	223.08
P02749	129.88
Q9UKL0	3.23
Q9UKL3	0.77
Q9UKL6	62.14
P06280	28.14
O15320	77.28
O15321	37.36
P21695	794.44
Q9BZE4	18.55
Q8TB03	9.36
Q8NEM8	2.96
Q99643	516.15
Q8N9L9	3.7
P22352	154.4
P18077	287.29
P18074	1.97
O75940	6.42
O75947	723.55
Q7Z5K2	2.58
Q96K21	6.66
Q6UWM5	6.32
Q09019	2.44
P49356	7.03
O43242	247.54
Q13033	15.73
Q8N3C0	8.87
O43795	248.22
Q8WU90	45.88
Q9UPN7	3.55
Q9UPN6	1.22
Q9UPN9	2.8
P53634	16.54
Q14108	208.52
Q9Y3Y2	64.98
Q14103	361.49
O43427	8.19
P16152	1327.04
P16157	27.44
Q16851	1873.72
Q16850	78.51
P15169	3.28
P99999	759.16
P04626	3.73
Q16854	16.05
Q9UGP8	118.9
P04629	1.96
A5YKK6	9.0
O75367	220.81
O75368	93.99
O75369	604.31
Q8TCT7	2.65
Q8TCT9	285.27
Q9UDT6	1.48
O14782	1.92
P20851	6.05
O14786	16.63
O95081	3.5
Q96F15	19.69
Q96F10	170.14
P67870	48.14
Q13347	103.38
Q8IXQ6	42.73
Q96CF2	6.49
P23588	54.57
Q8NDA8	0.95
Q86YQ8	2.72
P21980	1228.85
P20585	1.35
Q6ICL3	5.54
Q9ULJ1	2.33
P61129	1.3
Q96FZ2	4.23
P49773	845.08
P49770	17.6
O95639	5.67
O15523	9.38
O95630	7.14
P31260	4.04
Q9BZ29	0.73
Q96T55	5.02
A0MZ66	64.65
Q9BZ23	2.74
Q96EN8	24.47
P06703	101.1
P06702	919.68
Q9BUE6	24.19
P37235	115.31
Q9NW68	3.64
Q9NW64	7.32
P30519	114.25
Q96H79	5.2
Q96H78	4.85
Q96GX9	50.59
O95249	59.95
O95248	4.94
O14556	7.71
Q86V21	2.28
Q08623	13.59
Q08999	1.34
Q9NP71	3.69
P48426	33.4
Q01814	1.25
Q9Y2Z9	64.07
Q01813	6.01
Q9Y2Z2	6.44
Q9Y2Z0	71.08
Q8TDI0	0.77
Q9Y2Z4	32.24
Q93009	54.81
Q93008	41.08
Q01740	2.84
P42768	3.24
Q9BVM4	89.08
P09493	398.55
P09496	44.34
P09497	27.24
Q9NVC3	3.43
Q9BT40	3.36
P07477	83.96
Q96F25	28.41
Q9UGM3	0.66
P01130	5.4
Q9UGM6	12.82
Q96AB3	468.42
P00846	235.0
Q9H8U3	6.81
P16989	12.84
Q9C0E2	5.27
Q9BXP2	1.78
Q9Y4P3	82.67
Q9C0E8	57.49
Q9BXP5	47.71
Q6ULP2	1.68
P50479	4.85
Q92604	35.83
Q92600	25.5
P81605	15.2
Q92608	3.24
Q92609	7.71
O60774	2.8
Q9BZJ0	6.83
O75886	20.64
O75884	114.35
Q5VT25	0.87
O75881	8.83
O75880	60.87
Q9BSJ8	159.16
Q99986	7.54
Q99985	12.08
Q9BSJ2	3.35
P17858	302.63
O75083	406.83
O75081	4.82
Q32M78	2.32
Q9NRG7	34.55
P14174	164.98
Q5TA45	2.54
P54886	90.38
Q13137	3.28
Q13136	5.05
Q13131	152.74
Q2UY09	4.41
P52735	22.01
Q9C0C9	3.64
Q9UIS9	2.58
P61956	126.23
O95400	9.11
O94804	9.18
Q14642	3.59
Q6P4A8	13.56
P11182	214.86
Q9H4G0	19.15
Q9H4G4	49.81
Q6P4A7	31.6
O15143	104.72
Q2TAZ0	2.42
Q9UF12	87.41
O15397	4.29
P40939	1667.74
P36915	17.49
P40937	4.46
Q9BWF3	25.53
P31943	285.71
P31942	78.97
A6ND91	715.98
P31947	6.18
P31946	543.62
Q8N1F7	44.03
P31949	175.33
P31948	210.85
P61601	7.71
P61604	1051.25
Q14914	2199.67
Q14919	7.67
P60953	419.56
Q9BQ49	39.75
Q9BQ48	33.75
Q12774	1.94
P22570	127.44
Q9NYZ1	14.55
Q16647	24.03
Q68CR7	3.51
Q9UPQ0	1.41
Q96M19	37.73
Q9UPQ8	2.89
Q9UPQ9	0.88
P09936	6.91
Q9H0C8	11.99
Q9BS26	295.79
Q9BPX1	6.06
Q9BX59	10.25
Q9BPX7	3.69
Q9BPX5	111.37
Q9NXB9	4.96
P80192	1.41
Q5TEJ8	7.14
Q9NQZ5	3.98
P0C7P0	120.66
Q7Z3D6	54.22
Q96D05	12.96
Q9HCC0	402.72
P38159	263.38
P51610	12.33
Q8N5J2	3.31
O00429	58.66
O75534	57.89
Q96IZ0	4.69
Q06124	77.7
Q6ZTY8	2.53
O76041	1.47
Q6Y1H2	54.42
Q9NRX4	24.8
Q9NRX5	3.4
Q9NRX2	34.22
Q5SRD1	42.81
Q5JTY5	3.89
P05121	15.23
O00469	16.2
O00468	29.22
O95182	273.33
O95183	13.4
O00461	54.47
Q9P2A4	4.39
O00462	3.4
Q9BRR6	9.51
P45880	787.89
Q9BRR8	3.32
P08603	173.87
Q8N201	4.91
Q8N205	7.88
P83369	4.34
O95989	17.62
P06733	2723.69
Q9UKJ3	1.04
Q8WY54	8.07
P43304	2.12
O15347	179.14
P43307	101.1
Q99848	49.22
P62736	298.07
Q9UH62	24.21
Q9UH65	29.83
P15531	610.13
Q96P70	11.83
Q14344	73.98
Q96BR5	6.67
Q9BTD8	10.21
P21549	4271.22
O75964	1816.13
Q9H160	5.23
P68400	75.99
P00450	301.77
P68402	93.92
Q96RE7	3.0
Q15835	2.7
Q15833	43.88
P02686	5.18
P53611	23.23
P53618	305.78
Q14126	26.65
P10114	8.32
Q8TEX9	20.23
P49326	643.71
P49327	1291.66
P49321	14.09
Q9UGV2	4.14
Q16875	2.88
O75340	227.47
O75347	373.61
O75348	137.14
P25685	63.12
P25686	9.64
Q13153	5.66
P42166	52.26
Q9UDR5	273.75
P82909	254.31
Q96DB5	114.96
Q8NFH3	8.14
Q13363	36.08
Q86YS7	4.66
Q86YS6	132.29
P67812	174.65
Q8IXS6	32.53
Q9Y5Q9	1.69
Q9Y5Q8	2.88
P11532	6.43
Q0ZGT2	2.13
Q9BSQ5	10.54
Q96KK3	2.94
Q96KK5	12.33
O95613	0.45
Q9ULH4	2.02
Q9H6B4	4.16
P48059	18.42
Q9BZ01	8.26
Q9HCF6	0.87
O60683	4.63
Q96EL2	18.04
P55769	181.52
Q9HA82	22.18
Q9NW08	1.34
P31150	230.59
P83881	137.87
P31153	302.5
P48444	350.79
P48449	321.19
Q8WWP7	29.94
Q9Y2D5	39.86
Q53F19	7.29
Q9Y2D2	28.6
Q11203	4.07
Q5JVL4	2.32
Q5UCC4	12.54
Q01831	6.48
Q7L099	12.95
P62942	71.76
Q9H3D4	2.23
Q9BVK6	308.13
Q92994	2.32
P56589	12.21
Q92997	2.2
P51911	36.2
P07451	301.77
Q8NBX0	385.61
Q9Y383	77.44
P16615	360.22
Q9NVA1	4.96
Q5SVS4	5.28
P57723	4.13
P04196	89.25
Q9BXR6	5.33
Q9BXR0	15.58
Q9H8Y5	8.48
Q9H8Y8	47.3
Q86UT6	6.38
Q5T0F9	3.64
Q9C0G6	0.72
Q9P1F3	37.88
Q6UXB4	89.55
Q9UHX1	83.08
Q5SW96	5.06
Q8IX04	3.28
Q8IX05	19.65
Q8IX01	1.43
Q9Y6H1	33.17
Q8TAQ2	23.24
Q9BZH6	12.55
O60716	171.26
Q9UJX6	1.83
P01112	64.43
P01111	24.24
P01116	15.84
P54577	269.72
O75751	11.2
P68366	182.1
O75643	53.32
P68363	855.03
P54578	122.37
P08473	10.03
Q8N543	2.71
P61970	11.85
P61978	908.51
P52757	9.54
P52756	3.72
Q96LJ7	333.86
O94822	3.42
O94826	195.8
O94827	1.46
O94829	3.17
P23458	7.72
O95425	2.08
Q7Z2D5	2.07
Q8TD30	17.77
P48200	1.63
Q9UF33	1.48
Q16401	146.51
Q9UHI7	2.65
Q9H446	12.28
Q9UNU6	398.78
Q03519	4.53
P61626	145.21
Q14934	1.8
Q9BT17	4.61
Q9H832	31.42
Q8TBC4	19.85
Q12797	161.81
Q12792	106.45
O94776	27.44
Q12791	1.25
P09913	9.42
Q2M3V2	2.99
P09917	2.2
O00423	5.73
P09914	18.59
P62191	156.93
P62195	176.69
Q9UPW8	0.89
Q96G97	3.86
P51589	41.68
Q9NQX3	83.88
P51580	127.82
Q9BV94	2.65
A6NHG4	169.17
P30499	41.87
Q96D21	5.65
P49638	172.88
P61088	300.26
P61086	176.07
P61081	90.28
Q7Z3J2	21.92
O60486	0.98
Q9Y6W5	15.8
Q9Y6W3	3.7
Q96IX5	903.05
A6NEC2	12.77
Q8WTS6	21.06
Q8WTS1	13.16
Q6UX06	29.95
Q6UX07	8.4
O00192	8.2
Q9H0A0	32.61
Q9H0A8	23.64
Q03393	10.47
Q12899	2.76
P08172	3.32
O76062	36.96
O00443	2.7
P05109	1646.4
Q96I34	2.97
Q9P2C4	2.47
O00330	44.37
O00445	4.0
O00339	1.61
P05106	17.73
P05107	18.21
O95168	281.95
O95169	236.41
O95166	12.32
O95167	55.46
P06132	12.62
P06133	402.51
Q13948	2.21
O95163	13.7
Q9BRP0	5.64
Q9BRP4	12.2
P51636	18.76
Q9BRP8	90.85
P0C024	6.37
Q969Y2	3.29
O75923	70.12
P02652	15.35
P02655	30.4
P02654	110.28
O75822	153.45
P02656	126.45
P15880	520.21
P34130	7.65
Q96QC0	6.93
Q9H1E3	62.84
Q6ZU69	1.16
Q6ZU67	2.94
P53985	31.8
Q9Y241	321.31
Q99829	37.76
P22310	517.22
P22314	464.3
Q5SGD2	4.18
P27797	2023.75
Q14320	8.52
P24043	1.0
Q6ISB3	2.41
Q9H4I3	4.05
O43808	9.92
O43809	111.18
Q15811	21.94
Q15819	304.0
Q7KZN9	7.45
P53367	32.88
P53365	22.66
Q14498	75.1
Q9UGT4	5.7
Q8N4C6	0.71
P0DJ07	18.82
Q96JY6	123.63
Q6P2E9	18.1
O75323	45.75
Q6ZSZ6	1.45
O75326	2.29
O00214	9.58
P82921	31.94
P20813	85.34
P20810	76.16
P20815	3.0
P63104	1026.25
O14828	58.24
Q9Y5S9	25.87
Q9Y5S2	21.19
Q9Y5S1	1.99
Q9ULV4	93.42
Q9ULV0	4.82
P61165	56.68
P61160	329.56
P61163	56.35
Q9H9P8	81.82
Q9BZ67	3.35
Q9HCD5	2.62
Q8IWE4	5.0
Q8IWE2	84.72
P05976	154.13
Q9P0Z9	630.58
Q8WXH0	14.43
P55036	138.95
Q08830	160.31
P16260	47.35
Q9BUI4	5.66
P62277	567.71
P62273	102.76
Q03701	7.09
P45984	3.56
P45985	23.24
P45983	10.65
Q9HB58	2.19
Q9HB55	59.49
Q6PI78	6.73
P09104	25.4
P09455	346.3
P16671	25.86
P56211	13.92
P21796	1661.03
Q9BVI4	8.8
Q9NVG8	7.37
P02489	17.23
O14579	109.44
Q96P47	1.8
P49841	7.34
P49840	13.46
Q9NPR9	2.83
Q687X5	59.4
P58546	133.02
Q9H173	3.29
Q9NVA2	48.61
Q32Q12	141.88
Q07283	0.68
Q9H8W4	12.34
O60741	3.47
Q10570	4.26
P20774	182.03
Q9UQR1	3.86
Q5VT66	59.46
Q9Y508	6.68
Q9H3F6	4.84
O60739	133.75
P78537	9.94
P78536	1.84
P17813	29.16
P17812	20.58
O95394	151.89
O95396	10.36
Q8NFF5	21.02
C9JN71	2.79
P14136	3.44
Q9NRC6	0.41
Q9P287	38.14
Q9P281	0.62
Q9P289	18.43
K7EJG0	7.14
Q9UIW2	0.81
Q96LD4	2.47
Q70JA7	1.71
Q9H4K1	4.63
Q6P4E1	14.04
P32189	5.6
Q99490	2.75
Q8TD57	0.73
Q99497	1233.14
P39656	384.91
Q96RI1	3.07
Q86TX2	555.98
Q9H1X3	32.36
Q6N063	4.4
P39059	1.21
Q02083	81.34
Q8N1B4	10.43
P07947	11.28
Q96PN6	0.92
P07237	3261.4
P07942	13.86
Q5JS37	13.44
P16070	21.04
Q9NWL6	4.76
P07948	29.28
P38435	137.13
Q14686	0.78
Q9UNW1	6.23
Q14684	8.13
Q14683	33.53
P16383	5.76
Q6GQQ9	1.85
Q8NB90	1.75
P11766	807.46
Q8N3X1	4.67
P50213	108.31
Q9UPU7	1.56
Q96B26	5.71
P36405	109.01
P36404	8.22
P0C7P4	44.53
P36402	4.12
O60934	4.04
O60936	14.1
P47914	164.26
Q9NXF1	1.62
Q9UBQ7	1885.12
Q9UBQ5	150.58
Q9UBQ0	192.39
Q15796	6.56
Q96CT7	19.92
P12236	704.56
Q8N5N7	65.52
Q07075	32.97
Q9NZT2	28.07
P01024	1003.6
P61201	53.19
O95006	4.86
Q8NA29	2.85
P05161	38.36
P05166	527.4
P05164	272.01
P05165	492.78
Q9UL15	3.35
Q9UL16	5.22
P55263	355.36
Q96I15	210.18
Q9P2E7	1.52
Q9P2E9	1001.23
Q9UL18	15.88
Q15269	1.67
O95149	4.17
O95140	51.62
O95147	15.41
P38117	1515.43
Q9NP61	18.08
Q9H6Y2	12.23
Q6PJT7	8.28
Q7LBR1	54.31
A4D997	2.82
Q9UKF6	4.43
Q1MSJ5	1.18
O43903	39.27
O15382	27.11
P78329	673.46
P78324	24.96
P29558	11.56
Q9Y265	143.43
Q9Y263	57.07
Q9Y262	185.08
Q9Y261	10.65
P15144	380.51
Q9UKY3	5.59
Q01518	439.55
Q17RM4	2.1
P09661	90.54
P09669	488.35
P09668	96.33
Q9UNM6	219.68
Q86VM9	3.22
P00414	63.0
P21589	37.9
O43820	3.69
P02671	859.68
O43823	4.51
P08648	37.44
O43826	173.89
P02679	1894.68
Q5THJ4	1.39
O43772	827.85
O43776	147.16
Q92785	7.77
P10153	112.15
Q92786	14.43
P10155	76.33
Q92783	17.39
P46087	32.65
P46736	33.29
P46734	30.54
Q9Y3C4	8.72
P35579	1384.13
Q9Y3C1	24.29
P35573	1156.18
Q9Y3C8	70.52
P35575	46.61
Q99807	28.26
Q99805	65.64
Q99808	23.91
P42345	9.5
Q96JG6	3.09
Q6YHU6	0.78
O75306	182.8
Q8WUR7	10.49
Q9H078	45.75
Q13098	40.15
Q9BQS7	1.31
Q9BQS8	13.35
Q9NRW7	26.36
Q13325	6.14
P23526	1117.96
P23528	1158.84
P52895	443.58
Q9Y5U9	286.87
Q00839	361.67
Q9Y5U2	5.0
Q9Y5U5	19.79
P98082	2.08
P19388	6.99
O43488	463.6
P19387	5.46
Q9ULT8	14.23
Q15493	500.35
O15540	11.52
Q8IZE3	2.07
P36873	9.28
P36871	2113.06
Q9NU22	1.63
Q8NC51	179.29
Q86U17	3.65
P18440	5.06
Q86U10	33.81
P43005	9.01
Q8WXF7	2.7
Q8WXF1	35.04
P22695	828.55
P22694	12.67
A6NLP5	238.05
Q16740	102.3
P62258	1334.63
P15056	2.03
A6NKD9	3.79
P62253	8.79
P08779	60.22
Q9HB71	91.62
P07148	6120.78
O14639	33.25
Q6NXG1	4.54
P55011	1.3
P55010	94.09
Q9NSB2	7.94
Q9H2B2	3.58
Q9H2B4	13.72
P09471	21.41
Q9NVE7	19.95
Q9NVE5	1.22
O14558	50.05
P37837	1037.2
Q9UP83	12.95
Q9Y696	274.23
Q9Y697	30.75
Q9Y694	17.15
Q8IYX3	3.01
P35749	119.97
Q86UX7	97.11
Q86UX2	4.92
Q9NQA3	17.87
Q9C0C2	107.56
Q00587	12.77
Q9Y4Z0	78.22
P29966	146.77
O00767	8.26
O00764	210.12
O00763	86.22
Q9BZL4	18.19
Q9BZL1	80.27
Q08209	26.3
O75533	90.57
O75531	136.42
O75821	105.97
Q4G0F5	52.57
Q00059	117.9
Q9Y6L6	65.07
A5D6W6	10.65
P42685	2.94
Q9C0B1	23.54
Q9NRA2	3.14
Q9NRA0	4.96
Q8NFH8	4.8
Q8NFH5	19.73
Q8NFH4	9.35
Q13151	111.23
Q13155	131.01
A1KZ92	1.05
P52790	36.38
Q8TF17	2.37
Q9UII2	84.02
Q96Q11	13.69
P62899	426.95
Q2Q1W2	1.84
Q92845	1.88
Q92841	230.78
P98160	184.03
P27169	332.42
P22102	119.37
P22105	92.72
P04040	2617.85
P12821	4.58
P04049	2.35
Q9H444	75.62
O75795	216.18
O75794	4.38
Q9H910	51.3
P00751	134.36
Q9H1Z4	19.17
Q14511	1.85
Q02750	51.33
P49756	10.27
Q53T59	44.1
Q5SQS8	4.37
P09467	3072.79
P60660	678.81
P46940	156.8
Q6PGP7	15.64
P54793	2.6
Q9H4I2	3.28
Q9H4I0	2.71
P19878	8.61
P04437	11.11
Q76KX8	2.22
Q5VZE5	2.05
Q13200	210.56
O60313	73.75
P30101	2099.45
Q9UBS8	6.37
Q9UBS3	262.15
Q9UBS4	156.65
Q06278	1618.81
Q15262	1.06
O00159	159.29
O00154	8.21
P61225	117.12
P61224	387.12
O00151	194.96
P61221	73.9
Q9H0M0	1.63
Q13636	7.95
Q13637	89.2
Q8WTW3	7.87
P59773	7.95
Q13630	148.14
Q8IUD2	41.51
O00487	44.65
O00483	640.71
P05141	871.94
O00488	11.29
P55209	75.61
P55201	2.49
Q504U3	4.27
Q9BRT6	22.53
Q7Z4S6	10.08
Q9BRT2	11.53
Q9BRT3	27.66
Q9NSB4	6.06
Q08J23	35.71
Q567U6	30.46
Q9NP80	1.94
Q9NP81	85.35
Q3ZAQ7	60.43
P15848	14.37
A8MZ26	7.17
Q9UKD2	24.9
P31415	7.6
Q96NA2	38.81
Q9BU23	12.91
A0M8Q6	136.58
Q6IA86	1.85
Q12857	6.13
Q8N2U9	28.14
P28221	12.28
Q8N2U0	292.16
P04233	30.71
P00439	863.22
P35080	68.4
Q5GAN4	9.99
P68133	32.63
O43847	36.5
Q66K14	12.21
Q8WVM7	8.31
Q8WVM0	13.01
Q8WVM8	68.72
O75494	65.76
P35555	45.6
P35557	23.01
Q14185	3.19
P35221	224.54
Q6ZXV5	8.25
P35558	314.82
P10176	248.95
Q9Y530	20.15
O60678	2.86
Q8TER5	2.08
A1L170	5.9
Q9Y3A6	112.13
Q9Y3A5	155.04
Q9Y3A4	21.22
P23193	70.69
Q9Y3A0	5.78
Q7L5N7	8.55
Q7L5N1	33.2
Q96JE9	3.97
Q96JE7	17.65
O75674	6.47
O75677	4.83
Q8IVM0	9.58
P52630	14.01
P62280	781.74
P23443	8.7
Q8IVM8	27.59
Q9BQQ3	3.69
Q9P1Q0	1.55
O43719	11.99
Q15858	0.76
Q96DH6	4.87
Q96D53	2.86
Q6GMV3	21.71
Q6GMV2	3.62
P23508	1.84
Q99758	0.9
Q99757	46.65
Q99755	5.48
Q99750	6.85
P35222	222.69
Q9ULR0	5.2
O75493	4.73
Q9HCH5	1.63
Q9HCH3	7.83
Q8IWA4	14.28
Q8IWA5	2.14
Q9H9T3	13.78
Q8IZC6	0.92
Q9NZ71	1.28
P03951	7.34
Q16584	1.85
Q8WXD9	1.14
P33316	45.2
Q5T4D3	4.13
P16220	4.68
Q6DKK2	8.08
Q53H47	2.24
P04844	611.5
Q96KA5	35.83
Q16762	1821.53
Q7Z569	2.55
Q0VF96	34.52
Q9Y3A3	26.36
Q9Y2B0	431.89
Q9NWU2	6.41
P47895	30.57
P47897	187.55
Q9HB90	19.39
O14618	29.53
O14617	19.77
P55072	593.38
Q9P0V9	26.09
Q9H2D1	14.53
Q9H2D6	2.62
Q9BYD6	23.24
Q9BYD3	19.65
Q9BYD2	34.03
Q9BYD1	74.61
P17174	2065.83
Q9Y4X5	5.35
Q9H8S9	34.2
P14854	235.61
Q9NQG1	18.12
Q9NQG5	60.43
P05089	3106.1
O00743	29.28
Q93084	4.51
O00748	577.24
Q93088	3426.88
Q7Z3Q1	9.99
P09417	871.27
P42892	7.87
Q8TAK5	3.53
Q9Y548	5.0
Q9Y6N7	0.95
P02730	419.58
P08236	259.36
P08238	692.17
P23297	16.26
Q9Y547	21.05
Q1KMD3	80.62
Q9UJ04	3.8
O95825	4.43
Q96AZ6	8.42
Q15119	11.15
Q15118	10.45
Q6PK18	4.81
Q3V6T2	1.59
O15226	4.42
O15229	153.67
O15228	2.22
Q5VWQ8	1.3
Q9H0V9	25.92
Q8TF72	0.79
Q8TF71	6.18
Q7RTR2	2.99
Q7RTR0	1.51
Q5K4L6	15.27
Q9UK41	13.49
Q92688	107.25
Q6P9B9	3.18
Q32MH5	1.41
Q92685	23.95
Q6P9B6	3.36
P27144	896.06
P28070	328.91
Q96QZ7	5.21
P04062	40.21
P26368	86.56
P04066	83.07
P54802	35.45
Q9H936	109.47
Q5T1B0	1.45
Q9H939	4.41
Q14532	3.41
Q14533	6.25
Q14534	26.83
Q9NWH9	4.39
P19022	89.36
P62424	897.78
P07900	1517.52
Q9UHC1	1.05
Q9UNS2	39.41
O94886	9.31
O94887	7.15
Q6ZMU5	3.25
Q15393	108.8
Q6VEQ5	6.82
O14841	128.53
Q9P2N5	2.89
Q6NSJ0	4.23
Q15397	2.33
Q6NSJ5	1.9
P58004	3.15
Q9UPY8	5.36
O75116	25.59
O75110	2.89
O75113	1.71
O75112	2.22
Q9UPY3	5.49
Q9UPY6	3.1
Q8NEZ2	7.74
Q8NEZ5	7.71
O60337	1.67
P33121	2552.78
O60333	2.52
Q9UBU6	23.32
Q9UBU8	16.54
Q9UBU9	4.89
P61026	197.85
P61020	166.41
Q06210	269.89
Q08AM6	19.5
Q14CX7	10.69
O00170	13.67
P12270	48.13
P12277	36.2
O00178	2.37
P55198	1.53
Q15287	20.06
Q15286	81.95
P55196	33.18
P61247	784.74
Q13618	34.72
Q13619	43.04
Q13613	2.3
Q13616	40.17
Q13617	39.44
Q9NS18	9.5
Q9P2Y5	2.19
Q96N23	1.86
Q96I59	19.03
Q0VDG4	3.53
O95104	2.73
O95881	17.86
Q9HC36	21.89
P51690	117.54
P51692	22.9
Q5T440	67.43
Q9H6U8	7.37
O15031	19.23
Q9H6U6	1.69
Q9BRZ2	12.63
Q7Z4Q2	2.3
Q9HC38	261.29
Q9NZP8	12.82
Q9NSD4	3.54
Q9NSD9	90.8
Q9NZP6	2.84
P38405	19.36
Q8N6L1	224.22
Q9P032	33.86
Q9P035	258.32
Q96ST3	4.73
Q96ST2	1.87
Q96QE3	0.83
Q9Y223	73.57
P16591	1.81
Q12874	99.1
Q9Y224	110.0
Q9HBI6	176.81
Q9HBI1	8.22
Q12879	1.04
Q00688	347.45
P60228	141.24
P04217	164.4
P04216	19.13
P02741	527.48
P09622	424.25
O43865	20.37
O43866	9.01
P46776	486.79
P46777	658.89
P46778	471.2
P46779	403.0
O75477	171.85
O75475	11.42
O60656	392.04
P28715	2.58
Q96JC1	3.37
P08574	450.34
P08575	24.46
P08572	82.92
Q9H8L6	6.57
P08571	81.32
Q13057	126.59
P23468	0.8
P01906	6.12
P08579	67.3
Q6UB35	1.62
Q14703	1.46
P54619	205.4
Q9Y5Y5	39.96
Q9Y5Y7	29.23
Q00872	29.41
Q9Y5Y2	11.9
Q99733	68.09
Q99735	608.87
Q8IZA0	5.93
Q7Z7K6	51.55
P05997	8.29
Q9NZ52	2.19
Q9HCN8	116.3
Q86Y07	5.9
O43193	3.78
Q6Q759	0.68
P82980	139.97
Q16563	18.01
Q86SQ9	8.87
Q86SQ4	2.51
Q86SQ0	14.48
Q9NW81	11.72
Q6DKI1	17.95
P19256	6.09
Q8NCR9	20.32
Q9NUY8	10.95
Q9UFD9	0.95
O14981	0.83
O14980	75.07
Q96KC8	26.85
Q9ULP9	29.99
Q16706	51.01
Q9BY77	18.61
P35475	2.36
Q5VT06	5.87
P07101	2.93
Q9Y2L9	2.12
Q9UPZ3	1.35
Q9NWW6	14.79
Q9Y2L5	1.07
P07108	1058.81
P50224	50.16
Q9Y2L1	12.59
O14678	2.5
Q8N8A6	2.37
O14672	20.39
P50579	71.35
P55058	3.13
Q9UNN8	6.43
Q96K62	19.06
Q9UNN5	11.6
P50570	55.97
Q9P0T4	7.79
Q71RG4	5.08
Q96E40	6.82
Q9NVI7	105.75
Q9NVI1	2.3
Q5S007	1.2
Q9BVS5	9.72
Q8TBY9	1.32
Q9BYB0	1.84
O14511	1.87
O14513	1.65
P17152	95.55
Q15542	1.98
Q6P587	227.85
Q8WWH5	4.6
Q07954	85.66
Q07955	333.84
Q5T0N5	7.35
Q9NQE9	50.55
Q9Y2Q3	1533.83
P20711	41.35
Q6R327	3.57
Q4KWH8	4.53
Q9H2F3	46.0
Q13867	55.48
P57105	226.15
P17568	104.58
Q96AX1	7.61
P24386	2.33
Q9H0T7	51.11
P43246	3.28
P43243	132.33
O15294	8.8
P83111	180.87
Q7RTP6	2.29
Q9H3H5	14.89
Q9H3H3	25.08
A8MX76	2.16
Q9UIM3	4.49
Q9H3H9	6.64
Q92800	2.01
Q4G0J3	17.95
Q92804	36.06
Q92805	9.73
Q02539	337.68
Q8WYA6	7.9
Q14554	264.8
P04003	289.15
Q14558	78.37
Q86TB9	5.92
P04004	281.11
Q6NXT4	6.71
Q9H488	54.63
Q3YBM2	41.32
Q9NRM0	5.84
P54868	3855.45
P41247	30.65
O43505	3.64
O43504	35.68
O96008	49.79
O96000	173.37
Q9UHA4	75.55
O96005	65.37
Q6IQ22	44.07
Q9H4M9	141.46
Q53FA7	28.96
Q8N3R9	4.44
Q13263	85.23
P54289	2.75
Q13268	11.46
O75131	122.66
P04843	915.56
Q02790	307.92
Q8TEM1	25.92
P61006	115.96
P53621	397.99
Q9UBW8	39.66
Q9UBW5	11.09
A8MSI8	18.3
P61009	143.55
Q96BY2	4.34
Q96BY7	0.74
Q15738	163.75
Q96BY9	9.28
P40199	9.22
O15446	3.12
P54136	166.11
Q9H5Q4	30.26
Q9NYP7	19.44
P14550	1134.98
Q6UVY6	2.46
O00115	8.67
O00116	68.22
A6NEK1	4.47
A4D1U4	3.33
P38646	1457.33
Q9H0I2	4.43
Q9NWU5	50.79
P30419	87.57
Q9NS37	13.86
Q504Q3	2.53
A2VDF0	204.62
Q96N05	8.16
Q96CM4	28.66
Q96CM8	108.27
Q9NWU1	35.12
P48507	106.06
P48506	155.58
O15050	0.51
Q9H6W3	2.41
Q9Y6Y8	41.69
Q03468	3.06
Q6ZRI6	1.55
P48509	36.37
Q9BRX8	399.46
Q9NZN4	134.62
Q9NZN5	15.84
Q9NZN3	123.95
Q7Z4W1	3779.64
Q9BRX2	7.91
Q86WC4	4.6
Q9NZN8	8.61
Q15293	136.73
P37198	19.33
P12259	2.04
Q2TBE0	1.65
Q9P016	20.02
Q9P015	35.93
P56192	89.91
P56199	182.21
Q9HBK9	53.41
Q9P1Y6	0.96
Q9BU61	33.72
P07738	51.45
P07737	2358.58
P09601	193.38
P04275	5.55
P04278	3.92
P00966	3225.57
Q6IB77	1370.23
Q8TDV5	4.65
O60518	4.13
P07384	266.01
Q9NTX5	203.6
P50552	60.29
Q9UKV5	18.8
Q5W0B1	2.11
Q9UNL2	170.88
P53814	6.93
Q8WVI7	13.89
Q9Y3E2	12.0
Q9Y3E1	91.0
Q9Y3E0	77.84
Q9Y3E7	20.52
Q8IYI6	6.29
Q9Y3E5	134.05
O75452	961.66
P14317	50.81
P14316	4.36
P14314	577.29
Q8IUC4	4.46
O75636	15.64
Q92499	120.69
Q8WUX9	6.74
Q9H019	5.37
Q9Y4A5	0.78
P08559	190.16
Q5CZC0	0.22
Q5SNV9	1.06
P20290	154.75
P20292	18.89
Q7KZF4	575.14
Q9P1U1	25.22
Q0IIM8	4.0
O94925	2.33
O94927	9.57
O94923	4.89
Q6ZQX7	3.45
P51970	76.78
O94929	39.68
Q14764	157.15
Q99715	19.05
Q99714	1637.35
P14784	2.81
Q9NPD3	6.5
P14780	59.03
Q9NPD5	90.86
Q04637	124.13
P28845	1831.68
Q96JA1	1.44
P26447	160.87
P26440	596.21
Q8NFU7	0.73
Q9NZ32	11.11
Q9HCL2	40.23
Q16543	81.0
Q16540	19.29
Q9H3S7	7.67
Q6GMR7	14.71
P26196	50.43
P11441	28.95
Q92963	6.82
Q9BUQ8	23.33
O43314	3.66
O43315	38.2
O43312	10.43
O43310	7.61
Q53H82	298.03
P04808	8.11
Q96FV2	55.22
Q96FV9	4.53
Q9BY50	151.29
Q9BW72	44.63
O14653	76.16
Q6IAN0	53.73
O14657	13.55
O14656	31.76
P49593	34.42
P49591	201.36
P49590	21.11
Q96MW5	17.55
Q17RC7	30.06
Q7L1V2	2.9
Q9UNH7	58.83
Q8TBG4	6.16
P30622	25.37
P20908	2.8
P30626	142.44
Q8NHY5	5.54
Q32P44	12.61
Q9C0I1	7.96
Q9BXX0	4.45
Q07973	2.91
A6NHR9	0.76
A6NHR8	3.67
Q7Z3U7	7.2
Q6UXH1	13.47
Q9H2H8	9.45
Q9H2H9	6.35
P02776	158.16
P02774	155.45
P02775	49.38
Q9HAT2	50.0
Q15155	40.86
Q15154	12.01
P34059	26.6
Q9UJ41	6.48
O95861	133.56
P57081	3.77
O95865	127.3
O95864	6.56
O15269	3.25
Q9H0R3	22.15
P35908	461.37
O15265	3.59
Q9H0R4	120.22
Q7RTV0	41.48
Q7LGA3	4.1
P39019	1078.72
Q8N6H7	51.41
Q68CK6	613.82
Q9H3N1	70.14
P56385	518.93
Q92820	496.02
P00558	1968.43
Q9Y6B6	359.74
Q9BZF1	11.86
O75843	1.97
Q9Y587	10.09
Q9Y584	17.13
Q9BZF9	3.17
O75845	4.86
O75844	71.97
Q6VN20	10.2
Q7Z6K5	13.75
P09012	60.32
Q9Y230	90.53
Q5VTR2	10.56
P12883	285.24
P12882	31.52
Q9H974	11.02
Q5J8M3	51.24
P00738	2185.59
Q14571	31.74
Q9H1P3	3.11
Q14573	0.56
Q9NRK6	28.17
Q9BQ69	57.97
P54840	298.62
A1L0T0	136.48
Q9UHG2	6.27
Q9UHG3	305.87
P41223	10.09
P41227	45.38
P41226	21.5
P41229	0.98
P10515	109.38
Q9ULK5	2.87
Q9Y239	4.78
P49207	258.07
P46926	105.01
Q92530	51.77
Q9HBH1	50.8
Q92538	19.94
Q92539	1.73
Q9BQ61	55.87
P20336	6.87
P27105	1302.76
Q70J99	1.39
Q02809	20.53
P20339	108.75
P0CB38	8.2
Q96RT1	13.0
P11277	72.38
Q13247	21.66
O75153	93.56
O75152	5.77
Q13243	32.92
Q13242	80.59
P11279	149.05
Q75N90	0.57
P31431	23.78
Q15717	133.07
P10909	264.67
Q96BW5	57.15
Q8NB16	3.15
P08237	28.19
P11055	0.77
O15466	3.91
P18754	76.29
O15460	2.82
Q53TN4	10.84
Q9NYV4	2.09
Q9NYV6	2.31
Q9UJS0	1190.9
O00139	2.15
P61289	40.69
P55157	877.05
A4D1S0	4.0
A4D1S5	21.09
S4R435	10.52
Q9BX93	31.68
Q9BX95	10.48
P21266	226.03
A6NH11	10.84
P84103	159.72
P84101	24.86
Q460N5	10.15
Q96I99	833.46
P00441	2572.47
P31749	30.8
Q96N66	13.0
Q96N67	2.83
Q86WA6	316.25
P33527	1.0
A3KN83	3.33
Q86WA8	29.01
Q9HC78	4.23
Q9NZL4	17.38
P16435	1174.23
Q5T481	1.28
Q01970	8.65
P09327	111.03
Q7Z392	5.32
Q96NK8	48.75
Q7L190	5.11
Q9HBM0	1.93
Q9BR39	2.31
O95822	190.23
P07711	36.53
P02545	1378.9
P02549	63.09
Q12830	1.01
P29084	15.57
O00391	2.08
P40222	27.71
O00399	8.27
P49789	30.52
P40121	49.01
Q9NTZ6	7.04
Q9Y2U5	4.92
P16885	5.8
Q9Y2U8	5.15
Q9NQT8	24.53
Q8TDX5	9.02
Q8TDX7	19.86
A6NDU8	5.1
Q9UMS0	6.03
Q9UMS6	14.6
Q9UMS4	102.58
P35244	12.64
O75431	57.63
O75436	103.36
P35241	242.67
O75438	24.64
O75439	82.03
P35249	12.97
P43034	73.56
Q9NVP1	63.69
Q5BKU9	10.82
P16284	16.63
O60610	105.58
O60613	77.13
P17931	26.24
P17936	5.42
Q8N9B5	1.54
Q9GZQ3	6.95
P01019	206.53
P01011	1058.3
Q13011	1321.79
Q8IYE0	3.04
Q13017	1.99
Q9H8H3	1162.93
Q13724	291.11
O75387	36.27
O75380	87.56
O75381	29.12
O75382	2.12
P52655	8.26
Q8IVG5	0.93
Q9Y4G6	5.05
Q8TCZ2	6.13
Q8N465	27.36
P53384	4.97
Q66K74	13.76
Q9NPF4	37.67
Q9NPF5	3.24
Q9BSE5	182.18
O94906	25.67
O94905	222.11
O94903	135.67
O94901	3.81
Q8N684	19.77
P15428	266.37
P19474	9.5
P26640	183.16
P26641	746.08
Q16527	32.74
Q8IWJ2	4.38
Q9H3Q1	9.03
Q14031	3.14
Q14746	14.43
P60709	7031.7
Q14032	737.25
Q14749	1440.65
Q53S58	5.08
Q9NUU7	28.6
Q6FI13	97.35
Q96KG9	49.76
P49411	547.04
P49419	1070.45
Q7Z7G8	0.38
Q5U5R9	3.89
Q9Y2H1	6.35
Q9Y2H2	1.34
Q9Y2H5	20.5
Q9Y2H6	19.51
Q9Y2H9	2.01
Q9NWS8	36.56
Q9P0P8	24.56
Q3LXA3	1725.54
Q96MU7	2.03
Q9NVM9	2.14
Q9BYN8	14.17
Q9NVM1	18.67
Q9NVM6	9.89
P20929	0.67
O95747	70.95
P01833	2.06
P01834	4343.94
O95749	4.92
P69905	20763.52
Q9BZE2	6.16
P05067	11.84
Q68DD2	1.8
P05062	5557.79
O00273	4.7
Q9UBL0	1.92
Q9UBL3	7.49
Q6UXN9	19.56
Q13823	4.1
P03886	48.1
Q13825	67.44
Q00403	4.92
Q5T013	39.49
Q5T011	0.91
Q9H2J4	6.21
P98196	1.32
O95336	336.24
Q9UQ13	13.22
Q15172	21.37
Q9UJ68	124.71
O15243	12.03
Q49AH0	16.36
O15247	42.34
O15245	70.12
Q8IYB4	2.46
P59551	4.72
Q12996	10.34
Q9NXS2	7.99
Q9Y618	0.62
Q9Y619	351.06
Q9Y617	793.5
Q08752	33.66
P32929	685.98
Q01105	153.66
Q01101	3.24
Q9UIA9	30.46
P18669	1167.17
A8MX34	4.87
Q9UIA0	3.76
Q5U5X0	71.74
P51841	1.37
Q4G0N4	916.05
Q9H3L0	5.21
Q969J3	15.44
Q9Y6D0	64.45
Q9Y6D5	31.41
Q8TAM6	10.46
P02753	454.72
P08709	3.32
P08708	761.12
P29692	385.8
Q9BZD2	3.31
P0DI81	10.43
P10071	2.02
Q6EMK4	4.78
P35659	52.25
P35658	10.44
Q9H993	50.28
P27694	42.79
P27695	294.28
P41208	8.69
Q9UHE5	120.52
Q8TD55	12.86
Q86VX2	15.22
Q6P387	3.95
P23368	55.04
P52272	524.43
Q96I13	3.62
Q9HAS0	7.69
O43707	1773.27
Q9UEE5	3.68
O75170	26.15
O75175	4.19
Q9H227	6.39
Q13228	2134.63
P11215	10.79
P11217	49.47
P11216	376.06
Q15369	110.01
O60393	2.32
Q8N142	75.16
Q8N148	4.91
Q15776	2.61
Q8WUA2	5.99
Q9BT30	7.0
Q8WUA7	2.9
Q99523	3.73
O15400	46.02
Q8NB37	7.36
O15405	2.71
Q5F1R6	13.83
Q9UG22	4.51
Q8N3V7	13.8
Q4VC05	7.52
Q9NYT0	4.29
Q5KSL6	1.21
Q7L4I2	3.39
Q9UJU6	149.44
P50416	283.39
Q9Y5B0	4.93
Q8NDV3	1.19
Q9Y5B6	3.27
Q9Y5B9	30.04
Q9NX08	24.4
P38606	170.76
Q9NX00	26.18
Q58WW2	1.78
Q16881	108.86
P33897	20.68
Q7L7X3	1.48
Q03426	109.1
Q8WZA1	2.28
Q8WZA0	7.98
Q9HD26	20.37
P07902	166.14
Q6TFL3	1.12
Q9HD20	11.61
Q9H6S3	63.83
Q9H6S1	3.82
Q9H6S0	2.14
P48547	2.96
Q01954	1.55
Q01955	1.06
Q9NZJ9	16.89
Q07507	57.16
P16452	42.32
Q9NZJ6	37.6
Q9NZJ7	136.25
P16455	87.17
Q9Y5X1	48.94
P10586	8.86
P13164	159.69
Q9Y281	347.87
Q5T4S7	16.44
Q9Y282	11.91
Q9Y285	98.33
Q9Y287	11.31
Q9Y286	10.06
Q9Y289	32.49
P52815	16.07
Q9ULG6	3.93
Q96C12	3.51
Q96C11	71.48
Q96C19	141.35
P0C2W1	5.6
Q9Y2W1	45.78
O60551	15.05
Q9Y2W6	2.76
Q9P0M9	42.69
Q9P0M6	77.08
Q5TZJ5	1.15
Q9Y3I1	5.86
Q8NBK3	4.23
Q5VU43	2.59
O75410	1.95
Q9NVV0	5.28
Q9NVV4	5.18
Q9NVV5	48.62
O00515	51.04
Q6DN90	3.17
O00519	8.16
P17661	19.22
O95292	214.19
O95295	46.13
O95298	241.79
P01031	40.99
P01034	10.86
P08514	6.05
Q9Y4E6	1.05
Q8TCD5	44.01
Q9Y4E1	2.37
Q9Y4E8	22.89
P08519	7.19
Q7Z6I6	1.45
Q8IVE3	1.02
Q8TE77	2.35
Q8TE73	0.32
Q6UB99	4.03
Q9P1Y5	7.64
Q86U06	3.52
P46063	35.03
P46060	94.48
P42765	3305.83
P42766	330.06
P98066	5.5
Q86YA3	0.72
Q9NPH2	14.04
O94964	1.07
O94966	4.71
Q8TC12	353.85
P18124	504.73
Q96JM2	0.6
Q9UI14	58.15
Q9UI17	579.37
Q9UI10	56.62
Q9UI12	30.69
P24666	228.17
Q9HCP0	3.54
O43681	61.9
Q6NUN0	174.81
O43684	92.33
O43687	14.96
P22792	14.16
Q6ZWH5	1.29
Q14019	129.09
Q5VVJ2	1.8
P60763	8.02
Q14012	37.35
Q14011	91.98
A0PJX4	6.64
Q9HA65	28.3
Q9HA64	14.95
O14929	10.39
Q9GZS3	45.97
Q9GZS0	2.49
Q9GZS1	3.18
O14920	3.96
Q9ULZ3	23.79
Q96C24	13.54
Q96FJ2	82.86
O60234	20.42
O60231	1.44
Q60I27	3.18
Q9NT99	2.24
Q9Y2J2	11.37
P47813	31.26
Q96MS3	4.45
Q8N1Q1	11.65
Q9UHX3	1.9
Q6PIY7	3.06
Q15691	102.92
P35625	14.21
P11150	6.14
P51151	30.04
Q3SYG4	1.73
P22894	25.69
P22897	92.99
Q63HN8	10.44
Q15526	46.32
P25325	1209.76
P49888	102.55
P01859	625.89
Q13596	113.25
Q13595	15.74
P13807	30.71
P13804	1682.02
P01857	2883.64
Q9UBN7	32.63
P62714	9.64
O00217	108.54
Q96BN8	12.78
P48681	5.8
Q9NV31	7.85
Q9NQ48	29.75
Q3C1V1	8.35
O95352	8.8
O95359	0.55
Q9UQ35	9.16
Q9UJ83	59.21
Q86UB9	62.32
Q9Y639	15.46
Q12979	1.76
Q12972	22.29
P62837	122.99
P62834	122.59
P25815	82.46
Q01167	2.48
Q04446	392.19
Q9UIC8	4.47
Q5U5Z8	1.65
Q56VL3	283.28
P09234	19.72
P04350	774.86
Q969H8	273.79
Q9BZZ5	81.4
Q9BZZ2	5.64
P08729	130.18
P08727	112.78
Q13496	26.98
Q8TAC2	8.26
Q9GZN1	7.49
Q9UKY1	1.75
Q9UKY7	56.47
Q96QR8	20.64
Q9GZN8	8.89
Q9H3P2	5.99
P43487	103.02
Q07866	10.51
Q07864	0.66
Q9Y6N5	566.48
Q6P1L8	64.53
P35637	122.0
P42574	5.43
Q9H7Z6	3.27
O75995	4.12
Q92572	31.57
Q9NVU7	6.44
Q92576	0.75
O43790	54.5
Q92575	48.34
Q9HAU0	4.04
E7EU14	8.74
P08185	19.0
Q6IQ55	4.99
P08183	31.52
Q96I36	51.98
O75764	13.2
Q5JSH3	16.92
Q96HD9	34.07
Q96HD1	3.77
Q9UPN3	25.99
Q13201	8.69
Q9Y3R5	0.66
Q5T0D9	5.68
Q13206	1.7
O75191	117.52
O75190	4.75
O75192	30.25
Q86WV6	4.07
P11233	50.95
Q9BWV1	1.42
P63000	423.82
P11234	95.26
Q8N163	55.01
Q15758	9.09
Q15750	18.83
O15427	3.47
P14406	383.36
Q9NYJ1	50.78
Q99541	292.57
Q6ZW76	2.38
Q9UG01	0.87
Q9UEG4	1.78
Q96RP9	86.31
Q06033	32.64
Q96RP7	3.17
P01040	124.68
P21953	135.24
A7E2S9	6.01
P07327	1252.27
Q9NX20	6.03
Q02153	9.73
Q9NX24	59.83
Q5TEZ5	22.25
Q96CW5	4.97
P13498	89.79
Q9BRB3	2.04
Q03154	1061.65
P10619	53.54
Q8NI60	40.53
Q70HW3	5.84
Q8N5Z0	123.16
O14772	2.58
O14773	327.66
O14776	9.69
Q9UJW0	13.11
Q96IJ6	114.87
O95049	8.34
P56134	565.58
Q9BU89	10.43
Q9NUN5	2.79
C9J6K1	30.57
Q9BR76	91.72
Q658Y4	16.44
Q6ICG6	3.75
Q16853	133.78
Q9ULE0	1.4
Q96C36	10.2
Q9UGP4	11.88
Q9BTT0	50.3
Q9BTT6	2.9
Q71U36	1789.3
Q9Y2Q9	65.84
O60828	5.63
P30038	1967.64
P30039	982.16
O60825	14.67
Q59GN2	515.42
P17706	3.54
Q96PD5	2.76
Q9P0K9	4.6
Q96EY8	294.35
P18859	122.64
Q6NXT1	5.28
Q96EY7	26.2
P13639	1180.24
Q96EY1	49.02
Q9P0K7	17.15
Q6NXT6	10.68
Q6IQ23	16.19
Q8WXE1	2.0
Q6IQ21	2.14
Q6IQ20	3.76
P78417	1561.82
Q9NVT9	5.48
Q9C0D9	15.17
P28799	2.7
Q2M389	17.6
Q15036	12.97
Q15035	3.96
Q15031	10.09
O15162	9.79
O15160	13.11
P08069	1.11
Q6IPR1	31.58
Q9BXM0	1.11
Q8TE59	1.28
Q5JPE7	56.59
P50613	4.39
P62993	88.46
P62995	30.57
P0DJI9	101.44
P0DJI8	760.54
Q92747	45.39
Q86U28	10.41
Q92968	3.89
O76094	103.46
Q9NPJ3	389.83
Q99959	54.58
Q9NPJ6	5.77
Q9UI32	95.69
Q9UI30	24.16
Q6UWP7	31.56
Q6UWP2	18.18
A6NMN3	5.34
Q7Z6K3	3.7
O75691	2.69
Q14258	132.92
O75694	15.47
O75695	25.96
Q14254	255.12
Q14257	23.26
Q02388	1.74
P27338	1068.34
Q8IU81	5.56
Q8IU85	7.99
Q68CP4	4.68
Q68CP9	1.74
Q9H3U5	13.4
Q9H3U1	11.65
P49189	714.14
Q702N8	1.73
Q14789	23.26
O14907	12.49
Q9NUQ8	32.26
Q9NUQ9	102.69
Q9NUQ6	30.57
Q9NUQ7	57.97
Q13330	8.49
Q9NUQ2	32.62
O14908	14.27
Q9HC35	187.41
Q16787	0.47
P15090	23.31
P49458	84.81
Q7Z7C7	4.65
Q9ULX3	3.67
Q9ULX7	9.11
Q9ULX6	7.18
P49454	1.4
Q86Y82	70.47
O60216	31.1
O60218	509.53
Q8N1S5	43.61
Q99961	57.88
Q9UNF1	2.64
Q9UNF0	92.32
Q13415	1.76
Q7Z2W4	38.89
Q7Z2W9	37.59
Q13418	123.43
P11171	65.42
P11172	105.11
P11177	139.9
P63218	210.95
P20962	461.17
P01876	583.07
P01877	361.59
P01871	306.13
Q13576	710.51
O95707	6.75
Q13573	16.74
Q13572	3.76
Q8NE71	53.64
Q9BWM7	23.84
Q3MIX3	5.21
O00231	209.6
O00232	149.14
O00233	132.04
P05023	568.23
P05026	220.15
Q7L622	2.13
P55327	84.61
Q8TBA6	35.12
Q9BYJ9	2.82
Q96AP7	4.17
P31040	1007.56
P31512	48.74
P31513	1017.17
Q6ZVM7	3.09
O95373	70.32
O95372	48.54
Q9BV40	104.97
Q9BV44	18.05
Q86UD1	5.59
Q86UD5	8.94
Q12959	27.32
Q9C075	7.13
Q9NXW2	8.2
Q12952	4.7
Q12955	2.5
P62851	636.58
P18621	593.21
P62854	329.48
P62857	503.14
Q14966	4.66
Q9P265	12.0
Q96CV9	13.01
Q9P260	1.27
Q92882	50.48
Q969N2	2.61
Q92887	26.58
P09211	359.86
Q92888	16.74
P51808	26.26
P51809	20.64
Q9Y6X6	0.83
Q9Y6X8	1.86
Q5JRX3	71.58
P02790	869.65
Q3SXM5	4.64
P02792	3144.37
P02794	1470.74
P04083	212.67
P04080	369.54
O95954	1976.46
Q9GZL7	7.19
P46459	149.53
P01266	2.25
P35613	65.03
P35612	10.61
P35611	33.9
P35610	2.65
O76095	10.49
Q6P1N9	40.84
Q96FZ7	51.13
Q6P1N0	14.83
P32969	478.58
Q5JTV8	80.26
Q92556	6.14
Q92552	28.82
O75208	101.44
P30838	6.81
Q9HAW8	306.86
Q9HAW9	28.71
Q9HAW7	31.54
P30837	737.61
P28161	6.66
P49257	414.29
Q8N766	39.9
Q09666	269.38
Q9H267	21.87
Q14444	52.53
Q8WU67	7.46
Q14449	8.44
P25490	30.69
Q9H269	10.87
P63027	121.91
P14625	1747.38
Q8NET6	4.41
Q8NET4	1.19
Q9Y3P9	7.04
Q53T94	2.49
Q8N108	2.96
O43583	62.11
Q9UH99	74.75
O95571	221.54
O95573	63.99
P14621	92.38
Q8WUM4	205.43
Q8WUM0	22.61
Q99567	10.27
Q9BQB6	75.25
Q99569	5.2
Q9NYH9	2.44
P22059	115.09
Q9UG63	16.84
Q9Y6A4	7.53
Q5TCH4	2.9
Q8IXH7	7.77
Q9NX40	136.6
Q9NX46	26.42
Q9NX47	54.92
Q8IUH3	3.21
P07305	550.85
P07306	310.12
P07307	117.31
Q49A26	14.16
P10635	362.93
Q06413	10.05
P10632	617.59
Q6P996	94.96
Q9HD67	2.17
P15289	41.61
Q01995	462.75
P62081	550.39
Q96F85	27.59
P50454	166.2
Q96A35	13.77
Q96A32	36.08
Q96A33	168.84
P50452	96.26
P50453	80.9
Q8NF37	2.9
A6PVC2	1.81
Q9NUL7	5.76
Q9NUL5	20.72
Q9NUL3	10.95
Q9P2S2	0.93
Q6ZRQ5	1.21
Q9ULC3	6.43
P34931	2.44
Q9ULC4	141.86
Q9ULC5	316.01
P51149	657.19
P51148	365.21
Q9Y2S6	121.37
Q9Y2S7	53.05
Q9Y2S2	992.77
O60841	35.83
P30050	827.84
P11940	427.17
Q9UMY1	11.66
Q9P0I2	22.91
Q9UMY4	86.94
O14975	619.64
Q86W42	13.71
P13612	1.49
P13611	1.84
Q96NM4	9.97
O15217	6.67
Q9NVZ3	48.42
Q96BQ5	5.56
P20160	191.39
Q15018	21.94
Q15019	128.17
Q96S59	4.41
Q96S52	2.78
Q15011	3.92
Q7L0Y3	36.23
Q96S55	4.76
Q9BTV4	45.87
P45974	132.51
Q9BTV7	3.28
O15144	244.8
O15145	325.57
P45973	15.44
A6NGQ2	9.99
Q76FK4	1.3
Q92769	9.29
Q86U42	36.66
Q92945	187.68
Q86U44	5.32
Q92764	13.62
Q99798	754.98
P32754	1855.21
Q02410	1.85
Q9P107	3.22
Q8IZV5	49.54
Q01469	11.31
Q05516	4.62
Q6PCE3	2.44
P10398	35.53
Q9H098	77.17
P16930	1139.22
Q9H094	2.35
O43172	26.41
Q15907	406.25
O43175	569.22
Q96LW7	26.81
Q5T6J7	25.01
Q6ZWL3	8.47
Q9BSC4	2.14
Q9NPL8	26.65
O14964	13.93
O14967	4.9
O43399	107.99
O43396	111.69
O43395	13.27
O43390	220.02
Q9GZW8	6.56
Q2TAA2	37.29
Q2TAA5	12.33
P09874	94.04
P09871	78.29
P11388	1.97
Q96FN4	19.62
Q53SF7	42.95
Q8IWU4	4.21
O60271	25.81
Q96PQ0	1.34
Q6PIU2	37.44
Q8WXX5	28.67
Q8WXX7	1.23
Q8WXX0	0.37
Q15654	10.23
Q15653	4.54
Q15650	5.19
Q15651	48.24
Q13435	75.3
Q7Z2Y5	0.96
Q13439	19.71
O95490	1.05
O95497	93.27
P63279	95.26
Q6DD88	121.83
P11117	92.25
Q92879	13.18
Q13557	69.99
Q13555	5.48
Q13554	14.16
O95721	53.29
Q92692	23.76
P01893	4.19
Q8NHQ1	2.46
Q9NWY4	4.35
Q969G5	74.3
Q3SY69	1.69
P37059	513.16
Q6PD62	3.85
Q9UQB8	50.72
Q13882	3.31
Q13885	285.26
Q13884	200.89
P33240	14.07
P33241	18.45
Q96BJ3	14.69
Q9NQ84	21.35
P51798	5.8
P48643	212.72
Q15800	68.19
Q8NBI5	15.73
Q9NQ88	34.23
Q9NV70	10.09
Q9UQ72	4.62
Q7L211	8.9
P18428	154.23
Q12933	3.07
Q12931	291.2
Q9Y678	308.94
Q9Y679	32.35
Q9NQS1	4.45
Q9BV23	49.22
Q9Y676	23.34
Q9Y672	17.69
Q9Y673	92.85
Q9UBB6	6.52
Q9UBB4	28.86
Q9Y4C2	6.72
Q9UBB9	3.54
P62879	238.93
P62873	133.08
Q9UIG0	5.02
Q96CX2	76.87
Q969L2	53.81
P02042	2051.27
Q8TAG9	9.15
P35813	96.98
P0C854	7.27
Q8WZ42	5.93
P63208	128.7
Q9H1H9	0.85
Q8NFV4	44.5
Q8WYK0	22.12
Q5VV41	2.14
P27986	10.26
P27635	376.46
Q07820	9.19
Q9P2H5	1.51
O75223	155.13
Q9NTM9	23.38
Q5JSL3	0.72
Q9UKU7	38.06
Q6PHR2	9.63
P06213	18.65
Q96QV6	650.73
Q96SE7	1.79
Q8NEV8	0.77
P14649	150.7
Q8N122	6.91
P32320	42.39
Q8N128	21.66
Q8N129	6.06
P05546	30.05
P26583	128.46
P0CG29	49.89
Q08289	2.33
Q96PC5	8.33
Q86X29	21.61
Q99584	29.91
P25311	115.16
Q96RL7	5.24
P82664	7.46
P60468	412.74
P82663	51.16
Q8IXJ9	1.04
P11586	1464.31
Q8NDH3	9.21
Q8IXJ6	15.89
P38919	131.74
P21912	558.56
Q9NX61	9.6
Q9NX62	8.87
Q9NX63	183.65
Q16352	3.1
P62318	123.26
P62316	342.37
P07360	107.8
P62312	150.33
P62310	28.96
P61758	37.85
Q9HD45	53.06
Q9BRF8	265.39
Q9HD40	52.33
Q14849	3.4
Q9HD42	39.52
Q86WI3	0.84
Q14847	369.41
Q8ND30	19.15
O14734	23.88
O14735	131.16
O14737	12.01
O14732	10.95
O14733	7.22
Q9BZV2	6.16
O95716	7.07
Q9NZD4	28.97
P40394	86.84
Q96A11	3.5
Q66GS9	3.85
Q9NR45	170.22
Q9NR46	11.7
Q9NR48	0.52
Q9HBU6	6.73
P84098	416.65
Q6IA69	15.14
Q9NUJ1	126.37
P84095	144.89
Q9UJY5	4.87
P34913	635.53
P34910	3.52
Q96KP4	797.98
Q96KP1	11.54
Q96L21	90.94
P13987	120.99
P13985	7.05
P13984	6.04
O60869	167.66
Q96EE3	25.96
Q04837	238.51
P08910	14.2
P13671	31.1
P13674	73.05
P52306	41.38
Q9NVX2	3.22
P02452	149.38
Q15070	10.6
O00570	4.4
Q8N2K0	15.21
Q15075	87.63
Q15078	5.04
Q8WWY3	34.02
O95236	3.87
Q9UM00	315.92
O95232	16.66
Q71RC2	21.28
Q9H7E9	6.86
Q6L8Q7	43.29
Q9BTX7	26.72
O15120	38.84
P45954	1939.77
O15127	46.8
P32519	2.54
Q9Y4P1	15.49
Q8N357	8.53
Q8WVC0	9.1
Q8WVC6	32.3
P24539	1068.0
Q9Y333	221.63
Q08477	91.71
Q9H2U1	4.48
Q9H2U2	470.43
Q92925	17.47
Q58HT5	9.09
Q8N4Q0	55.55
Q8N4Q1	42.89
P00326	722.8
P00325	10234.36
Q8TCB7	5.16
Q9BXI6	6.01
Q8IYM0	1.65
P43155	367.95
O43159	6.76
O43157	3.69
Q709F0	251.54
P86791	9.21
P46379	30.17
Q4G0U5	5.31
P42704	250.93
O60783	45.32
O60784	117.93
O14949	588.72
Q9GZU7	5.87
Q86TS9	25.11
O60256	46.1
Q13185	74.18
Q13188	33.51
Q9H9B4	871.62
Q9H9B1	1.21
Q8IWW8	150.02
P34932	172.74
P26022	4.09
Q9UHR5	10.13
Q9UHR4	9.05
Q9UHR6	4.0
O75554	4.04
P98194	1.71
P11137	0.86
A0JNW5	1.04
P23610	8.77
Q13451	234.45
P98198	1.25
O75882	4.33
Q15582	169.96
Q96GF1	8.38
Q4G148	3.39
O60341	3.69
P48729	17.63
P48728	121.0
P48723	59.46
P31937	859.36
Q6PIW4	16.21
P31930	485.46
Q3SY84	2.99
P31939	238.91
Q96BH1	3.35
Q6UXV4	129.41
P33260	15.39
P33261	276.01
Q9UBT2	31.31
Q6ZN17	12.67
Q9BYV7	67.91
Q9BYV1	132.05
Q9NV56	7.65
Q14980	59.75
P19838	16.28
P12111	592.44
P12110	443.91
P15328	5.75
Q9UQ90	3.89
Q9H0X4	17.25
Q86W92	10.53
P55795	38.3
Q9C035	6.09
Q14353	273.73
Q12913	4.7
Q9BTC0	2.11
P03915	89.57
P09529	3.8
P09525	1137.68
Q969R8	3.48
Q08722	14.61
Q96D98	10.1
Q147X3	13.09
Q86WR0	21.02
Q7Z4F1	2.25
Q86WR7	3.74
Q8TAE8	20.27
P07585	340.92
Q6PKC3	4.66
Q8IZ69	2.5
Q9NRQ2	9.27
Q6P1J9	11.33
Q9NRQ5	25.46
P20645	60.88
Q562E7	5.67
Q6NZI2	134.14
Q9P2J5	49.75
Q92598	70.83
Q92599	21.53
Q9H4Y5	6.07
Q7Z5L9	5.62
O14983	6.22
Q86VP6	166.02
Q6ZMG9	3.82
Q92597	56.06
P08697	37.72
P30876	15.37
P08123	218.86
Q9NRG9	14.4
P05423	3.86
Q9UKS6	116.74
Q9C037	2.99
Q8N0X7	4.71
Q96QT6	1.56
Q8N0X4	376.49
Q8NEH6	2.83
Q9Y3T9	12.12
P67775	207.22
Q8TEA8	21.97
Q99614	20.46
Q99615	30.39
Q99613	130.26
Q99611	108.78
Q01094	3.66
Q6PI48	34.98
P51812	16.39
P0CG05	926.43
A5PLK6	1.36
O15484	16.41
O15488	37.3
P46782	524.87
Q8IV08	65.85
Q9NYL2	1.88
Q9NYL5	19.02
Q9NYL4	139.2
Q9NYL9	73.64
Q14156	12.92
Q96HJ9	13.45
Q14155	11.43
Q14152	137.99
Q14151	7.98
Q14409	118.88
P21281	109.29
P21283	46.84
Q8TAF3	2.25
P36021	5.76
Q9Y5J1	8.3
Q9Y5J7	82.64
P19338	541.8
P19623	30.43
P16104	113.26
Q96JP5	2.7
P62330	401.44
P62333	170.85
A5D8V6	8.87
Q8WUI4	1.67
Q96S53	2.7
P13796	585.68
O95071	1.11
Q9NZB2	68.96
Q9NZB8	7.34
Q9UDY2	62.74
Q96L93	1.13
Q8N5P1	10.22
Q96A72	188.64
Q86YT6	1.56
Q86YT5	32.64
Q13608	4.94
P30273	177.44
Q9NR28	82.19
Q53EL6	43.1
Q96KR6	25.19
Q96KR1	16.12
Q9UFW8	9.11
Q9HAU5	1.16
Q9P2W9	4.44
A3KMH1	59.88
P13473	122.08
P49720	216.75
P49721	465.7
B7ZAQ6	45.38
Q6S5L8	2.49
P60866	500.23
Q9H6K4	77.2
Q03135	242.98
Q06323	1134.63
O60888	35.89
Q8TDB8	6.09
O60884	56.24
P50583	10.19
Q96EC8	19.6
P06753	223.84
P06756	28.09
Q99459	37.19
Q9BUB7	106.58
Q9HBW0	4.39
Q8TD19	38.41
Q6DN12	1.72
Q6DN14	1.54
Q96H20	41.6
Q96H22	4.34
Q15059	8.63
Q9UM22	47.2
Q96S97	38.9
Q15056	87.69
Q15057	13.64
Q15050	45.8
Q15051	2.49
O00592	11.7
O95218	9.17
O95219	23.13
O95210	386.97
Q05BV3	1.56
Q9H7C9	12.87
Q9BTZ2	383.27
O95985	1.77
Q93052	67.83
Q93050	17.79
P31327	6737.77
P62937	2066.47
P31323	11.11
P31321	11.95
Q92900	60.7
Q9H2W6	32.46
Q92905	54.77
Q86U86	0.89
Q9Y316	10.17
Q9Y315	126.58
Q9Y312	3.95
B7ZC32	1.58
Q9NQ29	3.92
P43897	82.39
P09758	67.25
P15954	284.06
O00534	7.93
Q9H583	6.37
Q8IYS2	2.48
Q14232	50.88
Q6P2Q9	50.78
P08590	242.45
Q9BXK5	81.33
P53582	11.91
Q15942	44.79
O43602	6.96
Q68CZ2	15.47
Q92673	2.76
Q99933	8.85
P20073	247.18
Q567V2	37.0
P49821	205.9
O75054	1.27
Q92947	356.4
Q147U1	2.83
O75052	6.11
Q9H329	3.44
Q8IY49	5.49
Q8IZS8	2.79
Q6P179	1.55
Q8NAT1	2.57
P19105	693.25
Q96MK3	5.59
P26045	3.3
Q13474	1.59
P54727	170.85
P54725	30.31
O95456	15.66
O95453	9.34
Q99424	687.65
Q99426	81.6
P42858	4.44
Q9HAN9	37.6
P30793	24.59
Q9UHK6	133.54
Q9ULD0	40.45
Q99797	19.14
Q13510	157.47
P48740	2.16
Q96PU5	1.53
Q96PU8	31.87
P80217	32.62
P34896	1754.59
P34897	814.85
Q9BQ95	3.49
Q96EP0	7.17
Q6XZF7	0.97
Q9BYT8	57.42
Q16637	5.39
Q16630	40.56
P09960	366.4
Q7Z434	63.72
P13224	7.9
P47985	283.3
P47989	171.03
Q9NQW7	44.16
O00292	4.19
O00291	8.86
Q08380	57.76
Q9UBF2	10.54
O00299	484.2
Q969P6	7.36
P51648	475.35
Q969P0	21.1
O60437	104.72
Q6IC98	25.83
P25092	1.39
P49917	3.3
P49916	7.6
P49915	35.77
P49914	287.65
Q96IW7	9.82
Q8NFZ5	3.52
P0C0L5	170.86
P0C0L4	272.26
P35858	2.6
Q00653	3.55
Q10469	9.98
P05198	256.49
Q8N807	5.15
Q01658	26.46
P08107	761.5
P00488	49.44
P23381	151.64
Q66PJ3	4.47
O75915	206.32
P00480	1808.26
O75911	81.81
Q9NTI5	7.29
Q96SI9	4.66
A6NCN2	17.67
P43405	2.38
O60826	33.94
Q9H6A0	6.39
Q13283	164.41
Q8NEJ9	4.78
Q13868	31.39
Q13287	14.68
Q9Y3Z3	106.91
Q69YQ0	1.38
Q8TB36	4.15
Q8TB37	35.23
P62745	38.77
Q96P20	1.45
Q8WX93	12.53
Q8WX92	7.83
Q8WW22	3.83
Q86VR2	16.69
P22033	519.94
O43292	2.54
O43290	30.41
Q9NYB0	3.88
P00156	60.23
Q9UPI3	3.0
Q8IUR0	8.25
Q8IUR7	6.81
P15153	72.04
P15151	11.36
P49354	11.59
P04908	448.99
Q7L5Y1	37.9
Q16822	2185.01
Q6UWM9	28.47
Q8WUK0	7.51
Q9NST1	3.24
Q9HD89	75.11
Q9UDW1	328.6
O96011	126.69
Q96DE0	129.01
Q96A57	26.01
P36551	75.24
Q9Y5L0	14.81
Q9Y5L4	310.38
Q8N7H5	11.44
P30520	37.66
P49748	1257.39
Q15428	20.89
Q15424	30.08
Q15427	3.86
Q04917	243.14
Q8ND71	9.16
Q8ND76	4.36
Q8IWL3	25.02
Q5TAT6	2.45
Q9BRJ6	15.53
P11678	4.23
Q9BRJ2	24.26
P60842	483.13
Q8N8N7	57.92
Q8TDD1	12.18
P06732	75.61
P55081	9.9
P06730	82.01
P55083	41.91
P55084	1210.53
P06737	1202.38
P55735	197.87
Q9UFN0	421.78
Q4FZB7	3.46
Q8NCA5	27.86
Q9HBY8	10.81
Q9NR09	3.23
Q8NCA9	10.02
Q8NF91	0.34
P57772	84.05
P57773	2.92
Q8N2G8	35.78
O95273	4.26
O95271	1.21
P55884	140.96
Q6R2W3	1.13
Q8NHH9	5.18
P50440	1143.39
Q9Y2Y0	9.11
Q99570	2.24
Q9Y2Y9	5.5
Q93073	1.41
P28066	194.84
P28065	36.87
P28062	237.34
P62910	692.16
P62913	398.07
Q03518	21.63
P62917	471.28
Q9Y487	1.75
Q9Y485	1.02
Q9Y484	12.91
P10253	164.48
P02144	549.0
A8K0Z3	6.82
Q00796	2533.18
Q9Y371	33.64
Q9Y375	4.54
Q9Y376	43.02
Q9UGN4	5.17
Q9BXU1	1.48
Q8IYQ7	84.66
Q6P2S7	1.13
P00367	3595.47
O60645	25.68
P00813	4.21
Q8IVS8	96.24
Q9NZD8	19.63
Q8NBL1	3.71
Q8IVS2	35.93
Q9Y3D2	79.02
P35218	29.62
O60749	155.48
P23246	250.03
O75460	1.56
Q9GZY8	17.84
Q8WZ82	7.02
Q9GZY0	2.39
P82094	8.38
P27701	46.32
Q8IZQ5	63.75
Q9H307	16.81
Q330K2	4.49
P52701	1.12
O60292	0.88
P11310	1332.8
O43660	6.0
P61923	220.8
P61927	46.45
Q5NDL2	2.77
P10809	4084.84
Q8NDI1	4.9
Q15637	70.29
Q15631	124.47
O95478	11.41
O95479	517.13
O95470	32.4
P54709	27.22
Q13492	77.58
O95477	4.72
P32119	1974.45
A6NCS6	39.39
O95782	154.71
Q6ZNB7	23.31
Q6ZNB6	1.69
O95786	8.05
O95785	1.92
O95789	1.16
P36969	255.26
Q9BWE0	8.09
Q9NY27	10.97
P19784	37.46
Q9UHV9	61.82
Q6ZS86	5.8
Q06828	3.97
Q9NV96	16.86
Q8WUY1	201.25
P60981	240.99
P60983	61.58
P41567	26.94
O14896	3.23
P22830	161.27
P61586	449.15
P50750	20.05
Q16610	16.96
Q86UL3	3.29
Q7Z442	1.89
Q9H0D6	20.54
Q7Z417	11.27
Q9NQU5	2.29
Q9UBX5	17.09
Q9UBX1	3.21
Q14C86	8.32
Q9UBX3	756.69
Q9Y4B4	1.05
Q13438	63.56
P50135	267.89
Q5TEU4	4.41
P23634	46.02
P51888	512.9
P51665	199.21
P51884	758.79
P03950	10.36
Q969V3	98.06
P03952	2.4
Q969V5	4.31
Q9NSK0	52.48
P23497	10.25
Q9Y6P5	6.07
Q96IU4	1066.96
Q08AF3	1.7
P17040	1.46
P27824	903.73
Q13043	6.17
Q6P1Q0	20.52
Q6PKG0	18.05
Q5VYS8	2.0
P83916	8.01
P24298	474.05
Q8IZ21	2.19
O76014	3.45
O76011	13.88
Q00325	1112.28
O76013	19.7
O00410	102.67
Q15392	148.41
Q15390	13.91
Q96T51	19.34
Q96T58	0.43
Q5XKP0	26.21
Q13938	8.18
Q9NTK5	88.17
Q08357	2.44
P60510	34.23
Q96SK2	10.9
P46100	0.61
P46109	45.7
P46108	25.35
P09486	4.95
O15318	19.86
Q99653	61.11
Q99873	74.37
P42338	2.79
Q9Y3X0	5.75
P42330	358.38
P42331	4.67
Q8N183	69.11
P28290	11.16
Q96P44	1.73
Q96P48	1.06
Q5JUX0	5.87
P09382	582.79
P0CG42	3.98
P62760	61.97
O75937	34.49
O75936	65.21
O75935	81.22
O75934	32.82
Q14376	340.53
P43686	191.93
Q9BTA9	2.43
Q8IV48	4.28
P27216	14.53
Q6JQN1	7.22
Q9H1K4	167.22
Q8N983	14.64
Q96RF0	22.41
O43272	2.52
Q9UEY8	23.84
P41240	27.06
Q8WVT3	19.45
Q96HN2	15.42
Q96GD0	146.1
Q14118	22.88
Q14112	20.41
Q14117	848.09
Q14114	3.25
Q8N4H5	113.69
P15170	70.76
O43414	18.42
Q8N4H0	3.81
O14791	3.9
O14795	0.95
Q6PML9	8.1
P82970	32.65
P82979	94.2
A4D1E9	15.98
Q96DG6	880.63
Q96F07	2.31
P36578	593.37
P63173	1481.92
P63172	13.78
Q9BST9	13.69
P14778	2.62
Q86YP4	10.08
Q8NDB2	1.92
P20591	9.09
P49768	3.26
Q15404	119.64
P50336	27.03
P13929	295.69
Q8ND56	3.39
O00625	37.39
Q9NR77	547.27
O00629	26.67
P40227	283.79
P13693	157.56
Q0VD83	1.49
P59665	437.18
P84077	505.54
Q9BUF5	10.32
Q69YN2	19.81
Q69YN4	0.85
Q06587	12.13
O95259	1.54
O95255	75.93
Q9HB07	36.37
Q9BW83	16.75
Q01804	2.77
Q8TDF5	5.7
P18583	11.7
P38571	11.33
P38570	2.64
Q5MY95	3.18
P62979	19.1
Q04323	41.18
A0AVT1	72.7
Q6WCQ1	19.13
Q9BVL2	5.63
Q9BVL4	39.68
Q9H814	7.73
Q96AC1	211.49
Q6ZVX9	8.04
A0AV96	26.76
Q9BXW7	103.68
Q9HBA9	3.43
O75891	1959.48
P78560	22.62
P23229	2.71
Q5TDH0	77.05
Q8IWB7	7.41
O60762	121.55
O60763	198.72
Q15185	201.83
Q15181	283.6
P17844	124.03
P20036	29.19
Q86TU7	20.4
P25774	86.92
Q2TAY7	17.88
Q8NFC6	1.04
Q13126	87.86
Q9H9H4	5.48
Q13123	23.53
Q9NRF8	15.67
Q53GL7	6.24
P62847	522.71
Q562R1	126.59
P78545	12.41
Q9BZK3	7.36
Q641Q2	17.48
Q9UNX3	288.26
Q9UNX4	8.08
P54098	1.23
P54760	3.17
Q9HAB8	121.06
Q99460	129.65
Q99467	2.31
P26885	339.79
A6NI72	3.83
P40763	260.99
Q70E73	12.68
P24821	63.38
Q6UN15	12.89
P16083	608.84
P61619	203.48
P62495	90.96
Q9BUR5	46.18
P16333	12.0
Q9BQ52	7.44
Q16186	20.35
P62140	69.19
Q16181	142.15
P12429	99.03
Q9UPR5	1.71
Q96B97	2.35
Q96M27	40.4
Q96HS1	144.71
Q7Z478	8.84
Q9H0B6	7.46
Q6YN16	476.1
Q9NXA8	70.88
Q9UBZ4	2.99
Q7L523	14.07
P13591	3.63
Q9BV20	35.05
Q96D71	3.96
Q7Z4H8	8.79
Q15836	60.67
P51608	91.58
Q9BZV1	10.34
P51606	17.56
Q8N5I4	23.53
Q8N5I2	3.73
P22087	172.62
P49959	12.77
Q9H344	4.9
Q00341	326.18
Q00610	901.43
Q53EU6	7.04
O76031	104.07
P78357	1.1
P78356	3.62
P78352	2.13
Q5SRE5	0.87
Q5SRE7	74.09
Q96T76	9.08
O00471	23.05
Q15370	104.49
O15085	1.02
O15084	16.7
O15083	1.55
Q969T9	67.18
P09543	155.02
P08637	11.79
P08631	14.39
P32455	60.6
P32456	20.42
Q9UKM9	84.54
Q9UKM7	2.16
Q4V328	19.66
Q9UMN6	1.75
Q8IZ07	5.07
Q8N9M5	3.17
Q6NYC8	10.1
P28907	5.0
P28906	4.21
P62701	672.24
P15502	5.01
P18065	9.85
O00566	6.52
P68431	22.27
O75955	286.15
O75954	19.22
Q08379	42.47
Q08378	24.6
Q9H7Z7	69.52
Q7Z5J4	0.84
O43252	2.42
Q09028	28.79
Q9NYF8	12.93
P53602	63.23
Q96RD0	4.86
P53609	8.1
Q8WVV9	25.69
Q14137	8.2
P10109	61.91
Q3B8N2	12.97
P17096	220.36
P46783	671.66
Q14139	30.79
P46781	698.53
Q8NEN9	1.33
O43432	3.88
P04632	127.21
Q16864	12.83
Q9UGQ2	18.57
Q8WUW1	39.23
Q7Z6Z7	30.61
O60476	7.05
Q6P2H8	10.85
Q8TCU6	5.53
P20823	5.09
P20827	7.21
Q8N5V2	4.16
Q96S44	18.27
P82914	11.5
Q9Y5P6	111.96
Q9Y5P4	7.26
Q96DA6	41.17
P11509	1117.18
Q5TC63	8.9
P63151	26.55
P17213	15.91
Q9H1C4	5.15
P06454	196.79
P61421	42.53
O15155	25.81
P48047	913.75
O15530	2.72
O15533	25.21
Q9HCG8	1.63
Q8N8J7	11.71
Q13740	71.14
Q96EM0	35.98
P21333	461.9
Q9NUB1	9.17
P30566	56.25
P80511	48.66
Q9NW13	8.0
Q9NW15	2.25
Q9UP52	52.18
Q8N2C3	5.09
Q8WWQ8	7.43
Q8WWQ0	0.83
Q9HB21	3.77
Q9Y2E4	1.0
Q9Y2E5	1.5
Q6P3W7	8.27
Q8TDH9	7.94
P47974	3.36
Q6NY19	1.94
P13010	279.98
P09488	933.95
Q9BVJ6	11.7
Q9BVJ7	175.79
P47756	443.18
Q2PPJ7	5.7
P02100	10.59
P57737	20.46
Q96AA3	8.53
Q86US8	1.07
P35713	4.19
Q9C0D5	4.24
Q9C0D3	2.04
Q9Y4W2	4.13
P29992	85.51
Q9Y4W6	185.89
Q8TCJ2	106.2
Q93034	20.74
Q92611	2.33
P24462	17.89
Q92616	60.35
Q92615	2.13
Q92614	100.07
Q92619	4.13
Q92618	1.38
O75569	19.94
Q9BZK7	9.26
O60701	997.54
O60706	0.98
Q9Y6I3	51.21
O60704	16.37
Q9H694	1.64
Q9Y6I8	7.07
Q9Y6I9	40.14
Q99996	2.65
P42785	33.81
Q5JRK9	14.25
P01106	3.51
O75746	39.0
O75747	1.04
Q9H9J2	27.42
P68371	357.99
Q9H714	2.34
P40926	2425.33
Q5T1M5	16.69
P61964	32.82
P61966	91.56
P61960	37.62
Q14651	51.27
Q14653	18.16
O94819	18.27
Q14657	11.59
O95433	94.11
Q99442	33.66
Q8TD07	5.69
Q99447	211.3
Q0JRZ9	5.79
P40925	795.81
P33151	1.96
Q9NY61	2.72
Q9UHJ6	76.62
P80723	264.55
Q96PK6	96.26
Q8N1G4	121.61
Q8N1G2	3.6
Q9UNZ2	160.65
Q9UNZ5	16.22
Q96ME1	1.94
Q96ME7	2.65
P11712	952.79
P11717	23.13
Q9BQ39	8.31
Q9NYY8	10.53
P19525	24.86
Q12768	35.77
Q16654	3.69
Q16658	226.48
Q96B77	13.78
Q9UPP2	1.34
Q9NS87	1.07
Q9NS86	30.36
Q9NXC2	3.97
Q9BX66	66.2
Q9BX68	449.76
Q9BV86	6.76
Q9BV81	28.55
P80188	106.31
O60941	2.4
P23786	402.21
Q9H5N1	5.4
Q7Z3K3	2.21
Q53GQ0	504.73
O60499	6.1
Q9UBK8	6.4
P30711	276.1
Q8N5K1	392.95
O00189	3.43
O00182	4.34
O00186	25.31
O00187	2.27
Q06136	61.62
Q13685	3.67
P13716	576.56
Q12888	1.61
P14927	418.36
P14920	126.01
Q07889	1.13
Q07666	78.25
P14923	167.87
Q12882	87.76
Q9NRY5	27.83
Q9NRY4	15.09
Q5JTZ9	14.38
O00453	15.89
O95197	39.6
Q96CB9	3.98
Q9UL46	820.01
Q9P2B2	53.95
Q9UL40	5.21
Q969Z0	41.22
Q969Z3	604.49
Q13976	4.49
P02649	341.59
P02647	919.55
P01591	9.48
Q12769	7.41
Q32P28	14.4
Q9H1B7	2.08
P53999	405.13
Q9UKK3	8.02
O95990	9.83
P53990	47.47
P53992	73.93
Q9Y252	2.2
P78371	459.49
O15355	26.05
O15357	1.24
Q9Y259	3.79
Q99832	300.48
Q99836	20.65
Q14331	5.88
Q9NTG7	19.68
Q6KC79	0.54
Q8TB72	1.5
O75970	18.58
O75976	57.2
Q9BTE6	18.86
Q8N490	48.01
P22090	23.29
O43237	34.88
O43236	3.11
P53370	48.07
Q8WVP5	8.24
Q9UEU0	32.14
P35527	395.21
P35520	424.66
O95070	48.23
P10124	9.72
A1L188	22.12
P26927	6.41
Q96JX3	2.31
P23416	3.3
O75356	252.69
O75352	148.1
O75351	13.92
Q8IVH4	95.83
P82930	53.5
P82933	18.71
Q9NXC5	12.18
Q96F45	8.23
Q96DC8	299.6
P67809	205.31
Q9Y5R8	40.76
Q8IXT1	1.54
Q8IXT5	8.71
P14735	63.98
Q9BPY3	4.34
Q16222	75.89
P61158	249.84
O00571	229.5
O95602	1.76
Q9H9Q2	5.79
O94991	1.6
Q9HCE5	3.29
Q9HCE6	15.88
Q9HCE1	28.67
A6NMZ7	12.49
Q9HCE9	2.52
O15511	157.65
P50053	571.23
Q96EK6	413.34
Q96EK7	4.96
Q96K19	28.77
Q96K17	39.73
Q9UN19	5.33
P50502	273.9
O95872	4.36
Q13765	242.06
P40261	1879.17
Q13761	3.87
Q53H12	58.22
P51452	393.68
P16278	142.05
Q9BUJ2	34.04
P62266	640.19
P37268	57.04
P62263	685.14
P62269	1132.6
P31146	114.29
Q8NE86	21.51
P48454	2.95
Q8TDJ6	0.51
Q9Y2G5	13.73
Q9Y2G8	3.79
Q9HB40	33.74
Q08945	27.5
P07195	468.17
Q01844	55.11
P09132	84.94
Q9BT73	26.18
Q9Y394	156.75
Q08495	7.54
Q08499	1.88
Q9Y399	10.32
P37840	71.17
P52907	406.38
P04181	81.28
P04180	3.46
Q9BXS0	2.65
P46020	1.25
Q9BXS5	127.09
Q86UU1	1.13
Q53LP3	24.65
P35268	336.4
P35269	5.89
O75503	4.13
Q5VT52	3.3
O60493	319.98
Q9H3G5	19.0
Q9Y6K0	22.11
Q9Y6K5	7.08
Q9Y6K9	7.12
P08263	4764.82
A2RRP1	7.66
P05362	169.08
Q96AG3	18.57
P06312	25.64
Q96AG4	383.03
Q13162	1207.54
Q13164	1.94
Q3ZCW2	18.07
P61981	393.92
O15091	10.19
Q6JBY9	3.85
Q6P4F7	1.51
Q7Z2E3	4.21
O94832	44.28
Q7LG56	8.42
Q8IW45	60.96
Q8TD22	92.41
Q6IBS0	65.06
Q04721	1.29
P12814	672.41
Q2TB90	3.35
Q9H1Y0	21.15
P21810	757.69
Q9HDC9	741.76
P33176	104.78
Q15233	249.86
Q02094	19.4
Q9NY46	0.76
P07203	396.05
P31994	20.15
Q14671	1.36
Q14677	42.72
Q14676	1.51
Q14674	0.74
Q14679	1.29
Q14678	5.82
P29218	39.77
O94766	18.48
O94761	1.29
O94760	336.2
Q96IY4	7.08
P00387	546.12
Q12789	0.72
Q12788	17.34
Q7Z6M1	8.46
Q2NL82	7.47
Q96HW7	4.76
P04406	3768.04
Q5VZF2	4.23
P30154	15.54
P30153	278.4
Q9NXE4	3.67
O60925	12.07
Q9NXE8	3.45
Q4ZIN3	2.53
Q5ST30	5.79
P34810	45.85
Q15785	9.93
A8MTT3	55.12
Q7L2H7	125.1
Q9UQN3	43.05
P12724	74.64
P62314	245.37
Q9NP58	29.23
Q53GS9	18.36
P80303	116.18
Q9NZW5	25.26
Q5T6F2	1.46
Q07065	358.53
Q53GS7	2.15
P37108	141.27
Q8N5M9	105.55
P17026	6.62
Q8N5M1	52.34
O76054	524.11
P50991	343.5
P50990	569.64
P50995	116.68
Q15257	109.66
Q5GLZ8	8.68
Q9H0N5	23.88
P05114	209.2
O76071	49.86
P06127	3.14
Q96I24	122.44
O00303	150.69
Q96T37	8.0
O00308	1.73
Q13952	3.41
Q969X5	431.55
Q6ZT12	3.23
O95178	14.23
Q969X1	34.69
Q96CD0	8.47
Q9UL25	91.58
O95170	2.01
Q9BRQ8	42.32
Q9BRQ6	12.97
Q9BRQ0	4.16
A6NDB9	141.15
P52597	105.16
P57076	5.16
P52594	20.61
Q96NB2	142.02
Q96NB3	16.34
Q96EV8	4.34
O15372	103.1
O15371	80.44
A1X283	3.38
P60033	225.96
Q9H1D9	4.81
P43378	2.52
O15379	3.51
P78310	34.28
Q9Y274	4.49
P78314	2.76
Q9Y276	75.78
Q9Y277	397.22
Q9Y278	4.13
P78318	13.12
P22307	866.44
P22309	118.01
Q6IMN6	2.72
Q15323	105.3
Q8NI22	31.4
P00403	583.72
Q14318	53.89
Q96GG9	62.63
Q14314	3.41
Q14315	18.27
O43815	11.95
P08670	1774.35
O43813	53.03
Q13526	112.83
O43819	63.29
O43818	3.31
Q9UEW3	16.29
Q8N3D4	1.06
O43747	65.72
O43741	101.89
Q8TBQ9	127.69
Q92797	6.08
Q92793	0.65
P04798	14.74
P04792	1317.53
Q7KZI7	1.95
Q9Y3B7	58.05
Q9Y3B4	58.8
Q9Y3B3	402.04
Q9Y3B1	7.98
P35503	162.04
Q9Y3B8	38.35
Q9Y3B9	5.45
Q8NEB9	1.69
Q99816	15.61
P42356	14.83
P42357	313.81
Q8TEW0	3.4
Q9H061	167.33
Q6UWE0	2.05
P23434	81.74
Q9BQT9	1.62
Q5JPH6	29.23
Q02952	12.54
Q96DM3	4.58
Q99766	41.39
Q8IUZ5	51.76
P98095	5.42
Q13310	130.86
Q9BSR8	6.33
Q13315	0.49
Q8N612	3.25
P04899	322.27
P06493	5.03
P17252	11.17
Q9H9S5	3.14
Q8NC44	8.9
P55008	41.08
P55001	16.47
Q9UN36	264.87
Q9UN37	28.06
Q96K37	3.83
Q9BUH6	110.97
P19971	343.36
Q16204	12.87
P62241	694.47
P62244	866.88
P62249	542.38
Q9UKK9	260.87
Q7Z553	1.6
Q8WWM7	18.16
Q9UP95	7.11
Q9Y2A7	30.63
Q9BVV7	30.41
Q9H2A2	783.74
P09110	778.4
Q03591	50.11
Q9BYG4	4.2
Q9NVD7	158.35
Q9BYG3	40.1
Q8NBU5	37.89
O14561	78.79
O14562	10.28
Q9NNW7	176.06
P58557	8.89
Q86UW7	1.16
P35754	247.62
Q9NXZ1	1.73
Q9H8T0	10.36
Q9ULA0	160.31
Q93099	992.14
Q10567	142.62
Q08211	255.54
O75529	2.59
Q9Y512	102.3
Q4G0A6	2.03
O75832	28.09
P78509	0.44
Q9Y6M9	149.28
P08240	186.73
Q5TFE4	62.86
Q8TAT6	60.43
P08243	5.33
P08246	318.78
Q9Y6M5	12.41
Q96AE4	144.72
O95817	11.14
Q96AE7	2.65
O95810	94.54
Q9H479	112.17
Q13148	46.01
Q13144	17.07
O75781	4.08
Q8NFI3	4.08
Q9H477	211.0
O75787	13.19
P52788	33.25
P52789	1.68
Q9P291	3.49
Q8N573	7.0
Q9UK99	3.14
Q9P299	7.28
P62888	751.37
Q58FF8	27.07
P43121	9.58
Q58FF6	2.94
Q58FF7	271.13
Q00013	22.96
Q99487	19.48
P08294	19.91
O94855	59.19
P42658	1.76
Q99489	4.57
P12830	45.76
P26358	0.94
P24844	493.12
P12956	341.37
P12955	207.54
P07951	161.86
P07225	11.42
P46952	922.02
Q9UHN6	5.56
Q14699	8.15
Q14694	23.62
Q14697	834.57
Q14696	144.71
Q14690	4.93
Q14693	3.48
Q6ZMV9	1.85
Q16695	99.54
Q7KYR7	5.75
O14818	375.2
Q8N3Y1	2.55
Q16698	2040.17
Q9UPT5	8.23
Q96B36	6.26
Q96HY7	143.11
Q96HY6	96.33
P04424	1680.14
Q3MHD2	23.71
O60306	5.01
O60307	1.2
Q9BV38	7.24
Q9NXG2	34.9
Q9NXG6	3.03
Q27J81	32.88
Q9UBP6	21.8
P06576	2711.19
P13535	0.77
P60900	525.87
P60903	260.28
Q8WUD6	7.61
P63302	18.15
P11021	2634.57
Q9H5J4	5.47
Q9H400	10.96
Q63ZY3	18.81
Q15274	383.69
Q15276	6.91
Q15270	12.66
O00148	97.76
Q5T0U0	5.33
O00142	27.66
P13284	36.8
Q5VYK3	25.19
Q8WTV0	101.43
A7E2F4	2.45
Q8IUE6	49.03
Q9BPU6	2.79
P51553	32.07
P51003	12.42
P52209	384.11
P05177	809.17
Q9UL03	3.42
O00499	58.33
O95155	1.17
O95154	1138.72
Q9P2F8	0.9
P31267	6.51
Q15311	4.51
O95159	15.08
O95158	5.19
Q9H6Z4	22.79
Q7Z4R8	8.26
Q9NP72	231.42
Q9NZU5	12.6
Q9NP77	7.6
Q9NP74	16.4
Q9NP79	50.63
Q9UKG9	17.11
P18887	7.41
Q9UKG1	34.45
Q30154	5.71
Q8NFD5	6.54
P43351	3.72
P43354	12.88
Q12849	16.14
Q12846	45.17
P78330	48.01
Q9Y217	11.92
Q12840	1.46
P18085	1036.97
P52758	1159.76
P09651	305.45
P04229	57.34
Q7Z5P9	0.29
P68104	3762.98
Q7Z5P4	1737.95
O43837	101.65
P08651	24.65
Q14192	10.66
Q14190	2.34
Q14197	36.29
Q14195	27.68
P60484	3.64
Q8TEU7	0.96
O60684	17.14
Q8TB96	2.52
Q8TB92	4.34
O75312	6.74
Q5VW32	25.83
O75310	14.05
Q5VW36	2.57
Q5VW38	5.12
Q8WV93	3.13
O75648	7.19
Q8IVL6	2.1
Q8TCS8	37.92
Q13085	41.34
Q13084	5.69
O43765	80.57
Q02978	679.82
O43760	62.22
Q2M2I8	1.65
Q14738	22.06
Q14739	43.67
Q13332	0.79
P54646	2.75
Q5TC82	1.36
Q99747	64.18
Q99748	7.66
Q8IUX7	17.03
Q8IUX4	7.62
O43491	35.04
O43493	77.18
Q02928	520.23
O43497	1.31
Q6IN85	7.19
Q15485	20.18
O15551	14.71
Q86Y56	1.83
Q9H788	9.76
Q9BTX3	17.47
Q16595	22.24
O60573	18.14
A6NFZ4	15.24
Q9BUN8	131.02
P21359	0.54
P09884	1.03
Q96KN1	9.95
Q16773	3.58
Q16774	15.79
Q16775	497.24
Q2TAL8	1.98
P10768	714.17
Q9Y2C4	8.35
Q9Y2C3	4.74
O14602	166.92
Q8TDN6	4.14
P50542	31.47
P55060	113.4
P55061	96.95
P24310	37.62
Q9BVT8	19.59
Q9BYE2	16.41
P37802	842.66
Q9BYE9	1.21
Q9NVJ2	119.45
O14548	108.78
P52948	11.29
P52943	91.51
Q96GQ7	9.55
Q96GQ5	10.09
P29972	12.03
P14867	3.31
P14866	259.43
Q68DC2	1.86
P20742	4.19
P14868	306.21
Q93091	29.92
P05090	782.01
P05091	4983.25
P13073	744.74
Q6UXG3	4.76
P06681	18.54
Q9BZM2	9.19
O75817	21.92
Q9UJ14	4.87
Q6PK04	5.16
Q15102	39.99
P17516	1272.56
O15230	40.34
O95831	828.14
O95832	15.08
O95834	21.84
O15239	42.5
P54819	939.32
Q8TF05	3.21
Q9NRN7	14.38
Q9NRN5	3.73
Q96Q06	20.42
Q96Q05	2.67
Q9NSY2	7.21
Q92922	2.79
P16403	915.24
Q9UIJ7	758.17
P24534	221.65
Q9NSY1	2.66
Q6P9A2	14.8
P0C7Q3	6.0
Q9H3K6	16.95
Q9H3K2	189.02
P24158	209.73
P21439	10.91
P98179	199.8
P42898	6.9
Q02505	0.65
P42677	271.95
P98172	9.03
P98171	1.63
P98175	11.6
Q04760	412.76
Q8N0W3	8.75
Q5SSJ5	103.69
P26373	643.38
P00747	71.97
P00740	26.5
Q9H903	9.19
P00748	17.71
P12931	14.33
Q9UHL4	82.07
Q8N335	8.93
P46976	60.97
P46977	274.77
Q9UNP9	10.26
Q71UI9	152.37
O94875	138.21
O94874	112.95
Q9NQC3	126.73
O14832	89.02
Q9BYX7	694.01
P04440	23.53
Q70UQ0	21.82
Q9UPZ9	2.4
Q96G46	2.36
P50226	44.99
P50225	1139.66
Q96G42	2.71
P63096	17.0
Q8NEY3	4.94
Q9NPH3	5.24
P63098	44.44
Q9UBR2	298.81
Q9UBR1	679.49
P30443	92.39
P84157	23.97
P49662	7.93
Q06265	14.02
P54105	13.09
P54108	6.21
Q14669	4.67
Q5C9Z4	3.56
Q8N5A5	2.99
Q6UX53	314.95
Q8WTT2	7.41
O00160	19.23
O00161	14.69
O00165	10.85
P61254	735.48
Q15291	5.8
P59768	65.55
Q9H0J9	4.34
Q13620	13.2
Q9BPW8	731.22
Q9NX95	4.74
P51570	503.15
P51571	604.89
P51572	398.3
Q5T653	10.3
P52888	65.27
Q658P3	125.66
Q9P2X3	14.11
Q9P2X0	84.96
P05156	44.35
P05155	304.78
P05154	7.51
O95139	55.37
P55210	10.01
P55212	5.15
P51687	258.93
P51688	12.1
P51689	66.11
Q9H6T3	2.27
Q9H6T0	6.56
Q07020	602.57
Q07021	213.3
Q9NSE4	164.3
Q9NP97	31.41
P18577	15.06
Q32P41	2.94
Q96QF7	2.25
Q96SU4	10.31
Q96ER9	33.7
Q03252	152.04
A8MZ36	5.05
Q08043	1.66
Q9Y237	62.1
Q6P1X6	193.86
Q9Y232	2.58
Q9HBH5	37.22
Q9Y238	0.88
Q8IZ81	34.34
Q8IZ83	52.39
P07741	472.38
Q12864	1.86
P02511	51.05
P15586	19.34
P25940	1.0
Q86VN1	31.32
Q7Z5R6	35.16
P48065	24.73
P00918	2228.69
O60524	8.37
Q5RHP9	1.02
Q6ZMI0	1.94
P00915	2311.18
P14678	83.64
O43852	138.67
P53680	211.66
P49069	5.21
P35542	46.53
P35237	277.68
P35232	1225.85
O75489	414.04
P14324	234.51
O60669	13.14
O60664	131.17
Q3KQV9	6.02
Q9Y3F4	120.49
P17980	195.22
P17987	289.93
Q6UWY5	11.2
Q96JB2	5.47
Q96JB5	96.43
Q8IYB5	10.21
Q5VZ89	0.92
Q8IYB7	1.73
Q9BXD5	14.63
P23470	1.06
Q8IYB3	13.41
O75663	43.64
Q8IYB8	23.39
Q6AWC2	1.28
Q8IVB4	2.36
Q9BQP7	4.35
Q15843	94.54
Q15847	131.02
O43704	132.7
Q8N386	10.34
O43708	481.74
P61803	398.04
Q8N139	53.98
Q9NXD2	7.77
Q96DI7	26.18
P42285	13.1
Q9NPA0	12.96
Q2PZI1	2.22
P68871	30224.64
Q9Y5X3	102.59
Q86YZ3	1.21
Q99729	160.99
Q99720	177.48
Q96EK5	4.78
Q68D91	10.94
Q96FS4	1.53
Q86Y79	7.48
Q02338	908.05
P05981	11.43
Q9NZ43	29.2
Q9NZ45	449.94
Q16576	10.76
P26639	254.92
Q9BUL8	76.38
Q9NW97	6.18
P16219	995.15
Q16718	331.35
Q16719	160.54
Q9ULQ1	1.82
Q9BW27	11.43
Q06520	2300.23
Q03001	1.79
Q9NWT1	3.9
O15260	773.15
Q9Y5U8	111.14
Q9UQM7	12.69
Q9H0R6	5.97
Q96E52	5.71
Q9P0W8	2.53
Q7L1Q6	96.4
Q8WXE0	2.71
Q96K76	30.53
P00739	61.53
Q8NBQ7	11.36
Q8NBQ5	1182.19
P56537	167.66
O14521	130.84
O14523	4.5
Q9BYC9	39.33
Q8TBZ5	2.73
O14526	1.77
Q9NVH1	70.48
Q9NVH2	3.21
Q9NVH6	27.71
Q9NYM9	27.69
Q8WWI5	56.16
Q8WWI1	36.5
Q96GS4	9.22
Q86XE0	7.39
Q86XE5	150.85
Q4KMQ2	17.77
Q4KMQ1	6.81
Q9UBI6	257.1
A6NHQ2	19.79
Q9UBI1	38.72
O00757	219.41
O00755	8.8
O00754	12.06
P39687	228.02
P02724	21.01
P08758	825.73
Q9Y6A9	121.86
P08754	63.48
P29622	14.13
P23284	2239.54
O75074	2.07
Q5JRC9	1.89
P52434	10.01
A8MXY4	1.43
Q9UJ37	4.09
Q15120	14.62
Q9NVS9	440.43
Q15124	19.3
Q15125	488.16
Q15126	280.74
O15212	35.29
O15213	5.04
P24390	83.87
O60488	38.99
Q9H0W9	390.75
P43250	2.6
P43251	2.81
Q8TF65	14.98
Q8TF66	5.33
Q9NRL2	0.96
Q9NRL3	2.13
Q9UK55	13.53
Q7RTS9	9.04
Q7RTS5	2.59
Q3ZCQ8	64.9
Q9UK58	2.88
Q8N5L8	29.19
Q08257	1520.05
A0PJX2	7.17
O75874	2021.9
Q92878	14.49
Q969G3	22.06
O75879	8.32
Q969G6	9.73
Q92696	44.81
A0PJX8	36.87
Q8N0U4	12.16
Q8N0U8	147.0
Q5HYI8	19.47
Q14527	1.51
Q14526	2.24
Q14525	25.98
Q14520	2.74
P04075	522.15
Q86TC9	1.18
O43516	3.35
Q3YEC7	4.31
P07919	287.5
Q9UHB9	94.58
P41250	115.5
P07910	667.36
P41252	92.59
Q9UHB6	18.11
O96033	17.58
Q7Z2K6	11.98
P21462	4.46
O75298	2.89
Q96RY5	1.27
Q9NYQ3	44.16
Q9NYQ7	1.44
Q14289	1.48
P54296	4.16
Q13277	5.17
O75122	7.29
O75128	8.85
O60343	2.34
P11245	25.57
O60346	1.86
A6NHL2	10.31
Q9UBT7	2.09
Q9UBT6	3.47
P61018	7.27
P61019	648.34
Q13459	1.41
Q96D96	16.24
P61011	70.82
Q9H223	109.35
Q06203	14.94
O15455	4.96
Q9BQK8	1.83
Q8NB49	18.55
P15104	126.41
P14543	54.08
Q8NG11	11.18
P12268	113.73
Q96DV4	23.08
P40616	235.22
P13798	192.17
Q96L92	36.4
Q13609	4.83
Q96L96	0.85
A0FGR8	23.46
A0FGR9	1.71
P80108	1.86
P00734	122.45
Q6NZY4	13.1
P00736	55.66
O15027	26.44
O15021	0.6
O15020	55.63
Q0VDF9	21.91
Q9H6V9	9.19
O00442	30.52
Q14896	1.22
Q86WB0	3.1
Q14894	55.86
Q7Z4V5	2.31
Q8N5C6	4.6
Q9NZQ9	8.72
Q9NZQ3	4.34
Q8N5C8	2.18
Q96QD9	47.89
Q96QD8	48.98
Q96ND0	22.29
Q96EP5	19.77
Q9P000	55.03
Q04206	14.24
Q96QD5	2.94
Q9P003	53.29
P56182	32.46
P60059	44.32
Q12802	3.9
Q12800	3.0
Q9BT78	74.14
Q12809	2.71
Q9BU76	5.83
P02538	77.13
Q8NC96	5.77
P02533	49.9
P04264	1153.23
P42025	56.78
Q7KZ85	7.75
P09619	1.38
Q9H7P9	2.32
Q9BTM9	30.15
O60502	3.33
O60503	1.14
O60504	25.04
O60506	239.04
O60507	12.2
Q8N6M0	5.07
P39210	8.69
Q96SW2	6.79
Q9UL33	10.62
P39748	20.14
P49005	3.34
P49006	26.35
P53804	2.98
Q9Y3D6	283.55
Q9Y3D7	12.41
Q9Y3D0	9.71
O60641	3.71
Q9Y3D3	11.18
Q5VU13	7.82
Q9Y3D9	39.39
Q8TEQ8	2.89
P27708	16.94
Q8TEQ6	8.14
P13861	229.87
P28702	3.01
P00395	15.04
Q9H000	3.65
Q9H553	43.71
P00390	253.07
Q92484	3.35
Q9H008	117.63
O75608	146.01
P08567	25.65
Q9Y4B6	4.06
Q9H8M9	49.09
Q13045	42.66
O75600	18.94
Q9H8M1	25.34
Q13042	7.18
Q8N414	43.18
Q6BCY4	5.45
Q99700	3.67
P48357	1.29
Q9Y5Z4	112.48
Q9H9Y6	1.34
O95685	5.27
P19484	3.24
Q8IWB9	1.37
Q9HCM4	14.67
Q02318	361.65
P24941	10.11
Q9HCM2	0.81
Q9HCM3	0.81
O43189	2.76
O43181	110.89
Q16555	236.8
P21397	1100.75
P21399	498.55
P22626	1315.21
Q53H96	65.86
Q8NCS4	10.16
Q9NUI1	434.7
P12074	42.33
P56975	2.2
Q96FQ6	72.67
Q9BY65	14.31
Q9BY67	10.61
Q8NE00	3.08
Q8NE01	9.01
Q9NWV8	4.69
Q9NWV4	38.02
B9A064	751.17
P49585	36.99
Q9P0U4	4.53
Q9P0U1	27.45
Q9H1E5	17.61
P49588	210.37
P49589	82.28
Q96E39	40.7
P20338	42.2
Q8NBS9	338.52
P47755	187.41
Q8NBS3	1.72
Q8TBX8	7.25
Q676U5	2.51
Q15555	32.42
Q15554	3.09
Q96GM5	2.95
P83876	10.22
P25398	378.15
Q96GM8	3.03
Q6P597	6.2
Q00266	1438.3
Q5SW24	2.07
P20702	1.34
P20701	4.0
P20700	351.28
Q04941	20.55
Q9H2G2	22.84
P09429	792.38
Q9BVP2	11.07
Q13813	781.26
Q7Z3V4	2.79
Q9Y6C9	998.36
Q9Y6C2	225.13
Q15149	329.32
Q5JRA6	81.87
Q9UJM8	1240.64
Q8IX12	15.5
O95870	40.68
P06396	208.16
P35914	773.77
Q9H0U9	3.49
Q9H0U6	16.67
Q9H0U4	263.04
Q9H0U3	121.76
Q9H324	1.42
Q96TA2	11.9
Q68CJ9	3.5
Q96Q42	0.93
Q01130	87.53
Q969E2	20.0
Q9BZA7	2.32
Q9Y570	12.16
P00568	285.42
Q8IX95	9.52
Q8IX90	3.7
Q92817	0.74
Q02818	171.91
O60725	5.37
Q5HYK7	3.96
Q5HYK3	143.17
Q9H497	3.71
Q6ZUJ8	55.03
Q9H490	3.43
Q14549	4.56
P78527	99.82
P54855	292.27
Q8N1I0	4.57
Q96PE2	2.32
Q96PE7	91.49
P41235	9.75
O96019	32.53
O96018	2.79
P46934	5.75
P46937	9.45
Q7L8J4	7.89
P46939	24.35
Q6ZMP0	1.53
Q5T9A4	11.82
O14879	15.32
O14874	51.8
Q96G03	218.54
Q5TCQ9	1.04
Q7L3T8	9.66
O60361	430.78
O75146	41.66
Q9BWS9	61.07
P19013	50.9
P19012	3.49
Q9UBV8	33.88
Q9UBV2	83.1
A6NHN6	6.69
Q04828	3506.25
Q8WUD1	14.17
P40189	3.31
Q6P4Q7	1.98
P11047	72.43
P48163	77.54
O43301	2.29
Q5T8P6	3.02
Q8NFG4	7.98
P50914	380.65
Q08AH3	1519.68
Q96DP5	3.91
Q9BX84	0.74
P51531	9.46
P30405	583.69
Q8N954	5.68
Q96N11	3.43
P31751	30.76
O15042	13.05
O15047	0.92
O15049	2.84
Q8NI99	23.23
Q8NAV1	9.15
P16401	220.3
Q9NSY0	8.9
P16402	38.37
Q9HC07	39.31
P18825	3.46
P18827	121.53
Q9HBL0	36.02
Q9HBL7	19.94
P51398	48.94
Q9HBL8	15.43
Q12824	3.89
Q969R2	6.78
P52848	3.4
Q86VB7	121.69
Q9H7N4	1.23
P35052	11.12
O60568	16.18
Q6Y7W6	12.57
O60566	1.43
P55851	5.16
Q9UMR2	63.61
Q96SY0	2.98
Q8IY37	2.65
Q9NNX6	59.95
Q9H792	2.66
P35580	241.94
P49023	13.3
P24588	3.64
Q9NVS2	23.2
Q8NBN7	38.19
P35270	507.58
Q8NBN3	10.82
Q15084	705.77
Q9Y2I8	6.28
Q15080	8.79
Q9BW60	10.5
O75626	1.87
O75629	7.12
O75628	5.21
Q05682	193.18
Q8IVF2	1.11
Q8TE82	2.33
Q8TCY9	1.63
Q66K66	8.69
P53396	173.17
Q8WVJ2	19.41
P0DJD3	3.07
O94911	5.74
Q13393	1.38
O94913	1.98
O94919	9.35
Q02487	1.72
Q9NPE3	89.04
Q6NT55	2.77
Q8N699	6.45
Q8N697	2.77
Q8WV74	33.81
Q6PCB7	4.82
Q6PCB5	3.62
Q6PCB0	7.33
Q8IZL8	2.87
Q9HCS7	1.72
Q9HCS2	42.69
Q86Y39	138.59
P36776	281.88
Q9NZ08	63.98
Q9NZ01	280.85
Q16531	195.89
Q16537	9.41
Q6NUK4	11.72
Q16539	20.77
Q6NUK1	28.93
Q9H3R5	6.02
P51522	2.87
Q9BUP3	171.22
Q9BUP0	133.77
Q9NUV9	63.98
Q9NUV7	2.76
Q02543	380.03
Q96FW1	180.94
B4DQ47	8.53
Q7Z7H5	92.56
Q7Z7H8	5.86
Q9BY49	674.64
Q9BW62	3.1
Q9BW61	14.49
Q9BY44	50.15
Q9BY43	47.84
Q96PZ0	6.86
Q6IAA8	77.33
Q9UNK0	19.12
Q96E11	64.45
Q9P0S9	177.98
Q96MV1	39.97
Q7Z739	32.23
5SrRNA	1870
58SrRNA	1870
25SrRNA	1870
18SrRNA	1870
5SMrRNA	680
23SMrRNA	680
16SMrRNA	680
