Q8TBF4	8.48
Q5MIZ7	8.56
Q8TBF2	9.83
Q9NQ76	3.57
P20933	28.04
P20936	16.13
P30613	3.37
Q6ZNW5	9.85
Q9NXR8	4.46
Q00535	25.06
Q9NXR1	48.39
Q00537	3.5
Q07960	115.84
Q9NXR7	62.28
O00244	84.57
Q96J65	1.37
Q9UBM7	11.49
A0AVF1	3.25
P40424	13.43
P40425	13.64
P40429	415.94
Q7Z3T8	1.24
Q13838	574.97
P03891	48.2
P48960	27.25
P03897	79.12
P02768	821.18
P05386	199.34
P05387	1126.89
P05388	225.25
Q9UQ05	1.87
Q9UJ70	569.42
O15254	8.06
O15258	136.33
P29401	1991.92
Q9H0S4	74.16
P39023	1004.6
O43399	581.73
Q96CS3	59.48
Q9P219	2.74
Q9P215	9.01
P62807	2955.91
P62805	30104.03
Q9P212	0.81
Q92830	4.44
Q92835	535.36
Q4G0I0	55.63
Q969K4	3.87
Q9H3M7	4.78
Q9H845	72.83
Q9Y6E2	64.99
Q9Y6E0	105.79
O43933	2.92
Q9BZG8	4.28
Q5TZA2	4.57
Q09161	131.77
P09001	37.81
P60520	152.67
Q9UKZ1	26.45
P53701	13.64
Q14568	31.8
Q14562	23.96
Q8WYB5	0.9
Q86TG7	5.21
Q8NFQ8	93.62
Q6P1A2	78.2
Q9NRH2	9.9
P41218	701.04
P41214	58.04
P41217	20.02
Q9UHC6	5.63
Q86VY4	4.62
Q92526	173.21
Q92520	202.9
Q92522	751.59
Q7Z5L2	4.75
Q7L8L6	7.23
Q53HV7	6.99
Q02878	1032.81
P27449	119.34
Q6PII3	7.73
Q9HAP2	2.06
Q96HA1	13.07
P07205	9.32
O75165	48.39
O75167	5.99
Q96G23	27.9
Q5VZL5	14.49
Q96G21	74.17
P06865	17.19
Q96G25	7.18
Q9BWU0	37.59
Q13239	6.7
Q8TEH3	1.89
Q13233	8.88
O60381	3.62
P10914	11.43
Q6UW02	107.45
P23743	199.49
Q8WUF8	26.1
Q8WUF5	2.34
P48147	90.49
Q9BQG0	152.79
Q4VC31	138.1
Q6PL24	93.41
Q96RU3	365.77
Q96RU2	35.77
Q6VMQ6	22.95
Q9NYU2	176.64
A4D1P6	37.55
P55145	332.64
P50395	1087.28
Q96A83	4.6
Q9Y5A7	76.91
Q13642	34.52
Q8NDW8	1.38
Q9Y5A9	30.13
P40306	194.69
Q6XQN6	83.35
Q02127	58.41
P62380	19.98
Q96CN9	4.75
Q96CN7	129.45
Q96CN5	2.75
Q03188	82.03
Q5RKV6	118.24
Q9H6R4	26.16
P10644	320.39
Q9H6R6	4.38
Q9H6R0	2.65
P48551	3.61
P60891	485.19
Q86WN1	32.54
Q8NAP3	4.66
Q9NZM5	15.35
Q9NZM3	30.2
P07099	15.76
Q9NZM1	6.22
Q8N5G0	68.03
Q9Y291	16.52
Q9Y296	111.44
Q9Y297	3.03
Q9Y294	9.08
Q9Y295	138.96
Q6IA17	22.84
P49795	67.76
Q96I85	36.34
P49796	3.15
P49790	36.6
P49792	110.68
B0I1T2	575.2
Q8N6V9	4.65
P51116	14.06
P51114	56.86
Q9H7L9	49.24
Q587I9	28.73
O60812	636.18
Q5T7V8	4.64
Q9Y2T2	111.13
P31483	77.71
Q9P0L2	9.38
Q32MZ4	395.08
P49789	12.38
Q92738	4.43
Q08174	1.82
P35251	21.15
P35250	95.92
Q08170	161.98
O75427	173.29
Q8IY17	12.52
Q8IY18	56.7
Q92733	43.79
Q92734	38.42
Q92736	0.37
Q8IU68	12.78
P23109	9.25
Q00765	194.16
O60603	9.29
Q5T2D3	4.62
Q5BKT4	22.51
O00506	8.67
O00505	43.31
P17927	59.71
Q8TEA7	6.22
P01009	49.11
Q01581	3.64
Q9BXB4	44.9
Q9BXB5	42.24
Q8IYD1	6.06
O75398	7.03
O75391	72.13
O75390	455.95
O75396	458.15
O75394	27.39
Q8IVD9	35.78
Q9Y4F3	3.25
P46013	4.65
Q66K89	5.0
Q8WVD5	16.34
P46019	13.57
Q9BSD7	110.81
O94979	205.49
O94973	78.28
Q5T3J3	4.93
P30154	12.6
Q8WXH0	17.29
Q8TC07	44.62
O60927	59.82
P28838	286.05
Q6NT76	8.83
Q9UI09	219.46
P19447	4.67
Q96LZ7	22.01
Q2VIR3	207.72
Q9BSL1	18.41
Q16512	98.37
Q16513	1.86
Q14004	16.45
Q14005	479.86
Q9H3P7	113.64
Q9H3P2	83.79
Q8NCW5	151.51
Q9NUT2	13.04
Q6Y288	3.69
Q9HA77	20.12
Q9UFC0	20.61
O14936	1.98
O43324	115.85
O14933	35.23
P04839	514.16
Q96KF7	18.87
Q7Z7F7	13.79
P56937	16.38
Q9Y2K6	2.05
Q9Y2K7	37.71
Q9Y2K1	5.09
Q9Y2K2	5.96
Q9UHY1	59.27
Q96MT3	6.64
Q9UHY7	86.54
O14683	109.01
O14686	7.38
Q9UNE7	17.96
Q6P6B7	5.31
Q86SZ2	58.01
Q00978	23.88
Q6P6B1	5.22
Q7Z2T5	76.57
Q9BYM8	25.37
P50897	134.25
O75436	317.05
Q13586	99.71
Q8WWC4	32.06
Q13588	32.94
O95758	111.86
Q9BWH6	9.56
Q9BWH2	151.37
Q8NHV4	2.9
Q6YP21	64.95
Q8NHV1	42.32
Q9H5H4	10.39
Q9C0J8	34.32
Q10589	31.66
Q68DK7	3.11
Q68DK2	11.73
P01920	139.14
O00268	24.63
O00267	134.5
O00264	192.57
P08865	1041.55
P33947	8.54
Q9H2K0	13.15
Q9H2K8	81.16
Q9NQ55	39.23
Q9NQ50	76.68
P56556	291.89
O95343	5.88
O95340	6.0
O95347	7.69
Q9UJ98	48.02
Q8IWV8	13.53
Q86UA6	8.42
P60174	3225.59
Q96HJ9	32.73
Q12982	17.38
Q12981	31.94
Q12980	3.28
Q12986	5.03
P29466	226.4
Q9Y605	28.49
Q9Y606	175.82
P28482	428.5
Q07065	353.96
Q9P232	1.85
Q53GS7	20.91
Q7RTU4	8.65
Q9UIB8	48.42
P62829	926.42
Q96CU9	7.75
P62820	450.84
Q6ZW49	3.44
P62826	897.05
P18615	115.81
P51858	1067.1
Q9BZE9	38.14
O43913	8.3
O43914	102.79
Q9Y6G9	165.95
O43916	4.47
Q9Y6G5	45.43
Q9BZE1	65.05
Q9Y6G3	75.14
Q9UKX7	233.02
P43490	93.95
Q9H1U9	12.39
P35626	7.85
Q9NRV9	118.68
Q9UHD9	34.94
Q9UHD8	577.46
Q9UHD2	77.33
Q9UHD1	217.06
Q7Z5G4	13.19
Q92508	2.18
Q92506	162.44
Q92504	8.33
Q92503	12.84
P08195	95.13
P17483	7.56
P17480	231.04
Q5W0Z9	14.81
Q96HC4	42.42
Q58EX2	1.74
Q13217	21.74
Q9H8H0	25.72
O75182	9.41
Q13219	1.15
Q71DI3	894.93
P14618	3623.0
P14616	2.9
P63010	115.75
Q96BR1	3.65
Q96BR5	8.12
Q6UW68	236.23
Q86X76	81.38
O95503	9.51
Q9BQE9	84.61
Q9NYK5	43.12
Q99536	293.67
Q9BQE3	96.18
Q9BQE4	29.58
Q9BQE5	33.75
Q8NB25	1.57
Q96RS0	10.8
P41091	40.83
Q96RS6	46.88
P40855	82.68
Q9UJT1	20.44
Q9NS69	497.37
Q9NX14	313.28
Q16891	640.84
P12755	2.61
P12757	2.71
P13489	542.79
Q9HD34	135.77
Q14839	222.05
Q9HD33	77.94
Q8NI51	35.81
O14745	375.78
O14744	111.96
Q96I24	220.03
P22415	12.44
Q9NZK5	35.4
Q8N5Y8	11.47
P22413	1.99
P50406	4.44
P16671	62.93
P50402	273.47
P55160	190.5
P10599	426.66
Q14566	51.66
Q96PE7	11.13
Q5JTH9	59.53
Q96C01	53.36
Q9P2P6	0.81
Q9P2P1	1.0
Q969X6	43.42
Q9H7J1	13.62
Q3T906	1.45
Q6P5R6	28.57
O60830	57.09
O60831	43.34
O60832	376.25
Q00169	170.57
Q9Y2V7	14.24
Q9Y2V2	39.39
Q96EZ8	24.17
Q9P0J0	412.36
Q9P0J1	133.28
Q9P0J7	24.87
P29144	107.08
Q8NBJ7	30.83
Q8NBJ5	17.48
Q9UL25	308.51
Q8NBJ9	2.21
O75400	124.65
Q7LDG7	195.85
P01024	8.92
P17900	30.04
Q9Y4D1	5.07
Q8TCE6	15.45
Q9BXL7	61.05
Q9Y4D8	0.95
Q8IYJ3	84.33
Q9H8G2	21.75
Q8N302	5.15
Q92750	2.29
P43007	7.49
Q6AI08	8.1
Q6ZV89	4.46
Q92759	8.0
Q92979	124.94
Q02447	43.3
Q02446	7.64
Q99943	32.89
Q9BSF4	7.14
Q9NPI1	5.63
Q5RI15	62.8
Q9Y3C6	308.91
Q66LE6	4.01
Q96JJ3	73.24
Q96JJ7	88.49
Q6NT16	4.27
Q9UI26	11.12
P04179	388.24
Q7Z6J4	181.09
Q05397	8.75
Q05823	9.99
Q7Z6J8	4.78
Q7Z6J9	3.55
Q14240	364.23
Q14241	41.77
Q8IWX8	70.42
P24928	79.74
Q8IWX7	2.01
P15735	22.46
P07858	71.72
Q96LT9	7.12
Q86YB7	26.81
O94953	47.93
Q14790	64.04
Q86XZ4	3.5
P16298	42.42
Q68E01	47.71
Q96NB1	10.55
Q9GZR7	123.46
Q16795	245.42
O14910	8.03
Q16799	9.98
P62280	747.17
Q96FK6	14.48
P25786	776.56
P25787	499.5
P25788	388.94
P25789	530.76
O60220	75.89
Q2QGD7	2.32
Q8IZH2	16.12
P67936	438.93
P27448	12.35
P11413	552.82
Q9BUT1	54.65
P63220	366.42
P11142	1768.75
Q16134	15.23
Q8TBB5	14.42
P80404	55.45
P01848	13.1
Q7Z591	20.17
Q13568	37.23
O95777	180.51
Q13564	238.97
O95772	7.83
P29017	5.54
Q9BWJ5	144.11
Q9Y275	6.68
Q9Y277	503.62
A3KMH1	22.34
P01909	157.59
O00203	75.67
Q9H2M3	25.85
Q9H2M9	66.88
Q96G28	5.29
Q9NV06	16.24
Q9BYK8	3.54
Q96AQ8	31.54
Q7Z333	24.11
O95365	20.38
Q96AQ6	56.92
O95363	11.96
Q9Y624	19.21
Q9BV73	33.4
O15294	35.69
P24311	22.78
O15297	6.26
P07686	69.43
Q12968	1.81
Q00577	125.51
Q12965	64.04
P60866	561.69
Q9NXV6	160.44
Q9UID3	41.23
Q9P253	60.6
P62841	673.47
Q9UID6	3.72
Q96CW1	54.63
Q01629	14.26
Q68CL5	6.26
Q9BWU1	18.37
Q9Y6Y0	8.73
Q70IA6	31.0
Q9Y6Y8	107.07
Q9Y6J9	12.31
Q9UKV8	40.78
Q9GZM5	5.46
Q9UKV3	240.44
Q9UKV0	5.62
P35606	223.95
P46199	35.92
P42566	150.16
Q8NFU3	149.87
Q6P1M0	11.58
P39060	1.17
P78537	36.26
P11908	138.03
Q9Y6J0	11.86
Q8WY36	19.85
Q92569	7.66
Q6ZMZ3	152.47
Q05707	12.94
Q92562	2.01
Q92564	12.25
P52566	2105.78
P52564	66.78
Q9HAT2	3.58
P42694	2.86
P42696	47.26
P57088	141.7
Q5JV73	1.05
Q5VZP5	1.6
Q8WU76	30.55
Q8WU79	124.87
Q96HE7	222.49
P08311	311.13
Q9H254	0.72
Q9H257	3.35
Q8N9Z0	3.9
Q8TDQ7	127.53
Q8TED0	25.0
O43598	251.15
P07996	149.98
Q659A1	3.79
O43592	70.21
O43593	1.64
P40121	953.87
O95563	116.9
O95561	9.84
Q6ZST2	14.48
Q8WUB8	7.45
Q96BP2	30.97
Q96BP3	73.73
Q9BQC3	4.01
Q86X52	2.27
Q86X53	8.52
Q9BQC6	34.02
Q86X55	34.85
Q52LJ0	168.31
Q9NYI0	1.8
Q96RQ3	103.71
Q96RQ1	4.9
Q8N3U4	153.55
Q9NQP4	122.63
P40692	7.4
P33778	18337.61
Q8IUI8	134.17
Q8IUI4	30.66
P07332	4.46
P07339	173.29
Q8N3D4	42.54
P61769	365.13
Q8NI77	4.08
Q14814	3.73
P10606	517.98
Q9NZI7	13.8
Q9HD15	65.02
Q15800	5.92
P62072	20.19
P62070	169.42
Q96II8	36.36
Q96L14	19.17
Q9UJV9	23.9
Q9HBR0	1.74
Q8NCN4	10.81
Q8NCN5	29.4
P52824	2.06
Q96TA1	4.96
Q9P2R3	39.0
Q96C23	55.25
Q9P2R7	165.87
P51159	159.42
P51151	27.41
P51157	8.4
Q9BTU6	38.62
Q9Y2P8	35.76
O60858	4.44
Q9UMX0	143.51
Q04864	60.9
Q96NL8	8.92
Q96EX1	19.32
P18846	28.55
Q9Y478	61.81
Q9NVU0	5.22
Q9NVU7	49.64
Q00722	21.8
Q6IQ55	4.56
Q9Y3L5	50.29
P78406	193.54
P23141	226.94
Q9Y3L3	460.23
P17655	326.04
P05204	1221.76
Q96S94	3.59
Q9UM54	2.79
Q15029	356.54
Q6PJ69	32.74
Q15025	34.84
Q15024	72.13
Q15027	245.67
O00541	122.73
Q15021	1.33
Q15020	227.76
Q6PJ61	3.23
Q15022	20.1
Q86V85	4.22
Q9H7H0	4.11
Q86V81	783.77
Q96S90	8.35
O15173	219.01
Q86V88	10.38
Q8TCG2	3.81
Q9P1Z0	5.96
Q5JWR5	1.5
P62987	7891.11
Q9BVG4	88.08
Q8IY57	20.97
Q86U38	72.12
Q9BVG9	3.71
P42229	122.0
P42224	303.42
P42226	168.46
Q9UI43	7.61
P22234	172.85
Q01459	4.77
P04150	12.18
Q96JH7	29.51
Q8IYH5	4.09
P49903	68.07
Q9H089	24.96
O75688	95.13
Q9H081	129.65
Q9H082	16.23
Q5JT25	8.33
P27348	638.8
P19404	129.49
Q68CQ7	4.98
Q68CQ4	35.95
Q6NUM6	2.71
Q8N6R0	29.14
Q96LV5	25.72
P49190	3.35
O14972	37.93
Q9NUP9	9.56
O14976	48.09
O14974	177.38
Q9NUP1	89.36
O14979	269.59
Q9NUP7	7.69
Q8IW70	3.39
Q9GZP9	7.57
Q9GZP4	276.16
Q9H9A6	51.97
O75027	53.02
Q9H9A5	15.21
O75022	3.01
P49441	28.45
Q05519	120.81
Q96FI4	23.88
Q86Y91	2.21
Q9HCU5	73.42
P11387	225.38
P15313	36.71
Q02880	166.22
Q9HCU8	16.78
Q9HCU9	43.99
A8MW92	5.44
Q96PP9	68.44
Q96MP5	2.63
Q13405	130.42
Q13404	771.62
Q13402	0.82
Q13409	70.08
P05787	3.89
P11169	19.35
P63208	480.87
P11166	61.73
Q96GE9	51.07
P50851	58.85
P61513	304.6
Q13542	16.13
Q13546	49.46
Q13547	325.65
Q9NY93	33.88
Q494R4	8.75
O00221	43.42
Q96J01	48.43
Q96J02	26.39
Q9UBC2	88.55
Q9UBC3	2.18
P50148	4.95
Q96BM9	253.32
Q13895	88.34
Q9H2W6	92.14
Q92905	122.15
Q6ZS11	3.34
Q6ZS10	4.86
Q6ZS17	7.89
Q9BYI3	3.62
P18433	18.42
Q02086	12.86
Q5QJ74	4.33
P10415	119.16
Q6K0P9	26.52
Q5VWZ2	142.72
P10412	1975.37
P48556	121.15
P29317	1.93
Q12946	5.2
P35998	270.29
O15067	80.73
Q9Y4G8	2.49
Q86UE4	336.66
Q9NXH8	48.92
O15066	22.06
P48553	24.95
Q5SZK8	0.59
Q9UIF9	6.92
Q9P273	1.39
Q9P270	36.7
P62861	721.88
Q9P275	3.4
Q92890	102.81
P51817	15.31
P51816	1.44
Q92896	111.65
Q969M1	30.76
Q969M3	14.91
P02787	8.12
P02786	9.83
O60449	55.76
Q6PIJ6	6.23
P02788	74.73
O43566	54.33
O14492	6.16
O14497	68.96
Q9UKT8	4.05
Q9UKT9	320.05
O95926	101.7
Q9UKT5	14.18
Q9H1I8	33.83
Q9UKT7	4.28
Q5T6X4	23.6
Q86TI0	53.31
Q86TI2	38.22
Q8NFW8	142.33
Q562F6	1.44
Q9NRR3	158.36
Q9NRR5	16.34
P28370	27.23
P32970	9.88
Q92543	7.69
Q92542	37.25
Q92541	85.73
Q92540	1.64
Q92547	1.22
Q92544	30.8
Q9H4Z2	1.44
Q9H4Z3	103.46
P20340	132.66
Q9HAV0	27.77
Q9HAV7	42.97
Q9HAV4	30.61
Q96SB8	61.11
Q6PJF5	4.32
Q96SB4	50.53
Q96SB3	203.53
Q8N806	73.9
Q9H270	77.4
Q14457	48.25
Q8WU10	3.74
Q8TEB1	27.07
Q9Y3Q8	35.6
Q8TEB9	11.65
Q9Y3Q3	16.84
Q659C4	7.92
Q8N9T8	95.99
Q6PI98	20.22
A5PLL7	6.7
P26599	656.36
Q9H5X1	68.21
O95544	21.19
Q99572	3.04
Q99571	4.81
Q99570	53.15
Q9BQA9	321.41
Q99575	16.37
Q14684	111.21
P22061	618.27
P82650	45.49
Q5W0V3	31.34
Q8NDI1	1.49
Q9Y5G1	2.06
P36508	3.37
P36507	98.63
P81877	11.03
Q8IXI1	36.76
Q8IXI2	47.16
P19367	653.53
Q9NX55	56.91
Q9NX58	110.03
P05455	1011.26
P07311	37.06
Q9NVR2	30.45
Q5TAQ9	21.85
P10620	59.28
Q9BRA2	134.7
Q9H6H4	14.2
Q5T447	27.93
Q9BQ04	62.36
Q5T6V5	21.38
P15291	14.25
Q96DX7	5.42
Q9UJX5	9.06
Q9UJX4	12.26
P50336	41.1
Q9UJX3	21.85
Q9UJX2	39.41
Q5BJH7	18.18
Q9NUK0	10.83
P84085	213.43
Q15477	39.38
Q9P2T1	55.09
Q96TC7	36.03
Q5VIR6	39.29
Q96KQ7	17.34
Q03167	2.23
Q03164	10.15
Q6ZRP7	18.84
Q03169	5.74
Q9Y2R2	2.28
Q9Y2R0	124.51
O60870	27.59
Q9Y2R5	129.49
P50213	363.64
Q9Y2R9	74.16
O60879	28.25
P30049	143.16
P30048	1032.23
P30041	1108.49
P30040	489.38
P30043	358.46
P30042	377.75
P30044	1029.76
P30047	172.12
P30046	213.38
P55789	71.19
P55786	294.97
Q9UMZ2	19.28
P08922	0.79
P13667	420.56
Q15007	37.73
Q15006	35.94
O00566	105.83
O00567	928.75
O00560	64.31
O00562	41.78
Q69YI7	17.8
Q15008	247.46
Q86VD7	11.79
Q96S44	111.14
Q8NHM5	4.1
O15156	7.19
O15155	47.1
O15151	11.41
Q8TE02	5.99
Q96R05	13.43
Q8WVB3	3.88
Q8NBF6	23.2
Q9Y324	17.86
Q9Y450	35.94
Q8NBF2	7.88
Q5BKZ1	31.78
Q9H869	2.37
Q9H714	11.36
Q92930	362.74
P15907	26.86
Q96AJ9	24.82
Q14202	23.28
Q14203	220.88
Q15170	11.37
Q14207	6.76
Q14204	218.68
Q5VTU8	107.79
P00338	1256.85
Q9Y4H4	93.43
P68036	362.12
P68032	283.05
P07814	201.82
O43164	10.67
O43167	2.67
O43166	7.3
O43169	498.26
P19174	8.43
P79483	111.42
Q86VP3	4.27
Q8N6T3	88.75
P35414	4.89
Q6ZQQ2	23.76
Q9H3Z4	84.78
Q9BSB4	8.35
Q86YN1	7.72
O94992	71.91
Q86YN6	1.84
O14950	10.55
Q9GZV5	4.73
Q6FI81	130.48
Q9H9C1	21.96
Q6NXS1	72.42
P27361	140.28
O60262	249.65
O60264	193.41
P61353	673.59
P0CK96	4.77
Q15648	17.34
Q15642	21.37
Q13428	190.68
Q13427	47.09
Q13426	59.95
Q7Z2Z2	53.23
Q13423	291.28
Q13422	159.59
O95487	10.63
O95486	6.97
Q5JSP0	110.37
Q53HC9	4.79
O75420	14.57
Q96GG9	55.41
P01889	505.39
P01880	320.98
P48730	4.41
Q9BWN1	6.49
Q8NHP8	3.19
P48735	651.67
P48736	11.55
P48739	258.01
Q8NHP6	31.43
Q9NWX6	23.96
Q9NT62	110.54
Q8NBN3	13.16
Q7L591	90.06
Q7L592	8.48
Q7L2E3	26.48
P48651	71.4
Q96BK5	22.54
Q9BYW2	4.35
Q14993	1.81
Q14997	7.9
P51784	34.2
P62136	739.79
P12107	2.3
Q7L775	11.86
Q9UQ88	157.58
Q9UQ80	652.83
Q8N5N7	91.09
Q9NQR4	245.41
P29372	120.61
P29375	20.64
P29374	42.39
P29376	2.28
Q12929	2.27
Q9C009	5.02
Q9UBE0	287.61
Q9C000	2.52
P17693	5.46
P03905	68.77
Q969S2	17.0
Q969S3	49.98
Q969S0	5.58
Q9BQ95	8.49
Q969S9	12.05
Q8TAD8	9.12
Q6RW13	107.81
Q8TAD4	7.45
Q5QJE6	128.45
Q8WYJ6	402.68
Q8N9N7	15.6
P09086	28.52
P29597	9.37
Q9NRP0	86.79
P29590	404.26
Q8NFY9	3.03
Q09472	5.53
Q9P2I0	63.67
Q01664	5.39
P28356	5.72
Q8WW59	90.21
O75251	115.11
A9UHW6	32.83
Q86VQ1	3.6
P08133	3063.55
Q8N755	55.46
A6NCK2	3.99
P54727	125.66
O43929	12.43
O95905	2.87
Q96QU8	4.86
Q9UKR5	65.76
Q96SD1	5.32
P54252	49.94
Q9H299	539.73
P05556	89.68
Q8TB61	8.78
Q8NEW0	20.05
Q8N131	9.69
Q01085	105.35
Q8N137	16.49
Q01081	366.82
Q75N03	19.14
Q8N9V3	15.8
Q6PI26	3.2
P0CG39	1.78
P0CG38	1.72
P0CG32	4.62
O15492	27.52
Q86X10	15.01
P59998	997.28
Q9H5Z1	2.64
Q9Y383	165.98
Q99598	264.66
Q02218	356.35
Q99590	60.83
Q99592	3.58
P82673	45.31
Q8WU39	80.66
P82675	26.08
P21926	24.63
P21291	223.19
A7E2V4	1.06
P16615	89.09
O43447	206.39
Q9NX76	10.22
Q9NX74	3.79
Q16342	5.41
P62308	245.59
P62304	791.82
P62306	236.01
Q8WUH2	17.18
Q30201	5.2
Q6UWH4	3.63
Q9NSY1	12.92
Q9BRG1	80.45
Q8NC96	7.02
Q8NI37	6.39
Q8NI36	47.55
Q9NZE8	9.7
O14727	22.07
Q9UJZ1	184.1
Q96A00	25.0
P35658	55.67
Q6BCY4	33.16
P55263	540.35
Q8IXK0	16.1
Q96DZ1	3.8
P55265	193.22
P30203	31.97
Q5BJF6	19.68
Q9NR56	34.93
Q9NR50	37.38
Q15459	349.77
P49716	14.66
P49711	138.62
P11912	433.34
Q8N8Q9	5.32
P13645	1298.17
P13646	8.42
Q04828	5.67
P0DJJ0	11.7
Q8IY21	23.2
Q07157	1.07
Q15061	27.86
Q75QN2	7.38
Q96S66	40.37
Q9NNX6	4.56
P55854	17.93
P17612	169.64
O00584	49.54
Q9H7D7	11.57
Q9H7D0	0.97
Q9NP66	20.79
O15131	41.49
Q9BTY7	24.76
Q7L014	222.23
Q92917	31.96
Q6ZV29	1.43
P51991	1027.59
Q92918	77.71
Q9Y303	9.54
Q9Y305	129.62
P21730	5.3
Q8IY92	3.13
Q9BVC5	24.21
Q8IY95	67.48
Q9BVC6	135.33
Q8N4P3	256.6
P32780	23.55
P15927	292.5
P15924	11.32
P15923	6.17
P53041	102.71
P00352	34.23
P36543	311.25
Q9Y5K5	183.09
Q8TCC3	11.25
Q9BXJ8	15.41
Q9BXJ9	113.32
Q8IYL3	24.1
Q9UHP3	18.78
Q8TC05	12.92
O43149	21.43
O43148	72.29
O43639	29.17
O43143	435.97
Q15935	3.37
Q6NUQ4	18.93
O43147	1.84
O43633	108.05
Q92667	6.43
Q92665	55.25
Q96LR5	37.5
Q9BX59	20.79
P53597	305.07
Q86YH6	4.73
Q9UI08	659.35
Q05086	64.24
Q99928	3.84
P42261	2.06
Q9GZT3	388.62
Q9GZT6	42.43
Q9GZT8	124.29
Q9H334	44.33
Q9H330	18.6
Q8IWV7	23.97
Q6P161	118.71
Q8IWV1	9.47
O60244	10.39
Q9H9E3	21.08
O75063	4.49
O75064	11.46
Q13191	7.63
Q13190	126.22
Q9NUG6	13.45
Q9UHQ9	128.52
P26038	3008.9
Q9UHQ1	4.08
Q9UHQ4	29.47
Q15669	19.56
Q99436	41.78
P63241	1437.97
P63244	874.42
Q13442	273.08
Q13445	49.67
Q99439	520.13
Q96GA3	15.21
Q15596	5.24
P17181	3.28
Q13509	471.65
Q4G176	94.35
Q13505	64.85
Q13501	26.25
P12694	74.41
Q9NWZ3	28.34
Q9NWZ5	6.83
Q96BI3	14.39
Q7Z3B4	161.85
Q96BI1	4.65
Q7Z3B3	6.9
Q7L576	90.54
O95674	77.1
Q9UQE7	353.8
Q9HBE1	11.27
P48634	27.35
P48637	67.71
Q16626	10.48
P15311	1172.33
Q6F5E8	72.84
Q16629	457.46
P34947	9.23
Q7Z422	36.83
Q5VYV7	4.58
Q9BS40	40.52
Q6S8J3	6.88
Q9NXL9	1.64
P29353	13.29
P29350	1309.47
Q12907	202.28
Q12906	816.34
Q12905	901.25
Q12904	188.29
Q969Q0	117.14
P03923	22.41
Q969Q5	135.35
Q969Q6	3.91
P03928	104.43
Q7Z4G1	21.65
P27816	244.86
A2RTX5	18.02
P49902	35.33
Q9UJA5	59.83
Q9UJA3	4.45
Q8IZ73	44.24
Q86TM6	24.66
Q53EP0	1.57
Q07812	620.52
Q6P1K8	18.78
Q6P1K2	35.76
P14209	88.56
Q14BN4	19.73
P05186	14.56
Q9P2K8	1.12
Q9P2K5	9.76
Q9P2K3	33.79
Q86VS8	82.83
Q53FT3	48.24
O75909	22.74
O75907	22.65
Q14008	62.0
Q96QK1	384.51
Q8WY22	82.45
P06241	30.91
P54278	10.89
Q5TBK1	7.2
P54274	20.76
Q9Y3U8	544.88
Q13291	5.6
P00167	163.33
P0CG12	40.6
P62750	872.58
P18031	279.78
P22392	168.87
Q96P16	46.73
Q96P11	53.62
O43822	22.09
Q92581	8.44
Q8TDP1	70.18
Q9BTX3	10.62
P02675	29.85
Q96AE4	694.9
Q5JU69	5.84
Q96RK0	1.27
Q14147	4.89
Q14146	6.12
Q14141	394.5
Q14142	4.19
Q9Y4C1	2.83
Q14149	81.82
Q8WVY7	243.77
P19634	2.3
O43464	25.63
P07355	1945.79
P07359	36.31
Q96EB6	15.33
P62328	1734.31
Q96JQ2	11.21
Q16363	2.06
Q8WUH1	25.9
Q5VTL8	71.2
O00291	17.95
Q9NSU2	5.36
Q9NZC9	21.67
P49407	13.3
P58107	0.38
Q9UDX5	11.59
Q8N5Q1	2.09
Q96A65	75.53
P36542	512.21
Q9Y5K6	148.93
Q8IXM3	54.26
Q8IXM2	769.34
Q8IXM6	120.74
Q9Y5K8	81.21
P30260	6.81
Q9BQF6	20.93
Q9NR31	261.2
Q9NR30	284.28
Q5BJD5	6.42
P49736	63.48
P06400	57.0
Q15438	31.47
P34949	147.58
O95671	48.48
Q96C86	259.41
Q15436	101.71
Q15437	43.43
O95678	3.5
Q15435	281.12
Q8ND04	17.12
Q9H6D7	4.92
Q06330	7.5
Q9Y3C5	143.54
Q6NVY1	239.93
P30085	291.08
P30084	392.22
P30086	1288.17
P12318	5.96
P06746	71.05
P06744	958.23
Q969P0	16.04
P06748	1383.55
Q29RF7	163.24
Q96EB1	4.48
Q9UN86	73.25
Q8N6C8	17.58
Q8NF64	2.16
P08962	32.56
Q6DN03	19.43
Q63HR2	1.37
P52333	3.34
P57740	160.84
Q15048	3.83
O95202	182.74
Q15042	101.94
P31689	83.71
Q15041	26.79
Q15047	13.12
Q15046	340.36
Q96S82	5.15
O15111	22.19
Q9H7B2	105.55
O15117	68.42
O15116	41.24
O15118	4.4
Q8WWV3	14.36
P29728	116.44
Q7L4I2	12.38
Q01780	80.7
P31350	4.65
P18206	616.87
Q9BVA0	2.88
Q9BT09	230.72
P07437	1520.66
Q9Y490	1485.04
Q58FF3	36.4
Q9Y496	5.21
Q9Y365	6.31
Q01433	51.81
Q01432	63.43
Q8WWV6	3.65
P28676	425.82
P62699	45.22
Q9UGI8	473.86
P09769	38.59
Q96C36	12.41
Q9Y520	44.11
Q7Z6B0	4.18
P16949	675.29
Q86XR8	36.55
Q9Y4L1	194.91
Q86XR2	48.52
P17676	11.56
Q96LL9	24.11
P49917	8.03
Q709C8	100.28
Q92643	27.67
P49137	50.37
Q9H074	50.68
P23258	61.16
Q86YJ7	2.97
Q9NPQ8	150.26
P20042	260.9
Q9GZZ9	18.6
Q9GZZ1	75.3
Q8IZP0	71.97
O75044	12.08
Q05209	66.31
P25705	1536.51
Q86TP1	37.41
Q8IWP9	6.87
P36222	4.9
P0C0L4	14.07
O43617	133.79
O43615	121.89
P61916	62.96
Q14602	102.91
P61313	535.76
Q17RN3	44.72
Q13464	102.89
Q13469	66.67
Q99417	209.23
Q9UF56	2.76
P50748	0.83
P50749	353.37
Q96GC9	9.03
Q2T9K0	4.0
Q8WZA9	6.65
P36957	286.74
P19793	4.11
Q9NY35	7.29
Q9NY33	207.17
Q68EM7	373.86
Q9UHW5	25.48
Q96PV6	16.96
Q9UHW9	16.35
Q06830	2406.46
Q06787	43.97
Q8NH79	12.02
Q9NV88	5.65
Q8TBJ5	4.27
O14880	707.47
P09972	391.33
Q2Y0W8	1.7
P15374	119.54
Q86UK7	10.58
Q7Z401	16.95
Q7Z403	18.54
Q9HC52	14.42
Q7Z406	2.75
Q6ZVF9	2.53
Q9NXN4	7.42
Q9NQV6	1.6
Q96D46	25.36
Q969W8	4.24
Q86WQ0	26.29
Q969W3	10.71
P51659	225.19
P30740	898.23
Q9Y6Q9	12.09
Q53GT1	14.56
P07954	339.88
Q9UJC3	12.32
Q96IV0	44.88
Q8N4V1	14.21
Q15544	8.95
Q5VV17	4.09
P52294	69.29
P14222	50.99
P20674	174.27
P20671	310.61
Q6QNY0	127.61
P52298	23.18
O76003	139.36
P55957	417.4
Q15386	15.15
Q15382	40.72
O00422	201.99
Q10471	54.8
Q10472	35.74
Q15388	64.01
Q96T49	22.98
Q9P2M4	2.67
Q9P2M7	1.53
Q9NTJ4	1.8
Q9NTJ5	190.06
P08174	70.56
P23396	1931.11
P00491	1032.94
P00492	382.01
Q05925	10.4
O75925	2.9
P27482	12.35
P15498	171.91
Q10713	35.82
Q9UKN8	29.49
O15305	133.74
Q99627	62.89
Q99623	946.26
P54920	470.89
P08397	31.83
P54922	79.22
Q8TB22	4.75
Q8TB24	34.82
P28288	52.53
Q6PI78	24.55
P24752	369.3
Q10588	23.36
Q8WW12	297.68
Q02252	111.83
P42126	216.18
Q5SWX8	20.42
O43264	49.33
Q9NYA4	1.56
Q7L3B6	10.75
Q14166	168.26
Q14165	213.61
Q14164	18.15
Q6P0Q8	1.06
Q14162	2.39
Q14161	120.93
Q14160	13.12
P62341	56.08
Q16836	267.71
Q9UGR2	7.48
P15144	40.0
O43402	8.78
P49368	916.87
Q8WUJ0	8.19
Q96A49	41.8
Q96DF8	23.82
Q96A46	5.31
P63167	261.67
P63165	379.14
P63162	8.48
Q86YW9	0.87
Q9Y5M8	196.7
P12081	109.03
P30536	44.33
P30533	40.26
P49750	40.79
Q9ULL5	14.45
Q15417	5.73
P49755	451.13
P49754	14.82
P49757	32.42
P61457	34.78
P61106	960.45
Q15418	93.33
Q6ZRZ4	9.35
A2RUB6	1.91
Q9H6F5	67.41
P55285	4.73
Q8TDB6	52.44
Q4G0F5	37.3
Q96NT3	15.34
P06729	5.29
O00635	39.06
Q6SPF0	14.89
P13686	11.4
Q9NR12	8.37
Q8NCF5	40.99
Q9NR19	2.66
Q96HY6	169.92
P55899	5.25
Q8NC56	43.95
O95260	67.09
O95263	2.11
Q9BW92	56.65
Q8NHG8	17.3
Q9BW91	5.33
Q8NHG7	74.14
Q9Y2X0	6.47
Q9Y2X3	738.96
Q9Y2X7	101.43
P84243	3375.92
P62906	815.09
P83731	586.8
P28074	7.33
P28070	571.58
P28072	8.23
Q9BT22	11.92
Q9BT23	74.15
Q9BT25	4.65
Q9Y343	10.53
Q5VUA4	9.97
O60551	25.63
P57764	39.52
Q8N4T8	131.95
O95881	152.1
P53007	282.19
P53004	112.35
Q86UP2	124.17
P10301	62.21
Q86XP3	117.52
Q9BXV9	96.07
Q9Y4R8	2.27
Q8IVP5	24.29
P49116	15.95
Q76LX8	1.36
Q9UIQ6	302.27
Q96B23	19.26
P0C7X2	6.82
Q9H0Q0	279.6
Q05048	51.78
Q92622	9.6
Q92623	102.71
Q92620	28.22
Q92621	75.07
Q92625	5.08
Q9BSH5	208.65
Q9BSH4	25.7
P20023	70.22
P20020	58.65
Q14596	1.94
A8MPS7	6.05
O60287	7.38
Q02224	5.93
O60282	9.53
O60281	0.68
Q86TV6	4.43
Q8IWR0	1.89
P14151	24.73
O43670	94.56
O43674	115.12
O43677	95.56
O43676	201.3
O43678	267.46
Q9Y608	17.77
O95466	440.07
Q15629	48.44
Q15628	85.3
Q8WXS5	4.82
Q13489	3.05
Q13488	62.84
Q9H4A9	3.91
Q13485	17.26
Q9H4A6	24.68
Q9H4A5	38.21
Q9H4A4	342.03
Q9H4A3	21.63
P32121	95.04
Q12988	12.3
Q70CQ2	2.58
Q99470	18.12
Q99471	72.25
Q6ZP65	35.4
P62256	10.1
Q8N6M0	61.71
Q6ZP68	15.55
Q9BWD1	222.02
Q684P5	10.43
Q9NWF9	2.1
Q9NY12	168.06
Q9NY15	0.76
O75414	59.22
Q96MH6	11.15
P62487	118.96
Q14978	136.07
Q5H9R7	115.36
P12004	239.34
Q9BQ67	16.89
P28331	349.21
Q14974	702.17
Q8TBH0	4.7
Q12756	3.28
Q96B86	4.23
Q96HR3	30.87
P61599	20.49
Q16666	794.37
Q9H0E9	10.79
Q7Z392	27.52
Q9H0E3	28.37
Q9H0E2	68.9
Q9NQT5	112.89
Q9NQT4	24.79
Q9NQT8	7.2
Q5XPI4	4.21
Q7LFL8	6.33
P56378	125.28
P51674	13.37
P56377	179.34
Q9BZQ8	46.53
Q8N5H7	26.52
Q9NZZ3	152.85
P17050	13.44
P13747	72.74
Q6ZTW0	6.67
Q9NWA0	12.72
Q53ET0	8.54
Q9NRZ7	19.24
P78346	35.58
P78347	495.58
Q6P1W5	3.19
P78345	26.22
O76021	231.53
P17661	11.69
Q96T60	73.11
O00409	3.88
O00408	1.97
Q15366	286.64
Q15365	1491.26
Q15363	256.68
Q15361	6.07
Q969U7	7.1
P59044	2.11
Q13905	36.35
O15091	3.1
Q56P03	6.37
P08621	315.67
Q8N264	56.96
A6NDG6	55.22
Q9UKL0	43.28
Q9UKL3	0.94
Q9UKL4	5.78
O15320	64.2
Q9H1A6	14.77
Q9H1A4	6.75
Q9BZE4	78.99
Q9H1A3	5.71
Q8TB03	79.66
Q99643	134.54
Q7Z6I8	41.46
Q8NEM7	2.43
Q96P53	4.62
Q9UH03	5.13
O95447	8.18
P18077	183.06
P62714	17.6
O75943	13.54
O75940	218.72
O75947	383.66
Q9H147	22.55
Q7Z5K2	42.38
Q8IV53	67.1
Q8IV50	62.25
O43242	359.29
Q13033	50.24
Q8N3C0	14.11
Q96RG2	5.84
Q8WU90	176.02
Q9UPN7	222.19
Q9UPN6	13.36
Q9UPN9	23.84
P53634	52.31
Q14108	46.12
Q9Y3Y2	197.61
Q14103	1492.94
O43427	49.82
O43422	11.9
P16152	583.89
P16150	87.97
P56270	4.29
Q16851	340.79
P99999	834.69
Q16854	32.55
Q9UGP8	75.88
A5YKK6	48.46
O75366	2.27
O75367	1959.24
O75362	5.43
O75368	653.37
O75369	48.01
Q8TCT7	3.23
Q8TCT8	7.18
Q8TCT9	135.79
Q9UDT6	16.21
O14782	2.33
O14787	32.93
Q96F15	11.98
P67870	92.02
Q13347	137.19
Q13342	159.32
P23588	190.09
Q13349	1.65
Q8NDA8	3.45
Q8N335	48.88
P21980	5.4
P63146	12.05
Q6UB98	5.31
P20585	22.93
A6NC98	107.61
Q6ICL3	20.23
Q9H981	11.84
P61129	1.58
Q9ULJ3	1.76
Q96FZ2	20.57
Q9ULJ6	1.81
P49773	1073.35
P49770	37.46
O95639	41.38
O15523	71.31
O95630	26.04
Q8IWI9	2.52
O95159	6.12
Q9BZ29	2.65
A0MZ66	32.04
Q9BZ23	16.64
P06703	184.47
P06702	3797.43
Q9BUE6	29.43
P37235	205.73
P30511	101.49
Q9NW68	13.27
Q9NW64	66.74
P30519	167.93
Q8NCD3	2.5
Q96H79	6.33
Q96GX9	76.92
O95249	14.58
O95248	28.05
P37837	1489.59
Q86V21	2.78
P36954	14.37
O95243	78.97
Q9HB14	4.6
Q08623	74.37
Q08999	14.63
Q9HB19	128.05
P48426	185.07
Q9Y2Z9	20.51
Q01813	114.57
Q9Y2Z2	7.83
Q9Y2Z0	132.24
Q9Y2Z4	54.91
Q93009	300.86
Q93008	72.82
Q08ER8	3.05
P42768	410.11
Q9BVM4	72.24
P09493	293.44
P09496	61.65
P09497	24.85
Q9NVC6	14.31
Q9NVC3	4.18
Q9BT43	8.24
Q9BT40	8.17
P07477	15.71
Q96AB6	6.02
Q9UGM6	67.56
Q96AB3	149.46
P00846	151.34
Q86UR5	1.1
Q8IVV2	0.94
P16989	187.37
Q9C0E2	36.88
Q9Y4P8	29.56
Q9BXP2	10.85
Q9Y4P3	20.95
Q9Y4P1	28.26
Q9BXP5	300.55
Q6ULP2	51.04
Q92604	19.37
Q92600	86.86
P81605	55.47
Q92608	299.28
Q92609	124.25
O60774	3.4
O75558	44.0
Q9BZJ0	54.01
P18124	678.24
O75884	59.62
P23219	39.49
O75880	61.71
Q9BSJ8	434.78
Q99986	183.53
Q9BSJ2	6.1
Q9BSJ5	3.1
Q9NQA3	26.09
P17858	547.29
Q6NTE8	22.11
Q147X3	5.31
O75081	2.93
Q99497	713.31
Q9NRG7	24.02
Q5TA45	27.75
Q9NRG0	14.18
P54886	62.14
Q13137	23.96
Q13136	6.15
Q9NRG9	31.52
P52739	11.69
Q2UY09	1.79
P52735	72.1
Q9Y4Z0	285.45
Q9UIS9	40.72
P61956	1036.46
O94806	2.08
O95400	166.28
O94804	301.44
O95402	3.19
Q14643	67.13
Q14644	17.44
Q6P4A8	108.85
Q99456	3.9
P11182	62.42
Q9H4G4	230.25
Q6PFW1	5.23
Q2TAZ0	3.92
Q6N021	0.93
P40938	92.61
P40939	550.54
P36915	72.93
P40937	81.3
Q02040	10.34
Q9NY74	2.02
Q9BWF3	46.58
P31943	915.5
Q2VPK5	7.44
P31946	1144.25
Q8N1F7	229.88
Q8N1F8	30.94
P31949	515.41
P31948	606.25
P60604	11.24
P61604	820.72
Q96MF7	74.7
Q14919	214.72
P60953	991.3
Q9BQ49	24.17
Q9BQ48	61.58
P19532	3.39
Q9UEF7	1.8
Q5FWF5	2.2
Q5FWF4	1.69
Q9UPQ3	2.21
Q9UPQ9	3.23
P09936	8.41
Q9H0C8	97.26
P47224	75.39
Q9NS93	3.25
Q9BPX3	1.82
O43687	18.2
Q9BPX6	3.84
Q9BPX5	234.01
Q5TEJ8	52.13
Q9C086	21.6
Q9NQZ5	9.68
O75828	81.16
Q7Z3D6	131.91
O75531	497.83
Q7L513	64.32
Q8IWL3	22.83
P38159	867.5
O75821	234.37
P51617	13.63
Q9H6E5	8.89
O00429	122.32
Q9H6E4	7.86
O75822	93.33
Q99683	12.15
Q96IZ7	5.39
Q15208	65.46
Q06124	73.17
Q8NEQ5	12.36
P13765	345.25
P13762	34.84
Q6P1Q9	4.8
Q6Y1H2	44.13
Q9NRX4	45.25
Q9NRX5	8.26
P78362	37.68
P78364	1.98
Q9NRX1	119.56
Q9NRX2	72.85
Q5SRD1	29.76
P05120	13.43
Q15349	2.51
Q9UL54	4.53
O95182	432.24
O95183	16.29
O00461	17.84
Q9P2A4	26.73
O00463	9.72
P55916	6.1
Q15345	7.06
Q9BRR6	50.15
P45880	548.62
Q9BRR8	4.04
Q9BRR9	107.76
P08603	1.5
Q8N201	13.67
Q96SL4	19.88
Q8IWZ8	25.91
Q6ZU80	1.63
O95989	150.03
P06733	4091.77
P18583	71.18
O95980	1.96
O95983	44.47
Q9H1C0	10.09
P43304	77.42
O15347	127.12
P43307	58.26
Q8N9N2	9.17
Q8N9N5	29.55
Q99848	167.63
Q8N9N8	109.51
Q99666	2.1
P18054	2.76
P62736	1683.77
Q9UH62	29.46
Q9UH65	719.73
P15531	486.68
Q96P70	46.78
Q14344	175.26
Q9BTD8	24.83
O75964	1113.75
P68400	212.61
P68402	163.21
Q96RE7	36.44
Q15833	128.73
P02686	18.9
P53611	16.95
Q9UET6	5.78
P53618	327.17
P10114	40.49
Q8TEX9	43.94
P49327	33.58
P49321	362.29
P04920	15.23
Q9UGV2	75.58
P07602	71.81
Q16875	14.0
O75340	286.25
Q5VTB9	9.97
O75347	681.72
O75348	409.48
Q05655	145.38
P25685	170.02
P25686	23.46
Q13153	17.2
P42166	505.8
Q9UDR5	2.04
P20839	11.3
P82909	291.16
Q96DB5	46.62
Q9ULZ2	36.51
Q8NFH3	19.8
Q13362	3.42
Q13363	109.74
Q86YS7	54.79
Q86YS6	44.7
Q8IXS8	3.56
P67812	192.21
Q9Y5Q9	20.6
Q9Y5Q8	38.53
Q9BSQ5	29.91
Q96KK5	120.04
Q16254	4.75
O95613	9.38
Q9ULH1	18.29
O95619	47.24
O15504	4.65
P48059	39.21
Q9BZ01	30.15
Q8TEU7	22.1
Q96EL3	86.17
Q96EL2	10.97
P55769	603.56
Q13751	1.61
P51449	3.59
Q9BUK6	3.37
Q9NW08	8.16
Q9NUA8	9.06
P84022	17.36
Q96GZ6	7.62
P31150	371.25
P83881	385.74
P31153	200.72
P48444	258.95
Q86V48	1.73
P48449	22.54
Q8WWP7	297.48
Q9Y2D5	152.09
Q9Y2D4	6.64
Q9Y2D0	5.73
Q9Y2D2	5.8
Q11201	5.34
P29218	200.44
Q5UCC4	7.63
Q01831	70.9
Q7L099	11.82
P62942	174.59
Q9BVK2	13.89
Q9BVK6	244.78
P56589	9.9
Q92990	21.41
Q92993	10.69
Q9Y388	5.59
O14593	7.42
Q8NBX0	44.25
Q70EL1	10.02
Q9NVA4	4.16
Q8TBQ9	103.55
Q9NVA1	36.18
Q5SVS4	6.43
P57721	105.74
Q8IYT2	2.37
Q9BXR0	23.68
Q9H8Y5	7.73
Q9H8Y8	53.11
Q86UT6	1.94
Q5T0F9	44.29
Q9C0G0	3.37
Q9C0G6	3.51
Q9P1F3	184.32
P28039	3.2
Q5SW96	18.47
Q8IX04	7.98
O60711	115.57
Q9Y6H1	67.25
Q00013	3.99
P78559	0.68
O60716	1.93
Q7Z6P3	18.81
Q96A26	192.51
P01111	49.14
P01116	28.9
P54577	370.44
Q13114	6.47
P68363	511.73
P54578	405.63
Q8NFD5	32.7
Q8N543	16.5
P61970	259.41
Q7RTX8	12.59
P61978	1956.54
P52756	40.76
Q96LJ7	43.07
O94822	9.36
Q9H4E7	287.95
O94826	222.71
O94829	1.93
P48200	7.95
Q6N043	3.82
Q9UDW1	228.41
P52292	3.61
Q9NWB6	18.85
Q16401	167.08
Q9UHI6	15.83
Q14667	0.82
P62917	536.06
P61626	1072.48
Q9H910	72.8
C9J798	2.31
Q6WKZ4	30.42
Q9Y484	10.47
Q12797	14.58
P22557	3.23
Q12792	15.54
O94776	216.93
P09913	19.1
P09917	369.24
O00423	2.32
P09914	7.54
P62191	263.02
P62195	260.67
Q6ZNE5	7.55
Q9UPW0	6.05
Q9UPW5	3.01
Q9NXD2	16.55
Q9NQX4	2.06
Q9NQX3	2.62
Q9NQX0	3.24
P51580	44.43
Q9BX70	3.73
A6NHG4	146.99
P30499	162.99
Q9UQM7	34.72
P61088	925.29
P61086	214.18
P61081	149.75
P85037	24.89
Q7Z3J2	41.9
O75683	20.14
Q9Y6W5	96.09
Q9Y6W3	24.77
Q96IX5	484.64
A6NEC2	27.18
Q6UX04	62.0
Q6UX06	3.64
Q6UX07	5.11
P17010	9.22
O00193	277.07
Q8N5Y2	17.44
O00194	8.48
Q9H0A0	164.07
O75962	12.03
Q9H0A8	38.35
P01850	10.49
Q12899	33.56
Q12893	5.46
Q07890	1.36
Q12894	11.42
Q96I36	31.61
P05109	4024.8
Q15326	23.52
O00330	15.42
O00444	1.91
P05106	83.89
P05107	561.12
O95168	233.22
O95169	220.48
O95166	14.99
O95167	134.92
O95164	31.72
Q9NTJ3	2.84
Q13948	5.39
O95163	27.77
Q9BRP1	5.29
Q9BRP4	49.46
Q9BRP8	396.02
Q969Y2	24.05
O75923	13.19
P02656	38.45
P15884	11.7
Q8N228	4.63
Q96EW2	7.56
Q96QC0	12.64
Q9H1E3	259.9
Q9H1E5	101.78
P53985	11.6
Q9Y241	61.71
Q9Y243	7.48
Q99829	176.65
Q99828	134.6
P22314	996.8
P27797	1763.99
Q8N2Y8	1.29
Q14320	77.77
Q7Z5W3	50.28
O43805	15.35
O43809	389.83
Q15811	1.07
Q15813	7.03
Q15814	15.95
Q6IN84	5.4
Q8N488	42.03
Q15818	4.43
Q15819	790.6
O43752	50.06
Q8WVQ1	9.31
S4R325	17.75
Q7KZN9	40.8
P53367	154.97
P53365	22.05
Q14498	302.19
Q14493	13.34
Q8N4C8	5.57
Q8N4C6	12.01
Q8N4C7	6.08
Q6UWF3	12.56
P0DJ07	22.89
Q96JY6	94.69
Q05639	4.13
Q6P2E9	66.04
Q6ZSZ5	145.19
Q96BN8	36.28
P82921	58.27
P20810	722.1
P63104	2263.65
Q9Y5S9	356.69
Q13303	86.52
Q9Y5S2	1.07
Q9Y5S1	12.13
Q86Y56	13.39
Q9ULV4	219.43
Q9ULV3	10.43
P61165	22.98
Q96KM6	12.87
P61163	127.31
Q9H9P8	12.44
Q9BZ67	8.15
Q9HCD5	66.86
Q8IWE5	3.7
Q6Y2X3	2.66
P55039	56.33
P55036	220.24
Q6NXE6	15.42
Q5T160	9.56
Q9BUI4	20.65
P62277	642.12
P62273	156.25
P37275	3.36
Q03701	41.39
Q8WWN9	12.78
P45984	8.67
P45985	75.38
P45983	12.96
Q9HB58	178.32
Q8TDM0	18.34
Q9Y2F5	0.84
P09104	88.28
Q8NBZ0	39.4
P56211	287.85
Q9BVI0	9.04
P21796	1057.75
Q9BVI4	49.96
Q9NVG8	44.82
O14578	0.9
O14579	114.97
P49841	17.86
P49840	28.65
Q9NPR9	17.21
Q687X5	4.01
P58546	841.41
P49848	45.94
Q86UV5	35.06
Q9NVA2	33.79
Q32Q12	102.28
Q9NQC3	56.21
Q9NQC1	66.8
Q9H8W4	202.66
Q9H8W3	15.44
Q10570	47.99
Q9UQR1	21.11
Q86VU5	21.73
Q9Y508	16.24
O60739	406.76
A6NHA9	6.04
Q9Y6J6	14.42
Q9NPY3	6.09
P78536	8.97
P17812	46.93
O95396	4.2
O95391	24.41
Q86WA6	25.65
Q13177	327.13
Q8IZX4	2.01
Q9NRC8	4.65
Q8TA86	7.99
Q9P287	115.99
Q8N568	2.5
Q9P283	1.66
Q9P281	0.75
Q8N567	6.85
Q9P289	152.47
O94842	3.15
Q6P4E1	17.08
P32189	6.81
Q99490	8.37
Q02556	90.61
Q8TD57	0.89
Q99496	55.41
Q8TD55	109.51
Q6N069	2.06
Q86TX2	99.19
Q8N6L1	47.43
Q6RFH5	24.58
Q02083	67.7
Q02080	5.4
Q8N1B4	38.07
O43567	4.87
P07237	957.13
P07942	1.05
P16070	253.34
P07948	224.42
P53420	1.27
Q14686	0.95
Q14687	3.06
Q7L1I2	2.69
Q14683	333.59
P16383	39.68
Q8NB90	6.39
P11766	320.41
Q8N3X1	37.85
O14802	8.04
Q9UPU5	56.0
Q9UPU7	3.8
Q96B26	62.51
P50219	5.14
P36405	40.8
P36404	49.97
Q9BVC4	11.63
O60930	13.01
O60934	66.31
O60939	8.58
P47914	235.08
Q9NXF1	27.64
Q9UBQ7	491.39
Q9UBQ5	191.5
Q9UBQ0	213.68
P49619	4.68
Q15797	3.99
Q15796	31.91
Q96CT7	177.68
P12236	247.6
P12235	107.28
Q9NZT2	216.27
P61201	206.24
P13727	74.5
Q9UJK0	6.21
Q6UX65	35.05
Q8NDX6	47.73
Q8NDX5	13.76
Q8IUF8	27.66
Q8NDX1	75.39
P05161	93.32
P05166	21.5
P05164	1335.98
P05165	39.09
Q07617	2.01
Q9UL15	48.9
Q9P2E3	3.79
Q96I13	4.41
Q96I15	108.34
Q96CG3	29.19
Q9P2E9	123.16
Q15306	40.3
Q9UL18	68.68
Q15269	22.4
Q6ZT07	5.83
O95140	33.81
Q9NP64	15.14
Q9BRV8	8.8
P38117	809.32
Q9NP61	18.33
Q9H6Y2	4.96
Q9H6Y5	5.92
Q6PJT7	35.25
Q7LBR1	113.25
C9JRZ8	15.86
Q96NC0	61.86
Q96EU6	7.0
Q9UKF6	53.86
Q9UKF2	2.35
P60002	110.26
O15389	13.75
O15382	212.01
O15381	24.15
P78324	37.96
Q9Y266	305.54
Q9Y265	348.95
Q9Y263	67.03
Q9Y262	262.67
Q6NW29	9.82
Q01518	1708.6
Q13029	11.04
Q13496	23.87
P09661	528.68
P09669	427.72
P09668	106.02
P50542	8.83
Q86VM9	92.19
P21589	88.9
P02671	24.17
O43823	109.66
P08648	3.64
O43826	4.5
O43829	8.19
P02679	40.51
Q5THJ4	0.85
Q969J3	18.78
O43772	171.01
Q5TC84	16.28
O43776	341.44
Q92785	85.06
Q92784	4.84
P10153	68.21
P10155	196.03
Q92783	31.73
P46087	130.84
P46736	121.47
P46734	222.89
Q8NEC7	2.94
Q9Y3C4	53.06
P35579	3006.4
Q9Y3C1	98.48
Q9Y3C0	39.42
P35573	66.86
Q71SY5	8.01
Q9Y3C8	107.23
Q99807	128.92
Q99805	44.06
Q8TET4	8.0
P42345	17.33
Q96JG6	41.29
Q96JG9	0.51
Q96JG8	2.56
Q6YHU6	4.75
O75306	146.92
Q6UWD8	94.22
Q8WUR7	63.8
Q9H078	21.2
Q13098	123.98
Q9BQS8	6.25
Q13094	97.07
Q5JPI3	16.67
Q02962	28.0
Q07864	0.8
Q13325	70.99
P23526	594.7
Q8IXW5	9.01
P23528	3552.37
Q96DN5	1.68
Q9Y5U9	162.85
Q00839	1782.86
Q6P1L8	130.83
Q9Y5U2	42.55
O14545	12.87
P19388	110.48
O43488	247.71
P19387	106.18
Q9ULT8	14.42
Q9ULT6	2.07
Q9ULT0	6.51
Q86Y46	3.54
O15541	21.52
Q8IZE3	7.55
P36873	62.06
P36871	390.49
Q9NU22	9.56
Q8NC51	830.63
O95785	10.51
Q92974	216.99
Q63HQ0	12.17
Q92973	234.43
Q9H2P0	50.66
Q96EH3	31.89
P40259	408.53
Q8WXF1	166.94
Q13951	145.52
Q9NR99	2.01
P22695	719.3
P22694	87.32
Q9NR97	6.97
Q9NR96	7.2
Q16740	96.79
P62258	936.92
P15056	7.41
P62253	64.17
Q9HB71	278.63
Q6P2C8	5.89
O14639	21.42
P55010	144.12
Q9BVW5	6.04
Q5VUY2	4.53
Q9NPI6	6.59
P56277	80.8
P09471	5.21
P56279	279.03
Q9NVE7	41.25
Q9Y320	18.39
O14556	9.38
A5PKW4	1.9
Q9UP83	13.5
P49863	21.67
Q9Y696	369.85
Q9Y697	37.41
Q9Y692	40.0
P35749	0.92
Q86UX7	736.23
Q86UX2	2.0
Q5T0B9	9.11
Q9C0C2	2.3
Q07912	1.82
Q9C0C9	85.65
P29966	423.19
Q96QG7	9.86
O00764	166.44
P39656	217.69
Q86VZ1	25.67
Q08ET2	14.24
Q9BZL4	73.75
Q9BZL6	97.05
Q9BZL1	268.54
Q08209	263.09
O75533	459.29
P0C7P2	17.77
O75530	54.04
P0C7P4	230.22
Q9H665	5.51
O75534	53.99
Q00059	588.02
Q8TAU3	3.17
Q9Y6L7	1.84
Q9C0B0	16.58
Q58F21	1.93
O95801	23.35
Q96AD5	15.09
Q13158	35.85
Q6ZN55	12.66
Q8NFH5	66.0
Q8NFH4	51.16
Q13151	683.31
Q9NRA8	9.64
Q13155	94.44
Q6ZS81	171.71
P52790	103.25
Q9UII2	170.34
Q96Q11	58.27
P62899	432.8
Q96Q15	6.1
Q9UK61	24.28
Q92844	21.82
Q92845	13.73
Q92841	787.6
Q8IW19	3.66
P98160	0.45
P22102	183.94
P04040	729.78
Q14242	24.15
P04049	2.86
Q9H446	29.87
O75794	21.33
O75792	43.74
O75791	44.03
Q14517	0.41
Q9H1Z4	11.66
Q14511	11.23
Q02750	264.19
Q9ULL1	1.34
P49756	139.54
Q53T59	53.65
P49759	10.93
Q2VPA4	6.65
Q6PID6	21.28
Q5JS54	30.29
Q9UNQ2	47.37
P09467	124.6
P60660	1072.23
P46940	1074.96
Q6PGP7	29.73
O94864	9.03
Q9H4I3	9.86
Q9H4I2	1.99
Q9H4I0	3.3
O94868	44.57
Q9H4I9	18.24
P06127	68.81
P19878	178.06
O14828	223.44
O14827	1.48
P50238	171.17
Q5VZE5	9.98
O60315	1.53
Q13200	301.94
O60313	162.62
O60318	12.42
P30101	1322.87
Q9UBS8	11.63
Q9UBS0	3.9
Q9UBS4	154.51
P63313	622.72
Q9H2V7	11.05
O00159	27.44
O00154	4.99
P61225	71.23
P61224	480.93
O00151	682.56
P61221	145.69
Q06187	281.74
Q13636	38.7
Q13637	50.08
Q8WTW3	13.4
Q8WTW4	14.34
Q13630	197.65
Q8IUD2	1.63
O00487	108.62
Q5SRN2	3.39
O00483	534.44
O00481	32.56
P05141	616.08
O00488	54.91
P55209	285.11
Q9P2G3	14.75
Q9P2G1	5.13
P55201	7.59
Q504U3	46.76
Q86WG5	2.0
Q9BRT6	109.64
Q7Z4S6	1.11
Q9BRT2	154.3
Q9BRT3	33.65
O15014	1.38
O15015	1.04
P04233	1612.41
Q9NP87	7.61
Q567U6	136.83
Q9NP80	16.51
Q9NP81	103.82
Q3ZAQ7	147.02
Q96NA8	3.73
Q9UKD1	22.19
Q9UKD2	113.56
Q96ES7	25.11
Q9BU23	10.47
Q6IA86	27.07
Q12857	3.73
Q12851	27.35
Q8N2U9	54.77
Q8N2U0	195.47
P04234	33.07
Q08J23	166.5
P35080	55.47
Q5JNZ5	401.2
P68133	29.77
Q5JTZ9	19.44
O43847	23.79
Q66K14	46.03
Q8WVM7	134.36
Q9UER7	117.95
Q8WVM8	167.2
O75494	93.32
P35222	4.88
P35221	2.09
P35558	18.09
P10176	55.06
Q9Y530	220.6
O60678	3.48
Q9Y3A6	112.33
O60674	3.19
Q9Y3A4	70.98
Q9Y3A3	136.26
O60673	0.59
O60671	19.67
O15427	21.09
Q3KQU3	26.98
Q6UWZ7	58.13
Q7L5N1	132.71
Q9GZR2	17.88
O75676	53.62
Q8IVM0	93.2
P52630	49.01
P23443	21.17
Q9BQQ3	8.98
Q15853	39.52
O43719	211.44
P50135	6.27
Q9NPB8	8.23
Q14728	25.9
Q6GMV2	48.48
Q9Y5W3	5.58
Q9Y5W9	13.71
P35226	33.88
Q99759	2.94
Q99757	45.4
P48380	5.0
Q99755	9.99
P48382	159.71
P49427	15.61
Q9ULR0	18.97
Q99547	32.9
Q8IWA0	17.66
Q8IWA4	19.85
Q8IWA5	59.9
Q9H9T3	30.16
Q8IZC6	4.47
A6NFY4	4.29
P03951	2.98
Q8WXD9	1.39
P33316	164.96
P04843	508.18
P16220	17.06
P22676	6.62
P22670	19.92
Q53H47	16.33
P04844	213.82
Q96KA5	16.77
Q9Y3A5	79.79
Q6SZW1	7.88
Q7Z569	12.4
Q0VF96	1.4
P23193	509.81
Q9Y3A2	20.56
Q9Y2B1	12.24
Q9NWU5	70.61
Q9NWU2	70.2
P47895	3.72
P47897	106.94
Q9Y2B9	26.38
Q9HB90	188.72
Q5JVF3	49.86
O14618	57.48
O14617	133.06
Q01892	7.24
Q9UNL4	21.94
P55072	1165.65
Q9UNL2	138.57
P56524	3.51
P51970	41.51
O14530	23.59
Q6V1X1	4.04
Q9NVK5	63.82
Q9BYD6	67.84
Q9BYD3	17.93
Q9BYD2	41.4
Q9BYD1	151.26
P17174	108.28
Q9BXX3	1.31
Q9Y4X4	23.58
Q9H8S9	216.31
P14854	204.72
P14859	84.58
Q9NQG6	4.07
Q5SW79	39.28
Q9NQG5	192.26
Q04917	177.46
O00743	118.74
Q93084	384.44
Q6U841	1.66
Q9Y6N6	1.22
P02730	4.1
P08236	19.54
P08238	1729.09
Q9Y547	102.43
Q1KMD3	620.29
O95825	43.14
Q96AZ6	338.14
Q15119	18.08
O95822	49.32
Q3V6T2	1.93
O15226	26.86
Q5VWQ0	16.22
Q9H0V1	2.62
O15229	82.25
O15228	5.41
Q5EBM0	4.22
Q9H0V9	10.51
Q05D60	5.88
Q7RTR2	3.64
Q5K4L6	7.96
Q9UK41	65.65
Q9UK45	35.97
Q92688	927.74
Q6P9B9	19.32
Q92685	12.49
Q92686	109.56
Q9H3J6	22.16
O75808	3.56
Q8IW35	4.3
P26368	241.8
P04066	7.77
P26367	4.47
Q9H930	21.8
Q9H936	54.48
Q9NWH9	103.3
P19021	1.93
P07902	67.37
P07900	2484.33
O43524	2.93
P49247	169.34
Q9UNS1	3.01
A7MBM2	2.75
O94888	114.1
O94886	31.71
O94880	16.68
Q15393	381.67
Q6VEQ5	49.77
Q6W2J9	2.17
Q96T51	172.53
P58005	3.64
P58004	3.83
Q9UPY8	13.05
O75116	14.26
O75113	8.31
Q9UPY3	4.77
Q8NEZ2	4.71
Q8NEZ4	0.77
Q8NEZ5	18.75
P33121	37.48
O60331	11.39
A6NE01	1.59
Q9UBU8	110.68
Q9UBU9	83.25
P61026	249.93
P61020	237.64
Q06210	58.25
P13501	20.89
Q08AM6	101.99
Q14CX7	70.61
O00170	277.2
P12270	270.09
P12277	4.89
O00178	126.71
Q96DU7	2.77
P55199	9.17
Q96DU3	39.11
Q15287	128.09
Q15286	172.18
P55196	6.05
P61244	79.92
P61247	1226.35
Q13618	168.93
Q13619	123.75
Q13610	33.64
Q13613	33.53
Q13615	21.86
Q13616	79.11
Q13617	81.56
Q9P2Y5	18.69
Q96T83	15.62
P50613	21.38
Q9BW60	12.78
Q96I59	38.58
O95104	66.31
A8MXV4	24.7
P31785	4.93
Q9HC36	8.88
P51692	46.44
Q5T440	92.97
Q9H6U8	2.99
O15031	4.07
Q9H6U6	10.31
Q9BRZ2	25.61
Q7Z4Q2	11.19
Q9HC38	431.78
O15037	5.6
Q9NSD7	4.08
P37173	3.23
Q9NSD9	230.38
P38405	4.71
Q9P031	29.11
Q6PJP8	1.79
Q32P51	542.59
Q9P032	61.77
Q7L622	2.59
Q96QE5	5.01
Q96ST3	122.17
Q96ST2	54.46
Q9Y223	7.9
Q9Y221	71.38
Q12874	361.65
Q9Y227	2.97
Q12872	21.9
Q9Y224	371.69
P46977	150.28
Q9HBI1	30.01
Q9HBI0	94.63
Q00688	472.39
P60228	307.66
Q8N2W9	7.39
P09622	277.3
O43865	109.72
P46776	529.16
P46777	655.78
P46778	449.56
P46779	344.49
O75477	53.6
O75475	701.26
Q8NBM8	15.27
Q6P4R8	10.51
P28715	23.51
Q8N9F7	5.77
Q96JC1	59.43
Q8WV44	11.65
Q9Y4C4	1.78
P08575	1368.79
P08572	1.25
P08571	83.3
Q13057	56.91
P23469	7.76
P01906	186.08
Q9Y4C8	17.5
P08579	245.61
P20273	229.78
P46100	36.92
Q8IVC4	17.29
Q6UB35	3.94
Q8N392	33.39
Q8N423	22.46
Q9Y5Y5	37.81
Q9Y5Y6	17.61
Q9Y5Y2	28.95
Q99733	224.13
Q99735	25.11
Q76I76	5.28
Q8IZA3	5.83
O95696	13.97
Q7Z7K6	104.52
Q9NZ52	7.99
Q9HCN8	61.89
P48039	5.3
P22732	7.59
Q6Q759	0.83
P42336	1.68
Q16563	343.31
Q5TGY1	9.22
Q5TGY3	1.24
Q86SQ7	5.05
Q86SQ0	1.47
Q9NW81	7.13
Q6DKI1	43.68
Q9NW82	19.95
Q5H8C1	0.85
Q9NUY8	23.98
O14983	17.03
O14981	14.12
O14980	351.74
Q96KC8	6.53
P56962	18.74
Q9ULP9	13.26
Q16706	15.91
Q9BY77	140.34
Q5VT06	5.35
Q9Y2L9	30.96
Q9NWW5	34.85
Q9Y2L5	23.33
P07108	540.12
P25440	40.28
Q9Y2L1	114.85
Q8N8A6	25.92
O14672	74.39
Q8N8A2	186.15
P50579	145.96
Q96K62	3.86
Q9UNN5	25.39
P50570	287.24
Q9BTT0	686.63
Q9NVI7	152.03
Q5S007	13.86
Q9NQ29	9.54
Q9BVS4	13.19
O14519	33.75
O14513	1.0
P17152	77.49
Q15545	67.38
Q15542	21.63
Q6P587	58.79
Q03014	13.9
Q6P582	12.86
Q8WWH5	16.8
P23921	4.63
Q6ZNR8	9.38
Q6P589	131.96
Q07954	0.41
Q07955	752.04
Q5T0N5	2.98
Q4KMP7	19.14
Q9UBH6	5.12
Q9Y2Q3	695.59
Q9Y2Q0	28.59
Q6R327	11.94
Q9H2F5	4.46
Q4KWH8	1.1
Q13868	89.09
Q13867	91.3
P57105	65.5
P52429	3.26
P17568	152.65
Q15139	4.1
Q96AX2	8.41
Q96AX1	52.46
Q8TDX7	42.27
Q86W56	9.39
P43246	29.88
P43243	756.35
Q86W50	45.91
C9JLR9	2.85
Q9BV79	25.78
Q8TF50	2.83
Q9UK22	87.65
Q9UK23	18.61
P83111	158.14
Q7RTP0	6.04
Q7RTP6	31.63
Q9H3H5	4.53
Q330K2	21.86
Q9H3H9	16.14
Q969F9	12.84
Q969F1	17.35
Q92800	2.45
Q4G0J3	112.28
Q92804	229.48
B2RPK0	516.51
Q02539	706.91
Q96BZ8	34.17
Q96EY4	52.46
Q8WYA6	182.49
Q14554	17.51
Q86UA1	63.85
Q14558	47.67
Q6ZUM4	67.86
Q86TB9	14.41
P60510	136.8
Q96EY1	51.68
Q9H488	42.72
Q9NRM2	3.95
Q6DKK2	4.91
Q96PD6	5.38
P41240	399.17
Q96CW6	23.83
O96008	66.08
P54108	52.86
O96000	281.19
Q9UHA3	10.63
Q9UHA4	260.38
O96005	52.1
P62847	527.62
P0C1Z6	29.51
Q5QP82	3.44
Q9H4M9	736.5
Q9P258	327.39
Q9H4M7	2.44
O14867	7.64
O14862	10.71
P78410	11.46
Q13263	855.35
Q17R31	20.64
Q13268	90.64
O75131	131.86
Q16762	43.69
Q9Y5T5	11.15
Q02790	294.02
Q8TEM1	139.37
P61006	229.21
Q9UBW8	55.13
Q9UBW5	202.33
A8MSI8	22.26
Q9UBW7	6.73
P61009	215.71
Q3T8J9	5.04
Q96BY7	4.48
Q96BY6	66.89
Q75WM6	7.42
O15446	151.79
P54136	177.16
P54132	3.94
Q8NB78	2.27
P14550	370.83
P17096	2519.72
P17098	3.21
Q13670	7.31
A4D1U4	28.39
A7E2Y1	0.94
Q9Y2B0	191.96
P30414	5.04
P47972	8.87
P30419	187.33
Q9NS37	5.62
Q504Q3	6.17
Q96CM3	4.94
O00534	31.36
Q96CM8	67.38
Q9Y2B4	6.13
P48507	33.95
P48506	43.01
O15050	11.79
Q9H6W3	29.35
P00505	544.49
Q03468	7.43
O15055	1.53
Q06945	4.41
Q9BRX8	8.1
Q9NZN3	215.89
Q7Z4W1	418.71
Q9BRX2	4.81
Q86WC4	11.2
Q9NZN8	24.45
Q15293	32.19
Q8N5D0	5.5
P37198	129.29
P12259	0.83
Q2TBE0	10.05
Q9P013	62.7
Q9P016	211.11
Q9P015	68.68
P56192	187.78
Q9P1Y6	15.18
Q9BU61	30.76
P07738	48.68
P07737	7803.39
P04271	38.95
P09601	101.72
P15170	74.85
Q9NTX5	229.1
P50552	502.91
Q8N4H0	4.63
Q5W0B1	2.57
P53814	2.11
P46020	3.04
P53816	11.63
P51570	54.3
Q9Y3E1	46.12
P35269	78.82
Q9Y3E7	41.61
Q8TE59	1.56
Q9Y3E5	97.84
P14317	1259.33
P14316	31.81
P14314	737.36
Q7Z6M4	14.24
P00387	560.72
Q92499	359.43
Q8WUX9	209.02
Q9H019	6.53
Q9Y4A5	23.36
Q9BXG8	4.22
P08559	265.06
Q13075	1.31
Q5SNV9	6.42
P20290	461.21
P20292	195.36
Q7KZF4	554.38
Q9P1U1	30.68
O94925	156.22
O94927	20.38
O94921	7.87
Q14761	393.76
Q14764	163.85
Q14766	3.35
Q99717	3.99
Q99714	914.5
Q04637	118.9
Q8N668	78.82
P26447	1547.69
P26440	40.54
Q86Y26	12.14
O95793	6.6
P55211	13.53
Q9NZ32	31.54
Q16543	290.92
Q16540	46.94
Q9H3S7	34.98
Q9H3S4	45.92
P26196	260.74
P11441	129.11
Q92963	16.6
Q9BUQ8	205.2
O43314	13.37
O43312	78.64
Q9NUW8	24.4
P54652	545.32
Q5H8A4	1.93
O43318	18.63
Q53H82	50.88
Q96FV2	40.3
Q96FV9	148.91
Q9BRU9	14.69
Q9BY50	48.43
Q9BW71	30.31
Q9BW72	54.29
O14653	25.27
Q9NWQ8	44.41
Q6IAN0	5.94
O14657	5.49
O14656	38.63
P62633	32.16
P49593	100.49
P49591	312.39
P49590	73.36
Q9P0R6	26.67
Q96MW5	3.05
Q96MW1	74.38
Q7L1V2	24.66
Q9UNH7	152.08
Q5T035	70.51
Q8NBR6	9.33
P30622	29.58
P30626	356.16
Q15560	6.21
Q15569	3.08
Q8WWF6	25.2
Q9C0I1	16.95
O00257	10.2
O00255	61.35
O00303	172.19
Q7Z3U7	4.38
Q9BVQ7	2.59
Q9H2H8	126.42
Q9H2H9	3.86
P02771	6.08
P02776	19.24
P02775	315.37
P52565	1465.53
Q15155	45.05
Q15154	31.96
O95319	107.62
Q9UJ41	78.87
O95861	274.94
P57081	4.59
Q6ZVK8	82.28
O15269	43.52
Q9H0R3	35.93
P35908	994.91
O15265	2.19
O15264	84.27
Q9H0R4	263.23
Q9H0R5	3.06
Q7RTV0	84.1
Q7LGA3	4.98
A5A3E0	63.57
P39019	1000.4
Q9UK08	26.61
Q96CP2	114.61
Q8N6H7	125.07
Q5XX13	1.74
Q9H3N1	196.9
P56385	263.02
Q92820	34.81
Q6ZW13	18.68
Q9Y6B7	2.51
Q9Y6B6	27.93
Q9BZF1	86.6
O75843	88.62
Q9Y584	31.25
Q9Y580	20.52
O75844	98.97
Q6VN20	9.31
Q8N878	3.34
P09012	326.86
Q5HYJ3	21.56
Q9Y230	391.55
Q5VTR2	62.42
Q9H974	35.73
Q5J8M3	51.94
Q8WZ73	5.15
Q9HBH9	4.02
P00738	4.62
Q14571	23.71
Q9H1P3	15.12
Q14573	15.78
P42025	143.07
A1L0T0	9.22
Q9UHG3	55.26
P41223	61.37
P41227	165.6
P41226	74.72
P49207	141.27
P46926	217.15
Q92530	62.98
Q92538	27.29
Q9BQ61	419.14
Q6ZMQ8	1.44
P20336	8.35
P27105	92.06
Q70J99	50.77
P20338	8.55
P09417	129.45
P0CB38	4.99
Q96RT1	27.68
Q6PRD1	0.81
Q96RT7	1.04
Q05469	3.58
Q9NQC7	21.39
Q13247	152.85
O75150	58.75
O75153	8.54
O75152	128.75
Q13243	180.2
Q13242	163.38
P11279	190.61
Q15717	485.62
P62158	1908.34
Q9Y3S2	11.53
P10909	7.95
Q96BW9	17.43
Q96BW5	69.52
Q96BW1	12.35
Q8NB16	26.81
P08237	56.34
P18754	310.88
Q53TN4	6.59
Q9NYV4	8.9
Q9NYV6	2.82
Q9P035	96.69
Q9UJS0	11.25
O00139	67.85
P61289	176.79
Q8IXB1	13.75
Q8NC24	6.44
Q9H3U1	40.49
Q9BX95	46.74
P21266	15.71
P84103	777.19
P84101	211.68
Q460N5	31.89
Q96I99	390.29
P31749	37.47
Q96N66	47.45
Q96N67	1.72
Q6ZT89	12.48
P45844	2.76
Q5TAX3	5.63
P33527	14.59
A3KN83	12.17
Q49A88	1.96
Q9NZL4	52.86
P16435	76.18
Q9NZL9	222.26
Q01970	4.51
Q7Z460	12.31
Q96NK8	5.39
Q7L190	6.22
P06340	309.97
Q9HBM6	15.11
Q15118	50.85
P30291	5.83
P02545	236.41
P29083	59.07
Q12830	13.57
P29084	37.89
P40222	40.46
A5PLN9	4.48
O00399	20.11
O00398	16.14
P04259	3.47
Q9H7M9	67.69
Q9NTZ6	70.7
Q9Y2U5	14.96
P16885	486.82
Q9Y2U8	54.25
O60573	29.43
A6NDU8	43.44
Q9UMS4	340.31
P35244	184.53
O75431	77.12
P35240	2.99
P35241	30.43
O75438	59.95
O75439	42.22
P35249	84.13
P43034	210.27
Q9NVP1	254.57
Q8NBI2	99.67
O14908	17.36
O60610	317.38
O60613	58.64
P17931	127.66
Q99880	74.78
P01011	26.27
Q13011	611.7
Q8IYE0	1.85
Q13017	6.05
Q9H8H2	11.09
Q9H8H3	353.66
Q0VD83	216.15
Q8WUZ0	62.24
O75380	106.52
O75381	70.84
P52655	10.05
Q99081	2.86
P52657	83.75
Q8IVG5	14.7
Q5MNZ6	10.95
Q8TCZ2	29.82
Q8N465	3.7
Q5SNT6	1.52
Q5SNT2	8.67
Q8WVK2	55.32
P53384	60.42
Q66K74	119.01
Q9NPF4	189.02
Q9NPF5	82.69
Q9BSE5	22.16
O94906	189.29
O94905	60.66
O94903	199.41
O94901	13.9
Q8N684	116.25
Q8N680	7.28
P19474	30.81
P26640	283.7
P26641	570.35
Q8IWJ2	17.04
Q14746	17.55
P60709	18152.3
Q9NUU6	4.94
Q9NUU7	154.63
Q6FI13	977.02
Q96KG9	39.57
P49411	766.52
Q2TAK8	2.65
P49418	13.68
P49419	17.84
Q96FT9	8.87
Q7Z7G8	0.47
Q7Z7G1	8.42
Q9Y2H1	11.59
Q9Y2H0	38.64
Q9Y2H2	1.62
Q9NWS1	3.21
Q9Y2H6	1.58
Q9BY32	194.59
Q9NWS8	20.22
P25205	146.78
Q9P0P8	74.68
Q7L1T6	10.52
Q3LXA3	339.81
Q9P0P0	11.65
P25208	36.56
Q96MU7	29.56
Q6P6C2	28.29
Q9NVM9	18.21
Q9BYN8	17.24
Q9NVM6	96.25
Q9NQ66	1.51
J3QLJ4	2.17
P20929	0.54
Q6P9B6	4.09
O95747	147.44
P01834	772.86
Q96GN5	7.99
O95749	35.9
P21964	97.25
Q8NHW5	352.17
P05067	2.4
O00273	85.7
Q9UBL3	100.19
Q6UXN9	77.33
Q13823	14.97
P03886	40.96
Q13825	35.16
Q01804	18.52
Q5T011	7.73
Q9H2J4	113.34
A6H8Y1	0.71
O95336	636.26
Q9UQ13	32.16
Q15173	10.91
Q15172	44.56
Q9UJ68	63.88
Q9H0P7	9.96
Q9H0P0	98.97
Q0PNE2	7.0
Q12996	95.62
Q9NXS2	9.72
Q9Y618	1.52
P29475	1.3
Q9Y616	6.16
Q9Y617	5.16
Q9Y613	6.6
Q08752	25.59
Q01105	1389.41
Q9UIA9	154.92
P18669	1948.62
Q96D31	25.55
Q9UIA0	27.41
Q5U5X0	104.72
P00533	1.55
Q4G0N4	84.42
Q08289	2.84
Q969J2	3.39
O43924	47.91
Q9Y6D5	41.31
O43920	50.0
Q9Y6D6	64.96
Q9Y6D9	60.29
P08708	711.17
P29692	261.47
P78344	175.3
Q9BZD3	40.02
P0DI81	38.06
B3EWF7	5.93
Q04323	106.44
Q8NFP7	11.28
P35659	493.84
Q9H999	5.08
Q8NFP9	0.64
Q9H993	57.09
P27694	382.78
P27695	1508.2
P41208	116.28
Q86WJ1	30.99
Q86VX2	74.06
Q86VX9	10.07
P23368	66.95
Q9HAS0	28.06
Q9UEE9	43.48
O43707	1452.66
Q5SY16	18.41
O75170	77.54
O75175	43.33
O75179	0.76
Q5TBB1	148.45
P11215	265.78
P11216	261.1
Q15369	167.28
Q96GJ1	11.08
Q99698	6.32
Q15771	99.54
Q15776	3.17
Q6UW78	20.7
Q8WUA2	54.69
O00400	3.43
Q8WUA7	88.23
Q8WUA4	26.94
Q99523	2.27
O15400	363.9
Q8NB37	125.38
O15405	9.88
Q5F1R6	20.18
Q96RR1	2.7
Q6PL18	3.95
Q4VC05	73.18
Q9UJU2	4.72
Q13907	31.71
Q9UJU6	644.92
P50416	198.34
Q9Y5B0	25.98
Q8NDV3	2.9
Q9Y5B6	47.78
Q9Y5B9	292.33
Q9NX08	49.47
Q9NX05	8.65
P38606	262.71
Q9NX00	42.46
Q16881	105.94
P33897	20.13
Q7L7X3	5.39
Q03426	4.92
Q2PZI1	13.49
Q8WZA0	97.07
Q8WZA2	1.81
Q9HD26	8.26
P62424	925.16
Q9HD20	31.39
Q9H6S0	24.74
Q01955	1.29
Q9NZJ9	51.38
Q9NZJ6	10.16
Q9NZJ7	55.25
Q9NZJ4	0.4
P16455	231.35
Q86YZ3	22.17
P13164	89.65
Q5T4S7	43.27
Q9Y285	289.98
Q9Y286	4.08
P52815	78.19
P83436	7.25
Q9ULG1	9.44
Q96C19	547.09
Q5T200	9.55
Q9Y2W1	238.1
Q9Y2W2	113.27
Q8TDZ2	127.45
Q9Y2W6	10.09
Q96SZ5	42.08
Q96PY6	10.23
Q9P0M9	77.89
Q9P0M6	26.04
Q9Y3I1	14.27
Q9Y3I0	328.8
Q5VU43	2.36
O75410	49.91
Q9NVV0	19.25
Q9NVV4	22.07
Q5T2E6	10.6
Q96S15	6.14
Q6DN90	48.16
Q8N2M8	13.52
Q96S19	64.69
Q9BXW7	121.62
O95292	91.96
O95295	252.51
O95298	264.71
O95299	174.09
P01034	13.21
P08514	123.3
Q9Y4E5	6.87
Q9Y4E6	11.46
Q8TCD5	535.4
Q9Y4E1	62.02
Q9H501	21.12
Q9Y4E8	37.12
O75554	19.63
Q7Z6I6	149.56
Q8TE77	2.86
Q8TE73	0.39
Q6UB99	1.4
Q8N442	2.81
O43504	151.92
P46063	394.83
P46060	285.68
P42765	647.0
P42766	501.88
Q5T3I0	41.42
Q9NPH2	17.08
Q9NPH3	3.19
O94966	14.33
Q8TC12	147.41
Q8TC17	31.05
Q96JM7	4.72
Q6NXT1	12.84
Q96JM3	105.38
Q96JM2	0.73
Q9UI14	20.21
Q9UI10	72.5
Q9UI12	78.41
P24666	451.03
Q8WV28	124.04
Q8WV22	33.81
Q8IWY9	1.56
Q68CR7	2.13
O43684	325.71
Q68CR1	1.62
Q5JTJ3	14.78
Q3L8U1	1.28
Q14019	1269.33
Q5VVJ2	8.78
Q14012	15.14
Q14011	302.11
Q9NUS5	27.79
Q9HA65	43.03
Q9HA64	78.82
O14929	67.43
Q9GZS3	37.28
Q9GZS1	23.2
O43353	10.23
O14920	134.98
Q9ULZ3	318.38
Q96TA2	9.65
Q96FJ2	624.95
Q96FJ0	4.19
Q7Z7E8	18.09
O60234	409.83
O60231	22.74
Q6MZM0	3.17
O60238	26.16
O60239	8.28
Q9Y2J8	2.76
Q9Y2J2	3.46
P47813	291.56
Q9Y2J4	4.87
Q96MS0	1.41
Q6P3X3	23.75
Q9UHX1	275.3
Q15691	619.03
Q8TBC3	24.6
Q8TBC4	96.58
Q63HN8	79.03
Q15526	31.3
Q15527	7.04
P25325	25.16
Q15528	9.39
O95760	6.78
Q13596	402.68
Q13595	31.92
P13807	24.9
P13804	505.58
P01857	98.24
Q9BY11	4.09
Q8NHU6	1.69
Q9UBN7	23.82
Q96BN2	16.75
P18074	12.0
P55347	17.53
O00213	2.7
Q9NPA8	90.49
O00217	149.64
O00214	5.83
Q7Z3Y8	4.19
P59103	11.52
Q9NV31	85.94
Q9NQ48	36.19
O95352	18.73
O95359	0.67
Q9BV44	40.26
Q9UQ35	81.48
Q9NWU1	25.63
Q6EEV4	27.58
Q9BV68	5.86
Q9Y639	28.2
Q12979	23.52
P62837	87.28
Q9P243	1.5
P62834	417.57
Q9P246	12.42
Q01167	3.02
Q04446	98.53
P28324	4.45
Q9UIC8	10.87
Q56VL3	36.92
P09234	143.95
Q96CT2	2.92
P04350	408.17
Q969H8	188.73
Q9BZZ5	378.37
P00519	3.4
P51826	3.13
Q9NXW9	6.17
Q9Y6F8	3.45
Q9GZN1	4.55
O95977	15.04
Q9UKY7	404.56
Q96QR8	43.94
Q9GZN8	129.79
Q86TD4	2.07
P43487	340.15
Q07866	92.65
Q9NRW4	29.94
Q9NRW7	48.09
Q9Y6N5	547.1
Q9NRW3	265.09
Q6P1L5	10.1
P35637	617.07
P32942	318.9
P42574	19.8
P42575	28.82
Q9H7Z6	35.84
Q92928	9.48
O75995	436.42
Q9H9H4	66.65
Q92572	134.42
Q92576	26.37
Q92574	9.65
Q92575	69.82
P42681	3.41
Q9HAU6	13.05
P42684	4.88
Q9HAU5	52.23
P02461	7.53
P08183	7.37
Q8N6F7	19.87
O43795	1.58
Q9UPA5	1.0
Q96HD1	4.59
Q9UPN3	29.87
Q14469	42.38
Q13201	21.15
Q9Y3R5	5.66
Q5T0D9	13.81
Q13206	28.95
O75191	3.57
O75190	40.47
Q92882	298.24
P11233	123.95
Q9BWV1	1.72
P11234	142.61
Q8N163	358.9
Q15758	3.69
Q15751	0.78
Q15750	49.64
Q9BQD3	74.26
P54198	3.73
Q99549	38.65
Q99543	43.47
Q9NYJ8	2.73
Q9UEG4	2.16
Q96RP9	32.5
Q96RP7	3.85
P01040	132.71
P21953	29.03
Q8NDT2	4.29
Q9NX20	66.01
Q9NX24	460.95
Q96CW5	16.12
P13498	685.15
Q6ZRS2	12.15
Q03154	18.19
P10619	22.99
Q9Y6X8	51.99
Q8NI60	60.9
Q70HW3	7.1
P12544	93.54
O14772	6.27
O14773	265.72
P15260	15.34
O14776	148.2
Q9UJW0	71.76
Q15283	15.12
Q96IJ6	31.55
P56134	363.11
Q6P4A7	10.98
Q9NUN5	30.59
P57678	10.43
Q9BR77	7.26
Q9BR76	34.62
Q658Y4	28.88
Q6ICG6	9.11
Q9ULE0	8.5
Q3B726	33.45
Q9ULE6	6.47
Q71RG4	6.18
Q71U36	2010.13
Q9Y2Q9	120.13
O60828	75.32
P30038	64.23
O60826	82.57
O60825	42.82
Q9Y2Q5	169.91
Q59GN2	362.99
P17706	47.35
Q5JVS0	13.67
Q9P0K8	13.38
P18858	32.81
P18859	99.45
Q9P0K1	2.08
Q96EY5	7.25
Q96EY7	45.16
P13639	1396.31
Q6NXT4	4.08
Q6IQ22	7.66
P78417	620.68
Q9NVT9	40.02
Q8IY67	163.32
Q9UM47	0.86
Q2M389	56.6
Q15036	47.33
P55809	193.2
Q2M385	5.31
P17643	3.44
Q15032	3.46
Q15031	8.18
O15164	5.36
P35346	10.65
O15160	37.21
Q9P0W2	5.83
Q8TCF1	27.11
Q9BXM9	3.5
P08069	1.35
Q9Y4K4	2.2
Q8IYI6	40.81
Q9Y4K1	17.69
Q5JPE7	5.99
Q96I51	12.52
P62993	521.51
P62995	99.16
Q6AI39	1.81
Q92747	5.02
Q86U28	63.32
Q9BSA9	18.76
Q6P1N9	43.47
Q9NPJ3	139.47
Q9NPJ6	21.04
Q9UI36	2.65
Q04656	1.28
Q9UI30	73.47
Q6UWP7	34.12
Q7L5D6	45.73
Q96JK2	2.01
O14523	5.48
Q6UWP8	3.45
O75691	16.38
Q14258	241.07
O75694	121.0
O75695	63.16
Q14254	230.54
Q14257	118.82
Q02388	0.71
Q8IU81	6.76
Q68CP4	11.39
Q8N6S5	33.82
Q68CP9	6.34
Q9H3U5	8.15
S4R435	96.02
P49189	465.38
Q6UUV9	3.1
Q14789	33.85
P53567	12.72
O43374	4.61
Q9NUQ8	15.7
Q9NUQ9	919.83
Q5TIE3	1.56
Q9NUQ7	31.34
O43379	1.26
Q9NUQ2	158.7
P16284	133.99
Q9HC35	187.74
Q9GZQ8	14.21
Q4LEZ3	11.87
O75037	1.14
P49458	144.44
P49459	24.1
Q9ULX3	22.35
Q7Z7C8	18.27
Q9ULX6	66.98
P49454	0.57
O60216	378.37
O60218	11.59
Q8N1S5	11.79
Q99961	120.7
Q9UNF1	25.7
Q9UNF0	213.37
Q13416	3.16
P15309	4.68
Q7Z2W4	207.77
Q7Z2W9	54.87
Q13418	60.87
P11171	301.1
P11172	67.92
Q53QV2	256.18
P11177	335.05
P63218	114.05
P20963	145.08
P20962	36.19
Q8IXQ4	87.53
P01876	105.28
P01877	22.85
P01871	1066.4
Q8NHS3	7.24
Q7Z589	1.47
Q13574	1.68
Q13576	98.22
Q13571	6.97
O95707	8.21
Q13573	135.72
Q13572	13.72
Q8NE71	210.99
Q9BWM7	40.6
O00231	351.68
O00232	165.65
O00233	152.17
P05023	205.15
Q9UKB1	3.36
Q96EQ0	6.24
P55327	428.85
Q9BSW2	22.88
Q8TBA6	52.78
Q9BYJ4	3.67
Q9BYJ9	27.42
Q96AP7	5.07
P31040	338.71
P18440	18.47
O95379	208.63
Q6ZVM7	7.51
O95373	101.26
O95372	134.96
O95376	21.65
Q9BV40	419.57
Q86XL3	6.01
Q12959	10.39
Q68DH5	10.28
Q9C073	12.95
Q9NXW2	9.98
Q12955	1.74
P62851	531.43
P18621	906.89
P62854	64.13
P62857	505.6
Q9P265	27.98
Q96CV9	28.49
Q9P260	1.55
Q86WV6	108.79
Q969N2	19.06
P09211	1197.11
Q92888	604.97
Q92889	5.99
P51808	63.9
P51809	133.89
Q9Y6X5	40.4
Q9Y6X4	111.35
Q8TAA3	36.57
Q9Y6X3	6.04
Q9Y6X9	14.17
P28161	97.26
O75151	8.64
Q5JRX3	49.76
Q3SXM5	22.56
P02792	250.13
P02794	186.77
P04083	1061.76
P04080	580.63
Q9UKW4	25.61
Q9GZL7	52.48
P46459	212.21
P35613	84.05
P35612	92.9
P35611	327.33
P35610	19.34
Q12873	11.97
P35348	4.05
Q86TJ2	4.3
O76094	184.59
Q96FZ7	79.96
Q6P1N0	28.07
P32969	868.48
Q5JTV8	365.35
Q92556	263.84
Q9Y228	213.16
Q7L8A9	5.09
O43521	28.23
Q8N584	25.34
Q9BU02	32.65
O75208	99.89
O00750	14.68
Q9HAW4	1.38
P30837	43.77
Q6PJG2	32.66
Q6PJG6	28.41
Q8N766	16.8
Q09666	535.32
Q7LBC6	27.23
Q9H267	56.17
Q14444	109.16
Q8WU68	32.42
P25490	237.99
Q9H269	39.66
P14625	746.89
O15525	11.69
P14621	93.65
Q9Y3P8	237.04
Q9Y3P9	42.85
Q9UH92	6.27
O43583	245.56
Q9UH99	475.45
O43586	43.84
O95571	164.69
O95573	36.32
Q9H5Y7	2.19
Q8WUM9	2.83
Q8WUM4	614.95
Q9UPZ3	8.19
Q8WUM0	87.36
Q8N3J5	5.09
Q9NYH9	59.45
Q5K651	31.7
Q9UG63	43.9
P08754	272.84
Q8IXH8	2.19
Q9Y5F3	2.31
Q8IXH7	103.94
Q9NX40	120.84
Q9NX46	123.22
Q9NX47	6.68
Q8IUH4	2.94
P07305	90.01
Q49A26	227.41
Q8NI08	19.65
Q06413	20.37
Q6P996	40.91
Q9HC98	17.53
P15289	7.79
A6NNE9	4.76
Q8N108	100.76
P62081	509.21
Q96F86	37.21
P50454	4.49
Q96A37	7.99
Q9UJY4	96.33
Q96A35	8.37
Q96L21	195.73
P50452	234.18
P50453	733.17
Q8NF37	31.75
Q8N103	7.76
Q9NUL7	10.51
Q9NUL5	25.21
Q9P2S5	4.04
Q9P2S2	1.13
Q6S5H4	3.18
P34931	97.84
Q96C57	66.66
Q9ULC4	274.08
Q9ULC5	27.46
P51149	1057.04
P51148	364.3
Q9Y2S6	738.23
Q9Y2S7	14.89
Q9Y2S2	58.91
A5X5Y0	4.06
O60841	109.72
P30050	1124.12
P11940	552.11
Q9UMY1	49.64
Q9P0I2	34.83
P55795	139.77
O15212	28.62
P13612	43.58
Q96NM4	4.04
Q6IQ49	33.56
Q9NVZ3	139.89
Q96BQ5	20.3
P20160	108.65
Q15018	84.53
Q15019	533.11
Q96S59	8.04
Q96S52	33.84
Q15011	4.77
Q15013	6.72
Q15014	32.29
Q7L0Y3	92.55
Q96S55	43.39
Q9BTV4	297.57
P45974	381.21
O15143	769.4
O15144	1112.16
P45973	215.93
Q9Y4I1	6.78
Q76FK4	9.51
Q92769	143.21
Q8IY47	2.93
Q9H2S9	3.25
Q86U42	267.59
Q92945	704.88
Q92766	3.45
Q86U44	93.85
Q99798	771.84
Q99973	3.59
Q02413	1.83
Q9P107	148.64
Q96RN5	19.24
Q96AK3	13.43
Q01469	288.96
Q8N4S0	32.6
Q6UWV6	4.05
Q6PCE3	38.51
P10398	67.92
Q96JI7	4.49
Q9H098	174.35
Q7Z6E9	11.39
P16930	13.5
Q9H093	8.99
Q9UK53	17.86
O43172	153.5
Q15907	51.12
P19419	4.65
O43175	62.61
Q96LW7	8.15
Q9BZV1	41.94
Q8IWZ3	13.94
Q5VT97	1.57
Q9BSC4	15.59
Q86Z14	3.48
Q9NPL8	38.91
O14964	38.73
Q9UFN0	285.86
O43396	155.27
O43395	126.49
O43390	561.76
Q2TAA2	113.4
Q2TAA5	3.75
P09874	1588.65
P11388	8.38
Q7Z7A4	25.7
Q7Z7A1	33.37
Q96FN4	27.28
Q7Z7A3	5.72
Q53SF7	50.66
O60271	24.26
A6NIH7	29.66
Q6PIU2	50.1
Q8WXX5	306.95
Q15652	5.87
Q15653	82.86
Q15650	34.7
Q15651	97.81
O95498	3.57
Q13435	428.85
Q13438	27.61
Q13439	7.19
P23634	12.1
Q969G9	3.99
Q6DD87	36.03
Q9HAJ7	29.98
Q6DD88	193.0
Q92879	20.04
Q13557	177.68
Q13555	26.66
Q13554	20.1
O95721	93.63
P01893	10.21
Q6ZP98	14.29
Q8NHQ9	21.31
Q9NWY4	37.04
Q6PD62	42.2
Q9UQB8	34.28
Q13885	840.35
Q13884	10.78
P33240	41.07
P33241	1537.19
Q13889	6.07
Q96BJ3	113.19
P51798	37.65
P0C671	2.9
P51797	2.14
Q9NQ89	13.08
Q9NQ88	41.64
Q9NV70	49.1
Q9NV72	3.87
Q7L211	5.41
Q96AV8	2.09
Q86UF1	13.23
Q12933	7.47
Q9BV29	20.2
Q9Y678	365.13
Q9Y679	15.74
Q5TEC3	6.9
Q9BV20	53.3
P08574	465.35
Q9Y672	14.35
Q9Y673	45.18
Q9UBB6	5.29
Q9UBB5	110.95
Q9UBB4	97.52
Q6IF82	6.0
P23467	1.86
Q9UBB9	36.64
P62879	89.43
Q9UIG8	2.73
P62873	480.09
Q9UIG0	113.54
P62875	54.59
Q96CX2	163.65
O60476	2.86
Q8TAG9	11.13
Q6AHZ1	1.25
O95931	14.72
P14406	199.86
Q5VV42	3.2
P27986	87.36
P27987	12.23
P27635	551.23
Q9NRS6	27.25
A5YM69	7.83
O75223	139.05
P24723	2.68
Q9NTM9	120.89
Q5JSL3	93.06
Q9UKU7	50.93
Q8N0Z3	4.34
Q6PHR2	7.81
Q8N0Z6	4.26
Q8N292	46.67
Q8N0Z8	12.56
Q8NEV8	0.94
P14649	164.99
O75592	22.91
Q8N122	5.6
P32320	38.68
P32321	52.12
Q8N128	8.78
Q8N129	14.74
P26583	1779.73
O95551	15.29
Q5T8I3	5.31
Q86X27	137.68
Q96RL1	91.6
Q96RL7	3.47
A6NJ78	9.05
Q9UPE1	6.73
P82664	27.22
P60468	167.36
P82663	31.12
Q8IXJ9	1.26
P11586	355.43
Q9HDC9	282.81
Q8IXJ6	19.33
P38919	360.58
P21912	296.85
Q9NX62	5.39
Q9NX63	287.23
Q16352	22.6
P62318	599.75
P12724	68.09
P62314	502.7
P62312	160.01
P62310	52.85
Q6UWI2	6.46
Q9HD45	33.81
Q9BRF8	123.26
Q9HD40	3.74
Q14849	24.79
Q8NI27	51.37
Q8ND30	8.47
Q9NZD8	41.78
O14735	106.37
O14737	146.07
O14732	26.65
O14733	4.39
Q9NZD2	87.49
O95716	34.39
P41252	141.51
Q96A19	6.67
Q66GS9	28.14
Q9NR45	129.41
Q9NR46	161.33
Q8NF50	177.57
Q9HBU6	8.19
P84098	409.02
Q6IA69	55.27
P01137	9.41
Q9NUJ1	233.66
P84090	221.27
Q9NUJ3	3.66
P84095	577.72
Q96C74	7.99
Q15464	3.79
Q9UJY5	23.72
Q9ULA0	242.77
Q96KP4	726.05
Q96KP1	50.13
Q96A33	115.77
A1A4S6	2.33
Q03111	16.81
P13987	14.72
P13984	95.58
P29803	87.48
O60869	382.41
Q8N8R5	9.6
Q96EE3	110.51
Q04837	302.22
P08913	8.52
P52306	185.63
P02458	1.47
Q9NVX2	39.13
P02452	3.0
Q9NVX7	3.59
Q15072	6.26
O00571	239.3
Q8N2K0	4.63
Q15075	101.46
Q8WWY3	191.89
O95236	37.7
Q9UM00	98.54
O95232	121.63
Q9UM07	25.35
Q9H7E9	33.39
Q6L8Q7	55.76
Q8NHL6	61.87
Q9H7E2	5.7
P45954	43.94
O15126	55.02
O15127	79.71
Q9BTX1	21.88
Q5M9Q1	4.51
P32519	102.01
Q9C0E8	34.97
Q8WVC0	63.64
Q8WVC6	23.58
P24539	772.28
Q9Y336	16.66
Q9Y333	423.66
Q9H2U1	29.09
Q9H2U2	412.69
P24534	286.47
Q8N4Q1	182.62
Q04695	30.36
Q9UGJ0	3.31
Q9UGJ1	8.23
Q8IYM9	69.62
Q9BXI6	14.61
Q8IYM0	2.01
Q9HCN4	15.0
P43155	11.78
O43159	69.94
O43156	6.84
P86791	18.67
P46379	83.87
Q86Y07	3.59
P42704	373.95
O60783	27.57
O60784	85.29
O14949	294.89
Q9GZU7	7.14
Q9GZU8	43.3
Q2TAC2	2.02
Q96FL8	3.37
Q86TS9	15.27
O60256	321.19
Q13185	391.02
Q13188	88.95
O75071	3.79
Q6P158	17.43
Q9H9B1	13.27
Q4LE39	36.7
P34932	515.38
Q8IWW6	4.34
Q9UHR5	98.57
O75886	43.05
P28907	54.7
P98194	4.15
A2A288	39.52
Q13459	36.86
A0JNW5	1.27
P23610	26.68
Q13451	154.82
O43681	150.6
Q96M86	0.39
Q96GF1	20.4
Q13535	0.69
Q4G148	4.13
Q5T890	5.15
P48729	32.17
P48723	16.07
P31937	159.46
P31930	416.15
Q3SY84	7.28
P31939	665.2
Q7Z3C6	13.26
Q6UXV4	228.98
A6NHL2	8.36
Q9NV56	55.85
Q14980	584.12
Q9BYV9	49.61
Q9BYV8	30.26
P12111	0.61
Q96AT9	41.85
Q86UE8	2.38
Q96AT1	35.84
Q9UQ90	2.36
Q9H0X9	2.12
Q86W92	1.83
Q08379	49.82
Q9UMY4	116.33
Q9C035	7.41
Q08378	123.43
Q9NXK8	5.64
Q12912	178.02
Q12913	62.91
P19256	14.83
Q9UBD5	12.68
Q9BTC0	39.36
P03915	59.15
P09525	418.67
Q969R8	4.23
Q08722	47.4
P49642	4.18
O75083	961.41
Q86WR0	25.57
Q9NXH9	17.33
Q8TAE8	41.1
Q8TAE6	11.69
Q6ZUA9	1.4
Q9H1J1	3.81
Q6P1J9	58.56
P20648	1.83
Q5M775	3.52
P14210	2.51
P20645	161.58
Q562E7	39.43
Q9P2J5	142.76
P28340	8.44
Q92598	310.19
Q7Z5L9	47.87
Q86VP6	432.99
Q86VP1	4.59
Q7Z5L3	7.08
Q92597	126.65
P30876	104.41
P08123	1.61
Q13131	130.39
P20393	3.12
P05423	9.4
P06239	50.36
Q8N0X7	5.73
Q8N0X4	39.1
Q9Y3T9	73.71
P67775	340.0
Q8TEA8	89.08
Q99614	105.8
Q99615	114.6
Q99612	6.55
Q99613	400.1
Q99611	17.64
Q01094	4.45
Q6PI48	141.82
P51812	199.34
Q6PI47	13.39
Q8WW43	7.33
P0CG05	295.6
Q71F56	1.72
P46783	320.19
P46782	711.44
Q8IV08	19.07
Q9NYL4	28.22
Q9NYL9	200.25
Q8IV04	172.09
P53667	8.62
Q96RJ3	55.3
Q14156	42.66
Q14157	76.51
Q8WU20	3.66
Q14152	369.53
Q14151	205.79
Q8WVX3	27.44
Q14409	17.22
P21281	166.18
O00559	17.12
P21283	94.97
Q8TAF3	13.69
Q9Y5J1	70.67
Q9Y5J6	36.02
Q9Y5J7	40.21
P16109	2.3
P19338	2235.95
O43451	0.99
P19623	98.7
P16104	110.22
P04921	90.65
Q96JP5	49.33
P62330	415.6
P62333	259.8
Q8WUI4	18.24
Q96S53	3.28
P13796	5387.93
P13797	5.89
Q9NZB2	92.44
Q9BZ95	11.62
Q9UDY2	1.56
Q9UDY8	38.44
Q8N5P1	31.07
Q96A72	615.96
Q96A73	6.28
Q96IL0	8.64
Q86YT6	1.89
P30273	107.92
Q9NR28	176.88
Q53EL6	713.86
Q96KR6	10.22
Q96KR1	44.58
Q9UFW8	321.52
Q8TD16	55.77
Q9P2W9	59.35
P34972	5.26
P13473	106.74
P49720	345.5
P49721	557.36
Q96C92	4.35
B7ZAQ6	11.83
Q96C90	78.68
Q6S5L8	6.07
Q9BRD0	23.67
Q9H6K4	73.04
Q06323	1518.25
O60888	65.49
Q8TDB8	66.69
O60885	69.91
O60884	127.71
O60880	14.71
P50583	37.2
Q99459	189.99
Q9BUB4	3.77
Q9BUB7	7.2
Q86SF2	5.54
Q8TD19	89.56
Q6DN12	4.19
Q6DN14	1.87
Q96H20	50.6
O75376	24.71
Q15058	2.24
Q15059	81.32
Q96S99	6.69
Q15054	16.24
Q96S97	118.3
Q15056	137.15
Q15057	139.85
Q15050	86.11
Q15051	6.05
Q15052	157.39
O00592	3.56
O95218	50.21
O95219	4.02
O95214	28.92
Q8WWW0	44.31
Q9BTZ2	113.03
Q5T280	24.83
Q8WYH8	15.04
Q93052	28.56
Q93050	38.96
P31327	1.27
P62937	4286.14
Q05D32	59.05
P31321	9.69
Q92903	7.83
Q92902	2.63
Q92900	129.21
P24557	34.48
Q8IY81	77.79
Q6P2H8	13.19
Q86U86	30.28
Q9Y316	18.56
Q9Y315	165.83
Q9Y314	31.45
Q9Y312	9.6
Q9BVS5	11.82
Q9Y385	17.78
P43897	112.02
P15954	115.18
Q9H583	43.04
Q9H582	1.4
Q8IYS2	9.05
Q8IYS1	8.73
Q7Z6A9	63.55
Q14232	123.79
Q6P2Q9	268.44
Q9BXK1	24.61
Q9BXK5	174.13
P53582	140.02
Q15942	262.19
Q68CZ2	8.06
Q5EG05	55.33
Q92673	19.32
Q9NPP4	1.8
O75582	48.76
P35443	1.97
O75586	7.34
Q99933	43.04
P20073	324.42
Q9H6V9	22.36
P49821	184.77
Q8WYP5	54.54
Q92947	99.72
Q2TB10	24.96
Q8IWQ3	2.56
Q6P179	77.45
P19105	1612.81
A6NFI3	5.77
D6RGH6	5.0
P26045	2.01
Q9H4B7	248.76
P54725	26.34
Q9H4B0	4.62
O95456	25.4
O95453	36.93
O95450	1.55
Q99426	160.35
P42858	28.21
Q9HAN9	78.41
P31942	299.48
Q99797	20.7
Q2T9J0	3.52
Q13510	247.62
Q96PU5	1.86
Q96PU4	30.14
Q96PU8	60.93
P80217	39.69
Q5MJ10	10.48
P34896	27.51
P34897	316.75
Q7Z698	4.39
Q6XZF7	12.94
Q8TBK6	19.9
Q9BYT8	10.35
Q16635	6.24
Q16637	19.65
Q16630	253.73
P09960	1376.27
Q7Z340	2.69
P13224	38.43
P47985	84.4
Q9NQW7	38.8
Q9UBF8	6.85
Q9UBF2	83.36
O00299	1619.76
Q86WP2	3.91
P51648	26.63
P51649	116.7
Q8NAF0	6.9
Q9NSI2	16.39
Q9NSI8	45.02
Q6IC98	31.42
P25098	173.06
P49916	66.53
P49915	92.48
P49914	26.92
Q96IW7	5.97
Q8NFZ5	55.7
P0C0L5	6.5
Q8NFZ0	1.77
Q00653	174.69
Q53EQ6	3.01
Q10469	4.05
P22570	54.26
Q01658	32.19
Q5XKR9	31.83
Q01650	3.79
P08107	699.96
Q15906	35.98
P00488	70.16
P23381	427.79
Q66PJ3	38.04
O75915	839.83
Q15904	24.06
Q9NTI5	198.94
Q96SI9	223.8
P43405	619.6
P43403	26.88
P48047	914.32
Q13283	260.0
Q8NEJ9	23.25
Q13287	53.57
Q9Y3Z3	814.95
Q99638	4.9
Q69YQ0	5.02
Q99633	31.41
Q8TB36	10.09
Q8TB37	6.12
Q16643	14.61
Q8WX93	1.39
Q8WX92	69.87
Q8WW22	4.66
Q86VR2	48.72
Q8IV63	11.84
Q8IV61	2.66
Q70Z53	5.56
P22033	35.14
O43292	6.17
O43291	7.39
O43290	291.29
O43299	14.13
Q9NYB0	231.0
P00156	29.31
Q2KHM9	1.91
Q8IUR0	60.24
Q8IUR7	41.45
Q8IUR6	8.68
P15153	1022.38
P49354	23.49
P49356	4.28
Q16820	2.62
Q16822	262.55
Q6ZSS3	4.24
Q6ZSS7	4.74
Q9HD89	36.55
Q9BS26	226.55
Q96DE0	127.51
Q96F24	12.89
Q96A57	63.29
P36551	45.76
Q9Y5L0	110.13
Q86YV5	5.59
Q9Y5L4	198.72
Q86YV9	20.12
Q8N7H5	45.23
Q5TCZ1	1.67
P30520	133.28
P49748	382.39
Q15428	118.61
Q9ULM0	2.76
Q15424	272.4
Q15427	32.91
Q8ND71	44.58
Q8ND76	15.91
Q9HCC0	102.06
Q9BRJ6	226.77
Q9BRJ7	98.35
Q9BRJ2	41.32
P60842	791.14
Q8TDD1	40.21
P55081	132.52
P06730	174.59
P55084	492.2
P06737	49.4
P06734	34.33
P55735	76.32
O00602	148.71
O14966	63.08
Q8NCA5	82.86
Q96AP0	14.46
Q8NF99	13.65
Q9NQZ2	45.89
Q9NR09	9.05
Q8NCA9	24.38
Q8NF91	16.51
P57772	121.41
Q9H0T7	8.88
Q8N2G8	50.78
O95273	5.18
P55884	360.99
Q8NHH9	6.3
P50440	60.29
Q9Y2Y0	44.34
Q9Y2Y9	6.69
Q9H9L4	11.37
Q93073	3.43
Q93074	8.58
Q93075	2.45
Q93077	3062.13
P28066	426.61
P28067	57.18
P28065	161.44
P28062	467.43
Q6ZV73	1.3
P62910	513.08
P62913	587.26
Q03518	172.25
Q03519	93.76
Q9Y487	12.76
Q9Y485	13.59
Q9H832	92.83
Q9Y483	3.11
P10253	21.79
Q9H2Y7	1.0
Q9BQA1	11.36
A8K0Z3	82.92
Q00796	147.0
Q9Y371	117.64
Q9Y375	11.05
Q9Y376	245.97
Q9UGN4	12.57
Q9UGN5	6.3
Q8N4U5	21.55
Q8NCE2	23.12
Q9BXU1	5.41
Q8IYQ7	30.14
P00367	1063.69
O60645	45.65
P00813	5.12
Q8NBL1	54.21
Q8IVS2	4.86
Q59H18	2.25
Q6ZWB6	3.98
Q9BSI4	12.51
O60749	581.67
P23246	920.67
P51610	106.96
Q9GZY8	70.52
Q8WZ82	59.82
P82094	16.99
Q9GZY4	49.99
Q9GZY6	133.6
Q8IZQ5	1008.14
Q9H9F9	15.28
Q9H300	14.84
P52701	23.22
O60292	9.65
O60293	5.53
Q8IWS0	60.64
Q3YBR2	13.93
O43660	116.74
P61923	196.28
O43665	164.98
Q01415	33.13
P10809	2064.15
P40818	16.36
Q15637	332.84
Q15631	494.08
O95478	6.94
O95479	46.94
O95470	29.56
P54709	105.94
Q13492	70.78
O95476	7.35
P32119	743.42
O95782	221.18
Q6ZNB6	4.12
O95786	88.08
Q9C037	21.79
P36969	357.56
Q9BWE0	22.97
Q02078	22.84
Q9NY27	142.37
P19784	121.51
Q9UHV7	2.62
Q9UHV9	200.53
P33992	88.75
P33993	25.66
P33991	32.41
Q7Z3G6	2.18
Q96IZ0	62.77
Q9NV96	56.42
Q8WUY1	34.97
P60981	124.02
P60983	137.33
Q9BQ75	26.18
Q9BQ70	8.16
P41567	49.16
O14893	13.21
P22830	52.31
P61586	1217.34
Q16611	89.13
Q86UL3	4.01
Q9H0D6	136.44
Q7Z417	2.74
Q86UL8	2.63
Q13432	15.48
Q5SZL2	2.27
Q14C86	59.44
Q9UBX3	6.67
Q9Y4B4	3.85
Q9Y4B6	14.82
Q96D53	6.95
Q6UXZ4	7.88
P02585	11.51
P51888	4.76
P51665	259.23
P51668	251.36
Q969V3	69.58
Q969V5	5.24
Q969V6	8.44
Q9NSK0	27.36
Q9Y6P5	3.69
Q96IU4	597.59
Q08AF3	22.71
P27824	852.3
Q64LD2	3.47
P63279	1019.69
Q13043	221.29
Q6P1Q0	19.97
Q6PKG0	77.71
Q5VYS8	12.19
P83916	272.78
P24298	3.82
Q8IZ21	10.67
P23025	19.96
Q00325	827.43
O00410	312.23
Q9P2N5	14.06
Q9P2N6	8.69
Q15397	42.53
Q96T58	15.56
P59074	10.94
P09564	8.21
Q5XKP0	111.61
Q9NTK5	177.2
Q96SK2	53.06
Q96QH2	81.62
O15315	4.94
Q86T24	5.6
P46109	123.55
P46108	6.17
Q9H1K1	46.37
Q99653	120.79
Q8NEL9	2.08
Q99873	190.98
P42338	1.7
O00468	0.96
Q9Y3X0	97.86
P45452	3.88
P42331	411.99
Q8N183	42.03
Q96P48	74.61
P09382	1191.01
Q96CC6	2.14
Q9UH17	18.17
O75937	489.44
O75935	118.56
O75934	199.62
Q14376	21.8
Q8WW01	11.19
P43686	162.99
Q9BTA9	26.55
Q8IV48	15.62
Q76B58	2.36
O43278	3.57
Q8N983	26.72
Q9UNS2	143.83
Q96RF0	39.37
Q9UEY8	166.07
P53621	419.28
Q8WVT3	60.46
Q96HN2	9.38
Q96GD0	105.32
Q14118	6.42
P16144	3.1
Q8N4H5	34.57
P07384	636.99
O43414	11.21
Q6NW34	9.7
Q1ED39	16.18
Q6PML9	13.14
P82970	112.52
P82979	590.59
A4D1E9	24.3
Q96F07	201.06
P36578	936.16
P14770	43.82
P63173	1320.27
P63172	16.76
Q86YP4	55.18
Q8NDB2	369.25
P20592	193.18
P20591	331.55
P49768	19.81
Q9ULK4	6.67
Q15404	125.7
Q9UJX6	6.67
P13929	8.88
O95644	24.73
Q8ND56	66.07
Q96A22	14.99
O00629	79.3
P40227	517.82
Q96NU1	2.87
P13693	298.15
Q0VD86	7.78
Q86SJ2	3.6
P59665	61.36
P84077	1139.19
P84074	93.04
Q8NCG7	22.64
Q9BUF5	20.93
Q69YN2	96.38
Q69YN4	27.89
Q06587	24.59
Q96GY3	7.35
O95251	59.07
Q9BW85	39.38
Q9HB07	113.05
Q9BW83	10.19
Q00403	107.82
Q8TDF5	3.47
Q9UKJ3	13.98
P38571	32.16
P62979	23.23
Q01201	20.15
Q93015	6.64
A0AVT1	316.6
Q6WCQ1	14.32
Q9BVL2	65.1
Q9BVL4	5.68
Q9H814	98.68
Q96N96	2.79
Q9UGL1	1.19
Q9BXW9	1.25
Q8IYW2	0.69
Q9H1C4	15.66
Q8IYW5	3.21
P43146	1.32
Q9H3C7	2.64
P48643	524.51
O75891	2.11
P78563	38.75
P78560	18.35
Q92636	17.99
Q5TDH0	145.28
P24941	6.15
O60762	119.7
O60763	220.46
O60765	3.01
Q9HCM1	2.14
Q15185	301.31
Q15181	376.93
P17844	310.8
P20036	291.17
Q14584	3.36
Q86TU7	15.51
P25774	205.89
Q2TAY7	90.65
Q9NRF2	2.63
Q8NFC6	87.76
Q13129	0.96
Q13126	247.16
Q13127	1.71
O75093	1.24
Q13123	222.64
Q9NRF8	25.42
Q9NRF9	37.13
O75569	78.84
Q9Y6I4	21.26
Q562R1	337.8
Q8N511	9.02
Q9BZK3	17.91
Q641Q2	82.22
Q9UNX3	519.94
Q9UNX4	35.4
P54098	16.45
Q9HAB8	122.72
Q99469	4.68
Q99460	224.75
Q9Y2R4	18.55
Q99467	132.2
P26885	293.33
A6NI72	484.19
P40763	137.42
P21854	103.76
Q70E73	9.26
Q6UN15	78.41
P16083	32.2
P62491	547.42
Q96MG7	109.47
P61619	99.81
P62495	119.16
Q14966	23.64
Q14964	8.34
P36639	46.33
P16333	92.49
Q8TAP6	2.8
Q9BQ52	27.15
Q16186	59.4
P62140	117.83
Q16181	531.1
P12429	5.74
Q96B97	428.0
Q9UPR0	18.24
Q96M27	35.74
Q16670	3.78
Q96HS1	84.76
Q16676	9.04
Q9BX46	8.42
Q7Z478	10.75
Q9BX40	54.56
Q9H0B6	3.03
Q6YN16	78.14
Q9NXA8	61.58
Q2KHT3	3.55
Q9NQS1	21.67
Q7Z3E5	4.55
Q7L523	108.42
Q9H165	25.17
Q7Z3E2	8.05
P13598	74.87
Q9Y676	56.78
Q96D71	40.93
Q7Z4H8	7.12
Q15836	92.25
P51608	1189.67
Q9Y6R4	4.59
Q7Z4H3	115.97
P51606	8.55
Q7Z4H7	5.76
P22087	1080.82
P49959	126.86
Q00341	28.03
Q00610	968.05
O76031	18.09
Q00613	32.8
P35813	83.56
P78356	26.42
Q5T1V6	3.03
Q5SRE5	24.48
Q6NUQ1	4.6
O00478	3.21
O00479	393.73
Q9UL63	2.46
Q96T76	40.52
O00471	43.34
Q15370	127.1
O15085	1.24
O15084	9.24
P03971	3.52
O15083	1.89
Q969T9	14.86
P09543	131.56
P08631	73.52
Q5M7Z0	4.2
Q6PJI9	7.6
P32455	147.43
P32456	62.09
Q9NYP7	17.74
Q9UKM9	462.78
Q9UKM7	2.62
Q4V328	84.77
Q9UMN6	4.98
Q8IZ07	145.03
Q13107	21.14
Q86T03	42.48
Q8N9M5	11.55
Q99856	3.32
Q9UH73	25.89
Q96P66	3.68
P62701	895.3
Q15005	475.67
P68431	1652.54
O75955	193.87
Q9H7Z3	3.15
Q14353	7.93
Q9H7Z7	149.24
P00441	641.57
O43257	11.9
O43252	38.29
Q09028	183.89
Q9NYF8	149.43
P53602	43.26
P53609	24.62
Q8WVV9	3.47
Q14137	42.41
Q9UPM8	4.92
P10109	10.76
Q3B8N2	52.61
Q8WVV4	3.07
Q14139	10.21
P46781	738.89
O43432	15.36
Q96JZ2	16.05
P04632	331.59
Q16864	31.21
Q8N4N3	23.88
Q9UGQ3	7.65
Q8WUW1	190.88
Q7Z6Z7	53.26
Q5XG87	3.48
O75379	38.18
Q8TCU4	0.45
Q8TCU6	50.43
Q96F63	53.57
P82912	50.6
P82914	34.96
Q9Y5P6	94.29
Q9Y5P4	73.64
Q13356	53.21
Q96DA2	33.9
Q96DA6	33.39
Q9BSV6	6.2
P63151	44.4
P38646	897.71
P06454	1077.21
P61421	51.74
Q9ULI0	3.8
Q9BTW9	20.46
Q9ULI3	1.41
Q9H6A0	42.76
O15530	49.56
O15533	197.15
Q53QZ3	84.16
O95625	3.5
Q9HCG8	27.7
Q9HCG1	4.43
Q9H6Q4	31.48
Q9HCG7	1.99
P55771	5.75
Q8N8J7	14.24
Q13740	12.82
Q5VST9	0.24
P21333	945.39
Q5VST6	12.95
Q9NUB1	139.37
Q8WVX9	17.58
P30566	68.42
P80511	157.85
Q9NW13	55.97
Q8WWQ0	23.22
Q9HB21	13.74
Q9Y2E4	1.22
Q6P3W7	16.1
Q8TDH9	48.28
Q01826	12.14
P13010	1541.47
Q8NFV4	24.06
P09488	284.03
Q9BVJ6	73.52
Q9BVJ7	75.47
P47756	1544.11
Q2PPJ7	3.96
P57737	174.22
Q96AA3	27.67
Q86US8	2.6
P35716	4.47
Q8IYU8	16.8
Q9C0D6	1.67
Q9Y4W2	82.89
Q9Y4W6	141.33
Q8TCJ2	95.78
Q93034	45.88
Q9P1G2	18.34
O15056	3.78
Q92611	2.83
Q92610	16.69
Q92616	111.9
Q92615	10.36
Q92614	162.9
Q92619	468.83
Q96LI5	3.31
Q53GL7	43.63
Q9BZK7	90.07
O60701	15.17
Q9Y6I3	44.99
Q53GL0	94.77
P78549	24.27
O75563	35.44
Q9Y6I9	24.41
Q8TAP8	7.46
Q8TAP9	10.9
Q99996	15.64
P42785	41.13
P01106	4.28
Q01484	0.96
Q08117	18.99
Q08116	8.75
Q6ZUT9	1.44
O75746	189.78
Q9H9J2	88.94
P68371	456.41
Q6SJ96	5.02
Q13105	2.37
Q5T1M5	93.69
P61964	102.65
P61966	77.97
P61960	205.95
P61962	5.36
P52747	18.17
Q14653	57.45
O94819	9.52
Q14657	169.13
O95433	190.81
Q99442	77.34
Q99447	42.84
P40925	1002.43
P40926	1533.92
Q9NY61	115.67
Q9UHJ6	36.47
P80723	1443.56
Q96PK6	252.22
Q6NV74	2.04
Q8N1G4	187.38
Q8N1G2	37.21
Q8N1G1	1.59
Q8N1G0	9.67
Q9UNZ2	246.85
Q9UNZ5	512.91
Q96ME1	2.36
Q96ME7	161.29
P11717	38.78
Q9BQ39	40.43
Q12765	184.44
Q9NYY8	5.12
P19525	77.29
Q12768	118.09
Q16656	66.25
Q2LD37	0.38
Q16658	3.83
Q96B70	3.92
Q9UPP1	5.31
Q5TEU4	5.36
Q9BX63	1.48
Q9BX67	11.92
Q9BX68	218.84
Q9BPY3	5.28
Q8NA72	3.29
P80188	36.95
O60942	12.17
Q7L2J0	44.9
P23786	53.74
A2A3N6	17.56
Q9H5N1	157.62
Q7Z3K6	3.4
Q96D15	5.57
Q7Z3K3	25.52
O60493	344.75
O60496	22.99
O60499	37.11
P20702	21.22
P30711	91.6
Q8N5K1	109.26
O00189	8.35
O00182	36.96
Q96IY1	110.29
O00186	64.66
Q06136	23.06
Q13685	8.93
P13716	172.47
Q12888	91.83
P14927	539.76
Q07889	9.58
Q07666	155.75
Q12882	52.44
Q96QV6	2316.1
Q9NRY6	6.59
Q9NRY5	142.94
O00451	4.05
O00453	19.33
O00458	4.15
O00459	2.56
O00329	62.87
O95197	11.12
Q96CB9	29.05
Q96CB8	17.1
P01732	8.11
Q9UL45	52.84
C9JTQ0	31.6
Q9UL41	7.96
Q9UL40	38.01
Q7Z4N2	1.15
P48595	142.46
Q9BRS2	19.09
Q969Z0	58.99
P02649	11.54
P57059	4.92
Q96FX7	26.6
Q12769	42.47
Q32P28	5.0
Q9UKK9	248.72
O95999	103.33
O95998	9.89
P53999	1130.6
Q9UKK3	3.25
O95997	9.47
P53992	70.54
Q6P1R4	7.84
Q9Y250	6.26
O15355	292.18
O15354	3.11
O15357	16.56
Q9Y259	41.48
Q99832	822.43
Q99836	43.95
Q01543	155.52
Q9H7X3	5.14
Q14330	5.47
Q14331	128.75
Q9NTG7	9.58
Q6KC79	25.09
Q9NTG1	0.82
Q8TB72	7.31
Q9BTE3	28.59
Q9BTE7	30.34
Q9BTE6	22.94
Q8N490	9.73
P22090	184.17
O43237	27.0
Q9Y6C9	419.42
Q8N3F8	15.63
Q9UEU0	15.64
P35527	699.28
O95070	19.55
Q8N4L2	14.86
O95071	10.79
O75352	39.16
O75351	262.39
Q8IVH4	13.45
Q86X83	9.17
P82930	56.94
P82932	102.66
P82933	36.42
Q9NXC5	38.1
Q9NS86	61.54
Q96F44	3.95
Q96F45	3.34
Q96DC8	6.39
P67809	476.27
Q9Y5R5	3.38
Q9Y5R8	61.98
Q8NDF8	9.89
Q8IXT5	47.7
P14735	12.38
Q9BV86	24.66
P17275	5.82
Q9ULW3	53.71
F5H305	14.29
Q16222	3.55
P61158	1264.14
Q8IZF6	0.63
O95602	19.28
Q9H9Q4	56.33
Q9H9Q2	105.66
Q9HCE5	28.01
Q8NC60	2.66
Q9HCE0	2.85
Q9HCE1	1.84
Q9BRL6	6.46
O15514	102.34
O15511	946.1
P50053	6.38
Q96EK6	20.11
Q96EK7	18.09
Q96EK4	54.5
Q96K19	27.99
Q96K17	567.82
Q9UN19	71.29
P50502	348.33
O95872	5.31
Q13765	740.6
Q13761	42.34
Q53H12	168.21
P51452	101.89
P51451	36.16
P16278	35.66
Q9BUJ2	318.19
P62266	1161.54
P37268	34.69
P62263	1089.88
P62269	1401.31
P31146	1799.23
Q8NE86	41.87
P48454	43.07
P10720	234.79
Q86X29	5.84
Q9Y2G2	8.53
Q9Y2G3	3.11
Q9Y2G9	1.39
Q9HB40	12.31
Q08945	216.18
P07199	44.82
Q6WQI6	20.25
P07195	1366.8
Q01844	316.89
P09132	77.49
Q9BT73	95.54
Q92989	13.14
Q9Y394	147.1
Q5T5C0	1.64
Q9BT78	270.58
Q9Y399	43.93
P37840	28.86
Q8TBP6	16.42
Q9NVF7	15.21
P52907	2047.06
Q9NXX6	28.26
Q9BXS5	334.97
Q9C0F1	4.73
Q3MII6	2.73
O60637	14.89
O75503	30.17
Q5VT52	41.46
Q53GQ0	224.92
Q8IX19	9.83
Q8IX18	4.71
Q9H3G5	15.41
Q9Y6K0	31.37
Q9Y6K1	4.1
Q8TAV0	5.95
Q9Y6K5	18.94
Q9BZI7	54.18
Q9Y6K9	43.29
P78527	515.09
A2RRP1	23.31
P05362	43.3
Q96AG3	13.56
Q96AG4	65.71
Q8NFG4	9.71
Q13163	4.16
Q9H9L3	10.66
Q32M88	12.93
Q13164	7.08
Q9H410	72.91
Q6VY07	117.36
Q8N554	12.42
P61981	420.21
Q9UIV1	50.98
Q6JBY9	829.85
Q6P4F7	3.66
Q969E8	19.97
Q7Z2E3	15.36
O94832	3.59
O94830	12.87
Q7LG56	35.85
Q02548	183.16
Q8IW45	17.11
Q8TD26	0.68
Q9HAF1	57.87
Q8TD22	5.62
Q6IBS0	432.63
Q04721	0.79
P12814	500.08
Q04724	10.03
Q04726	22.51
Q9BZA5	14.26
Q9H1Y0	45.01
P24863	6.28
P21817	1.11
P24864	4.43
Q8NDH3	11.21
P33176	184.52
Q15233	777.18
O43572	2.83
Q02094	4.72
Q53F19	38.42
Q8N1A0	6.11
P07203	850.18
Q96PM5	6.93
Q71UM5	66.05
Q14677	186.46
Q14676	76.4
O94766	33.72
O94763	31.39
O94762	5.75
O94760	6.7
O94768	39.42
Q12789	13.98
Q12788	49.21
Q2NL82	18.18
Q96B54	30.56
Q96HW7	30.86
P04406	5544.35
Q9UPV0	2.54
O60921	39.5
P30153	440.89
Q9NXE4	26.82
O60925	44.05
Q9NXE8	4.2
Q4ZIN3	3.07
Q5ST30	7.04
P34810	50.2
Q15785	30.19
Q15788	1.33
A8MTT3	22.35
Q7L2H7	265.09
Q9UQN3	61.09
P62316	1249.42
Q7Z614	17.3
Q7Z2Z1	0.99
Q9NP58	2.22
Q53GS9	127.65
P80303	16.63
Q9NZW5	27.31
Q5T6F2	1.78
Q9Y6V0	0.38
Q9Y6V7	7.7
P37108	801.96
Q9NP56	4.03
Q8N5M9	88.89
P17026	177.13
Q8N5M1	25.47
P17028	74.25
Q8N5M4	93.83
P14921	70.37
Q5VYM1	1.77
P50991	633.99
P50990	1035.9
P50995	318.41
Q8IUG5	0.73
Q5GLZ8	35.2
Q9H0N5	29.05
P05114	2309.89
Q5JTD0	3.38
O76071	71.68
O76075	10.67
Q96I25	69.61
Q9P2D3	37.21
Q9P2D1	3.73
Q96T37	112.9
Q13952	33.18
Q969X5	230.47
Q13950	3.68
Q6ZT12	2.95
Q969X0	26.1
O95171	5.38
Q9UL26	66.83
Q9H6X2	6.65
Q9BRQ6	39.43
Q9H6X4	9.67
Q86WX3	54.08
Q8IWT0	21.41
P57071	1.23
P52597	388.33
P57076	31.4
P52594	32.23
Q96NB2	28.79
Q96NB3	44.71
Q96EV2	17.66
Q9UKI8	19.25
Q96EV8	68.68
O15372	193.34
O15371	212.0
P60033	88.93
Q9H1D9	29.24
P43378	18.41
O15379	21.36
Q13724	156.63
P78312	1.49
P78314	6.7
Q9Y276	21.95
P78316	51.27
P78318	85.12
Q14847	484.47
P22307	91.96
Q6IMN6	6.63
Q8NI22	25.46
P00403	506.03
Q14318	56.19
Q13523	83.83
Q14314	16.62
O43815	155.04
P08670	4270.15
O43813	142.84
Q8TDQ1	6.45
O43819	14.0
Q5T2T1	3.18
Q9UEW3	3.96
Q8N960	27.79
O43747	182.73
Q9UEW8	56.13
Q92796	2.31
Q92797	85.74
Q92794	13.91
Q92793	11.79
P10144	7.53
Q92791	4.14
P04792	73.27
Q7KZI7	49.84
Q9Y3B7	121.06
Q9Y3B4	171.67
Q9Y3B2	29.18
Q9Y3B3	140.92
Q9Y3B1	9.71
Q9Y3B8	31.1
Q9Y3B9	39.76
Q8NEB9	63.7
Q99816	94.96
P42356	20.75
Q9UGU0	5.91
P0CJ78	1.88
Q9UGU5	3.18
Q9H063	29.01
Q9H061	48.46
P46527	113.43
Q5JPH6	21.33
P20226	16.6
Q96DM3	27.83
Q99766	117.48
Q8IUZ5	33.58
P98095	1.65
Q13310	41.27
Q8NDD1	19.1
Q13315	84.48
Q13316	3.74
Q8N612	1.98
P19397	25.72
P04899	1145.12
Q9ULU4	7.92
P17252	19.03
Q5VWX1	10.72
Q8IZD2	8.14
Q8IZD4	6.16
Q9BZ72	2.8
Q9HCK8	5.75
Q8IWD4	6.83
Q9HCK5	2.15
Q9HCK1	0.79
P55008	249.84
Q8WXI7	0.09
Q96EI5	50.79
Q8WXI9	83.13
Q9UN37	68.27
Q96K37	4.66
Q9BUH6	250.69
P19971	246.43
P22681	39.79
Q8NCY6	5.07
Q16204	97.88
P62241	836.17
P62244	1110.76
P62249	837.41
Q96GW9	12.53
Q8WWM7	73.62
Q9BVV6	1.23
Q9BVV7	22.2
P13051	30.11
P53990	152.22
P09110	89.51
Q9BYG3	109.75
Q8NBU5	35.85
O14561	119.8
O14562	18.75
Q9NNW5	1.71
Q9NNW7	33.23
P78371	845.68
P35754	141.75
Q9H8T0	6.3
P34913	6.66
Q10567	370.9
Q08211	862.99
O75528	34.13
Q9Y512	136.49
O75832	187.91
O75521	86.17
Q8IX30	1.91
Q9Y6M9	277.17
P11310	264.24
P08240	116.56
Q5TFE4	68.42
Q8TAT6	73.51
P08246	387.78
Q9Y6M5	3.77
P15336	15.3
Q2M296	4.95
P17535	29.66
O95819	32.3
O95816	61.44
O95810	66.35
Q13148	186.55
Q13144	7.79
Q8IZY2	0.89
Q8NFI3	32.3
O75787	16.05
P52788	111.23
P52789	24.46
Q8TF20	1.99
Q9UK97	3.99
Q01196	21.41
Q8N573	59.63
Q9UK99	15.3
P62888	1419.97
Q6P9G4	71.25
Q9H3E2	2.13
Q58FF6	25.07
Q58FF7	76.35
Q6P9G9	3.48
Q8TAQ2	263.8
Q9BZH6	24.42
O94851	1.65
O94855	1.85
P05771	475.02
P24844	21.05
P12956	1541.54
P12955	107.1
P07951	50.81
P07225	8.33
Q6QNY1	104.58
O43559	3.83
Q9UHN6	13.52
Q14699	95.82
Q14694	64.66
Q14697	747.74
Q14696	112.02
Q14690	42.99
Q6ZMV8	3.53
Q14692	35.78
Q16695	807.28
O14818	501.3
O14813	7.04
Q16698	364.46
Q9UPT5	72.57
Q96HY7	18.22
Q9UPT8	44.63
P04424	48.47
Q3MHD2	9.61
O60306	43.85
O60307	20.41
O60304	3.89
Q6ZNJ1	6.21
Q9BV38	39.61
Q9NXG2	350.28
O60906	21.9
O60907	3.34
O60902	5.97
Q27J81	53.85
Q9UBP6	72.93
Q9UBP0	31.05
P06576	2305.67
P13535	0.94
P60900	487.38
P60903	502.87
P63302	44.17
P11021	1387.51
Q9H400	26.68
Q63ZY6	24.3
Q9NSC5	5.24
Q15276	75.65
P68366	213.15
Q7L4P6	12.99
O00148	921.59
O00142	6.73
Q9UJJ9	12.28
P13284	231.31
Q5VYK3	30.64
Q9BS92	14.74
A7E2F4	23.81
Q8IUE6	119.27
Q9H0L4	12.95
P51553	268.17
P51003	93.19
P52209	518.3
Q9UL03	8.31
O00499	264.45
O95155	9.99
Q9P2F8	2.19
Q9P2F9	3.18
P31267	7.92
Q15311	41.15
P31260	4.92
Q9H6Z4	159.41
Q7Z4R8	10.04
Q9NP73	1.66
Q9NP72	127.13
Q9NP71	2.24
Q9NP77	73.94
Q9NP79	117.02
Q6PJW8	15.73
Q6GTX8	106.28
P18887	93.1
Q9UKG1	199.06
Q30154	118.02
P43353	16.1
O15397	22.62
P43354	9.4
P07766	126.2
Q12849	15.71
Q12846	146.51
P78332	22.71
P78330	50.06
Q9Y217	14.5
Q12840	16.0
P18085	71.21
P09651	1400.11
P04229	376.66
Q32NB8	6.65
P68104	3096.04
Q15070	17.19
O43837	366.02
P08651	7.5
Q14191	2.57
Q14197	44.15
Q14194	6.71
Q05193	17.14
P60484	4.42
O60683	5.63
O60684	45.19
Q8TB92	5.28
O75312	53.26
Q5VW32	62.85
O75317	4.87
O75643	293.56
Q5VW38	9.34
O75319	5.36
Q8WV92	21.35
O75648	8.74
P23458	43.84
Q8TCS8	31.56
Q13084	41.51
O43765	147.01
Q02978	428.8
O43761	16.99
O43760	235.48
O43768	280.51
O95429	4.21
Q14738	44.72
Q14739	374.79
Q13332	0.96
Q13330	38.74
Q9Y5V0	98.21
Q5TC82	1.66
Q9Y5V3	2.42
P51957	6.62
Q99747	66.06
Q8IUX1	8.04
O43824	22.01
Q8IUX4	18.54
O43491	176.06
O43493	57.15
Q8N635	8.46
O43497	2.38
Q6IN85	78.76
Q7Z7N9	17.72
Q9ULS5	3.88
O15550	2.71
Q9BTX7	21.67
O15121	16.53
Q9NZ63	6.19
Q9HCI7	6.67
Q16595	36.08
Q712K3	61.45
Q7Z794	3.37
Q8WXG9	0.6
Q86SR1	6.05
Q8WXG6	3.41
Q9BUN8	79.69
P21359	1.31
Q6DKJ4	8.62
P09884	1.26
Q16773	17.43
Q16774	28.81
Q16775	74.07
Q2TAL8	31.38
P10768	212.22
Q9Y2C4	15.24
Q9Y2C9	2.27
O14602	76.14
O14607	1.4
Q8TDN2	3.34
Q8TDN6	55.44
Q9UNM6	276.94
Q502W6	2.86
P55060	292.9
P55061	7.86
P50548	7.11
Q86YV0	208.84
P51946	16.63
Q9BVT8	15.89
P51948	11.65
Q8WUQ7	16.47
Q9BYE2	33.28
P37802	1612.13
Q9NVJ2	145.31
P47712	2.45
O14548	99.24
P52948	67.59
P52943	74.21
Q96GQ7	58.07
Q96GQ5	20.45
P49815	10.4
Q86UY8	3.29
Q9Y689	10.07
Q9C0B1	93.08
P14866	1291.62
Q9C0B7	3.46
P14868	540.48
Q93091	24.27
Q93096	31.59
P05091	181.34
P13073	724.75
O75818	14.96
Q9BZM6	7.45
O75817	26.66
Q6PK04	18.84
Q5T5Y3	3.52
Q15102	162.16
O15234	5.47
O15235	27.5
O95831	355.55
O95834	35.43
O95837	5.02
P54819	1237.2
Q8TF05	15.6
Q8TF01	13.52
Q9NRN9	8.8
Q9NRN7	46.66
Q5T1C6	7.69
Q9H875	19.87
Q96Q05	12.99
Q92922	159.63
Q9UIJ7	212.2
Q92925	187.69
Q9UK76	78.17
Q92854	8.68
P0C7Q5	5.9
Q6P9A2	6.0
Q92851	28.32
Q9H3K6	536.23
Q9H3K2	134.6
P24158	120.06
P98179	559.0
P42898	2.8
P42677	419.03
P42892	21.54
P98171	345.68
P98170	7.36
P98175	74.57
P98174	1.96
Q04760	371.56
Q8N0W3	7.1
Q5SSJ5	824.98
P26373	619.23
P12931	10.46
Q9UHL4	115.19
P60673	42.89
P46976	111.26
P49257	116.02
Q9UNP9	93.62
Q71UI9	1714.46
O94874	246.86
Q9BYX2	15.84
Q9BYX7	178.78
Q9BYX4	8.94
Q6NSI3	4.9
H8Y6P7	7.13
P25445	11.06
Q96G46	31.62
P50225	79.39
P50224	36.61
P63096	93.05
Q8NEY1	1.03
Q8NEY8	7.91
P63098	270.28
Q9UBR2	73.93
P30443	362.69
P84157	9.72
P49662	38.58
F5H284	11.49
Q8N752	10.68
Q06265	68.2
P54105	127.35
Q96BZ4	60.02
Q14669	45.43
O14734	11.62
Q5C9Z4	15.17
Q8N5A5	94.58
Q96DT6	3.97
O00160	132.03
O00161	330.57
O00165	26.39
P61254	471.52
Q15291	67.02
Q49AR2	33.41
P59768	265.8
Q9H0J4	2.31
Q13627	17.07
Q9H0J9	10.56
Q13621	1.72
Q13620	72.24
Q9BPW8	244.3
O00258	10.55
Q5T655	4.04
P51571	241.61
P51572	447.24
Q5T653	50.13
P52888	108.51
Q9P2X3	57.2
Q9P2X0	62.01
O95139	26.94
P55210	48.7
P55212	12.53
P51684	29.46
P51688	25.76
Q9H6T3	57.87
Q07020	733.0
Q07021	518.94
Q9NSE4	278.71
Q9NP97	95.52
Q9NP92	24.86
Q32P44	63.56
Q9P021	37.21
Q32P41	3.58
Q96SU4	27.59
Q96ER9	27.33
Q03252	1266.92
Q9Y237	135.98
Q6P1X6	52.41
Q9Y232	21.97
Q6P1X5	4.57
Q9HBH5	130.18
P10515	136.08
Q8IZ81	71.62
Q9HBH0	44.16
Q8IZ83	186.28
P07741	808.74
Q5JY77	1.33
P15586	43.69
P25942	27.26
Q9BTK6	37.64
Q86VN1	52.38
Q7Z5R6	336.43
P09326	82.91
P00918	114.15
O60524	23.76
Q5RHP9	1.24
Q6ZMI0	61.43
P15391	157.02
P14678	534.14
O43852	151.82
Q8WVN6	7.72
P53680	73.56
P49069	19.0
Q9UL46	1553.37
P35237	239.88
P35236	41.19
O75486	4.7
O75489	262.18
P14324	121.02
Q8NEF9	21.45
O60664	598.37
O60667	14.51
Q3KQV9	14.63
Q9Y3F4	146.56
O60662	6.13
P17980	216.27
P17987	695.01
Q92466	39.23
Q96JB2	13.3
Q96JB3	3.15
Q96JB5	245.6
Q8IYB5	24.85
Q5VZ89	16.75
Q8IYB7	14.71
Q8IYB3	83.6
O75665	3.58
O75663	66.36
Q8IYB8	47.43
Q05315	25.36
P27540	9.63
Q8IVB4	8.63
Q496J9	2.53
Q9BQP7	21.17
Q15843	460.0
O43704	5.98
Q8N386	56.6
O43709	39.27
O43708	25.85
P61803	233.75
Q96DI7	180.46
P42285	76.16
Q9NPA0	7.88
Q9NPA2	3.34
P68871	456.49
P23511	84.87
Q9Y5X2	39.69
Q9Y5X3	285.24
Q9Y5X1	59.53
Q99729	270.72
P32019	27.73
Q99720	74.73
Q96EK5	11.62
Q8N4F0	4.24
Q9UGY1	8.46
Q68D91	13.3
Q8N655	1.52
Q96EK9	21.61
Q7Z7L7	4.73
Q96FS4	139.54
Q7Z7L1	2.03
Q02338	43.75
Q9NZ43	49.73
Q9NZ45	342.08
Q16576	104.72
Q5UIP0	12.16
P26639	207.57
Q13769	69.1
Q5VSL9	69.86
Q9BUL8	320.98
O95865	211.16
Q5TGZ0	94.76
P16219	56.52
Q9BUL5	42.86
Q16718	263.55
Q16719	75.73
Q9ULQ1	4.43
O15498	167.53
Q9BW27	77.88
Q03001	0.48
Q9NWT6	20.72
Q9NWT1	28.48
O15260	192.22
Q9NWT8	9.33
Q9H0R1	15.24
O14662	16.9
Q9H0R6	10.89
Q5D1E8	22.23
Q86W34	5.06
Q96E52	10.41
Q9P0W8	3.08
Q7L1Q6	160.69
P20618	519.88
Q96K76	46.42
Q8IV38	8.46
Q8NBQ5	171.05
P56537	149.04
P51965	9.75
Q9NQ39	435.56
O14521	73.46
Q8TBZ0	2.16
Q9BYC8	9.75
Q9BYC9	47.85
O14524	12.36
O14526	43.08
O14529	2.58
Q9NVH1	19.78
Q9NVH2	21.48
Q9NVH6	42.14
Q9BYC5	12.55
Q9NYM9	67.37
Q8WWI5	5.69
Q8WWI1	5.41
Q96GS4	84.08
Q9BXY0	17.7
Q4KMQ2	11.79
A6NHQ2	6.02
Q9UBI1	75.36
P11836	548.81
P11831	4.04
Q9UBI9	17.73
O00757	17.04
O00754	27.52
P39687	810.24
Q6I9Y2	87.88
Q9H9B4	246.03
P08758	795.44
Q9Y6A9	125.43
Q9Y6A4	100.78
Q9Y6A5	43.87
P23284	1045.77
P52434	60.86
P52435	78.48
Q15120	84.46
Q15121	166.48
Q15125	79.18
Q15126	142.3
P24394	4.65
O15211	9.99
Q86W42	77.82
O15213	36.78
P24390	25.51
O60488	42.16
Q9H0W9	89.13
Q9H0W8	21.72
P43250	79.05
Q8TF68	26.4
Q9NRL2	11.68
Q9NRL3	28.48
Q7RTS9	5.5
Q3ZCQ8	94.73
Q9UK59	108.47
Q9UK58	7.0
Q76G19	2.42
Q9UIL8	11.1
Q96LA5	7.51
Q96LA6	40.01
Q96LA8	4.98
P0C7W0	10.07
Q08257	367.44
A0PJX2	8.73
O75874	357.75
Q92878	191.17
Q969G2	4.84
Q969G3	214.7
O75879	16.86
Q92696	64.13
Q92871	21.04
Q5HYI7	5.95
Q8N0U8	42.08
Q5HYI8	23.69
Q8WZ42	0.55
P00558	3830.27
P04075	2429.53
O15182	21.35
Q9H920	11.02
O43516	317.51
Q96PC3	22.83
O43513	22.98
Q3YEC7	91.8
P07919	116.58
Q9UHB9	156.35
P41250	140.5
P07910	2014.03
Q9UHB7	8.19
Q2VPB7	6.66
O96033	21.39
Q7Z2K6	6.25
O75298	3.52
Q7Z2K8	2.04
O94898	1.75
Q9H4L4	6.42
Q9H4L5	24.74
Q9H4L7	3.55
P69905	259.83
Q13277	18.88
O75122	39.92
O75123	3.4
Q9BPZ7	17.65
Q8TEL6	2.3
O60341	42.67
Q6GYQ0	7.26
Q9UBT2	331.04
P61018	203.46
P61019	460.8
P11137	3.14
Q96D96	296.36
P49643	3.55
P61011	112.37
Q96BX8	147.49
Q15723	3.26
Q9H223	167.13
Q06203	47.26
Q9H5V9	8.14
Q8NB49	4.83
Q8NG11	13.6
P12268	261.73
Q96DV4	56.14
P40616	153.29
Q13601	95.57
Q96L91	10.93
P13798	77.07
Q96L92	102.17
Q96L94	18.91
Q13608	6.02
A0FGR8	61.15
Q9H0H0	15.53
Q9H0H3	6.33
Q9NS00	9.89
Q96T92	3.51
Q6NZY4	116.84
O15027	25.02
Q0VDF9	15.23
O00443	1.09
Q9HC21	41.13
P38432	20.0
O00442	137.91
Q86WB0	105.72
Q7Z4V5	103.88
Q8N5C6	22.4
Q07002	3.85
Q96QD9	23.3
Q96EP0	19.18
Q96ND0	13.56
Q96EP5	144.29
Q96T23	45.85
Q9P000	143.44
Q04206	86.62
Q9P003	103.72
P56181	17.47
P56182	63.18
Q12802	75.31
Q12800	47.37
Q9BU79	77.91
Q12809	1.65
Q9BU76	42.57
P02538	41.7
Q8ND24	10.75
P02533	72.84
P04264	1292.26
Q9NRK6	23.73
Q7KZ85	99.57
P00973	9.07
Q9H7P9	1.41
Q9BTM9	36.67
O60502	54.74
O60506	707.47
O60508	47.77
Q58A45	13.09
P39210	52.87
Q96SW2	20.64
P39748	244.94
P49006	85.47
Q9Y3D6	123.19
Q9Y3D7	30.19
Q9Y3D0	70.88
O60641	2.26
Q9Y3D3	27.2
Q9Y3D8	10.4
Q9Y3D9	134.18
P27701	42.26
P27707	403.37
P27708	44.65
Q8TEQ0	59.45
Q8TEQ6	56.93
P13861	215.45
P28702	29.32
P25963	5.86
P00395	3.66
Q9H000	17.78
Q9H553	17.72
P00390	374.6
Q7Z6L1	16.09
Q9H008	121.62
Q9Y4B5	4.98
O75608	143.78
P08567	312.01
Q9BXF3	1.27
Q13045	175.86
P23497	195.32
Q9H8M5	4.32
Q9H8M2	18.69
Q9H8M1	7.71
Q13042	26.21
Q99704	35.84
Q9Y5Z9	5.67
Q8TC44	3.89
Q99707	5.94
Q99700	4.46
Q9Y5Z4	54.73
H0YLE9	23.8
Q9H9Y6	9.76
Q9H9Y2	31.21
Q8IZN3	3.91
O95685	6.41
O95684	53.3
P19484	94.73
Q8IWB1	67.24
Q02318	3.46
Q8IWB7	67.56
Q8IWB6	1.24
O43189	43.68
Q5SXM8	21.73
O43181	155.65
P15880	839.31
Q16555	341.65
Q16557	4.35
Q9BUR5	74.9
Q9BUR4	10.55
P31994	177.74
P21399	33.93
Q9HA38	6.51
P22626	3467.35
Q9NUX5	14.6
Q53H96	189.36
Q8NCS4	12.36
P12074	68.66
Q8N7Z5	0.99
Q96FQ6	17.68
Q8NE01	5.48
O14646	2.12
O14647	19.75
O14641	2.64
Q9NWV8	62.78
Q9NWV4	184.98
B9A064	90.47
P49585	95.0
Q9P0U4	55.12
Q9P0U3	19.88
P49588	142.61
P49589	187.97
Q96E39	94.07
P20339	176.38
Q9UNI6	5.54
Q7L1W4	2.12
Q8NBS9	122.66
P47755	449.62
Q9NVN8	12.73
Q2YD98	2.59
Q8TBX8	13.23
Q676U5	18.34
Q15555	135.23
Q15554	217.85
Q96GM5	68.08
P83876	49.72
P25398	560.63
Q96GM8	18.45
Q03060	5.36
Q06546	170.84
Q06547	4.91
Q86Y38	1.94
Q00266	4.78
Q8N3P4	19.35
Q9UBK7	7.99
Q9UBK9	22.87
P20701	149.07
P20700	2356.5
Q04941	62.5
Q9H2G2	36.56
P09429	5389.43
Q9BVP2	40.39
Q13813	925.43
P08779	65.12
B7ZAP0	14.37
Q9Y6C2	1.96
P19838	154.48
Q6PF15	5.21
Q15149	585.79
Q5JRA6	35.15
Q8IX12	130.39
O95870	26.39
P06396	262.95
O95873	6.58
P35914	66.8
Q9H0U9	16.97
Q9H0U6	50.7
O15270	16.58
Q9H0U4	527.02
Q9H0U3	38.4
P32249	25.31
P32248	9.73
Q8TF46	3.45
Q96CQ1	6.09
Q01130	278.47
Q969E4	102.0
Q969E2	16.22
Q96LC7	5.45
Q9Y572	3.67
P0C7U9	6.57
Q9Y570	59.17
Q8IX95	23.16
Q02818	100.69
Q8N884	10.64
P26842	7.16
O75157	5.27
Q5HYK3	67.42
Q9H497	9.03
Q6ZUJ8	170.8
Q9H490	16.67
Q8WZ60	2.97
Q9H944	17.97
P54852	56.61
Q96PE3	3.8
P41231	4.94
P41236	9.07
O96011	264.2
P41235	3.95
O96019	145.08
O96018	6.79
Q7L8J4	4.8
P46939	15.87
Q5T9A4	5.75
O14879	22.36
Q96G01	3.77
Q96G03	660.04
Q7L3T8	7.83
O60361	967.42
Q13257	44.38
O75143	7.38
O75140	4.6
O75146	211.47
O75145	1.56
Q9BWS9	23.21
P19013	3.64
P61073	36.75
Q9UBV8	75.55
A8MV57	13.78
Q9UBV2	30.56
Q8WUD4	163.17
P13647	90.31
Q8WUD1	43.09
Q6P4Q7	2.41
Q9BQI6	6.89
P11049	263.26
Q5T8P6	42.25
Q13162	143.48
P50914	516.47
Q96IG2	8.62
Q96DP5	4.76
O43759	49.18
P51531	146.18
P51532	37.29
P30405	123.07
Q8N954	27.64
Q96N11	8.34
P31751	44.9
O15042	137.58
O15047	19.07
P20138	15.72
Q8NAV1	61.24
P16401	2291.68
P16403	3379.09
P16402	1699.11
Q9HC07	65.75
Q969R5	2.64
Q9UKA8	15.18
P18827	6.43
Q9UKA4	5.95
Q9HBL7	181.96
P51398	54.95
Q9HBL8	25.03
Q12824	85.09
Q86VB7	3.33
Q9H7N4	29.96
O60568	2.46
Q6Y7W6	15.29
O60563	23.27
Q8TDY2	2.28
Q9UMR2	3.87
Q96SY0	25.41
Q9P0N9	6.14
Q8IY37	24.16
P49023	35.58
O75448	20.81
Q9NVS2	18.81
Q8NBN7	5.81
Q9BZF2	6.56
Q9NVS9	97.41
P17947	87.27
Q8N9A8	29.25
Q15084	338.21
Q9Y2I8	80.16
Q15080	112.26
Q14289	199.88
Q05682	8.95
Q5TF39	3.71
Q8IVF1	2.22
P53396	526.65
Q8WVJ2	94.43
O94913	6.03
Q13395	4.59
O94915	19.05
O94919	3.79
Q02487	4.17
Q9NPE3	785.23
Q8N699	7.85
Q8N697	23.54
P0DJ93	20.16
Q6PCB8	39.6
Q6PCB5	8.8
Q8IZL8	73.21
Q9HCS7	89.71
Q86Y37	5.08
Q86Y39	98.34
P36776	241.01
Q9NZ08	81.72
Q9NZ09	3.79
Q9NZ01	179.5
P22749	38.23
Q16533	4.85
Q16531	256.36
Q16537	15.26
Q16539	101.06
Q6NUK1	496.66
Q9H3R5	7.33
Q9H3R0	3.48
Q9BUP3	92.57
Q9BUP0	85.23
Q9NUV9	300.19
Q02543	572.84
Q96FW1	526.9
Q7Z7H5	72.39
Q7Z7H8	14.25
Q9Y2I1	8.77
Q9Y2I7	7.04
Q9BY49	32.06
Q9BW61	52.89
Q9BY44	38.53
Q9BY43	274.35
Q9BY42	49.26
Q96PZ0	27.81
Q96PZ2	8.92
Q6IAA8	646.72
Q460N3	2.88
Q9P0S3	12.01
Q9P0S2	16.97
Q9UNK0	85.3
Q96E11	135.41
Q9P0S9	162.38
Q9UNK9	2.77
Q8WXA9	31.62
O75323	160.77
Q8WXA3	5.56
Q7Z739	29.41
5SrRNA	1870
58SrRNA	1870
25SrRNA	1870
18SrRNA	1870
5SMrRNA	680
23SMrRNA	680
16SMrRNA	680